{
  "last_updated": "2022-08-09",
  "summary": "Avec 39 points sur 100 pour le DigiPartIndex, le canton de Neuchâtel se classe au 9e rang de Suisse, c’est-à-dire dans la moyenne cantonale, mais à un niveau relativement bas dans l’index. Par rapport à l'année dernière, le score a augmenté de 10 points, faisant progresser le canton de 5 places dans le classement général.\r\n\r\nLe canton de Neuchâtel est relativement équilibré en termes de dimensions individuelles : formation d’opinion, participation et prise de décision. Ce dernier a obtenu le score de 45 (+3) pour la dimension « formation de l’opinion » (discuter, apprendre, surveiller), 28 (+15) pour la dimension « participation » (consulter, donner son avis) et 48 (+/-0) pour la dimension « prise de décision » (s’identifier, voter et élire).\r\n\r\nCependant, il y a des différences mineures entre les outils individuels. Avec 30 points d’écart, la fourchette entre la valeur la plus basse et celle la plus haute est relativement faible.",
  "tools": {
    "1": {
      "text": null
    },
    "2": {
      "text": null
    },
    "3": {
      "text": null
    },
    "4": {
      "text": null
    },
    "5": {
      "text": null
    },
    "6": {
      "text": null
    },
    "7": {
      "text": null
    }
  }
}
