{
  "last_updated": "2021-08-23",
  "summary": "Avec 55 points sur 100 pour le DigiPartIndex, le canton de Genève se hisse au 1er rang de Suisse, c'est-à-dire en tête du classement, mais seulement dans la zone médiane de l’index. Tous les cantons, y compris le canton de Genève, ont donc encore une grande marge de progression. Le canton de Genève est relativement équilibré en termes de dimensions individuelles formation d'opinion, participation et prise de décision. Il a obtenu 58 points pour les dimensions formation d'opinion (discuter, apprendre, suivre) et participation (consulter, exprimer une opinion) et 50 points pour la dimension prise de décision (identification, vote et vote). Cependant, il existe des différences significatives entre les outils individuels T1-T7. Avec 55 points d’écart, la fourchette entre la valeur la plus basse et celle la plus haute est relativement élevée.",
  "tools": {
    "1": {
      "text": "Le canton de Genève dispose d’une [plateforme digitale de délibération](https://participer.ge.ch/), servant aussi à l’e-consultation. Les interactions y sont cependant peu nombreuses. Avec un bonus pour l’association à un autre outil ([Twitter](https://twitter.com/GE_chancellerie), [Nitter](https://nitter.net/GE_chancellerie)), ainsi qu’un malus pour l’utilisation qui s’annulent, le score final est donc de 75."
    },
    "2": {
      "text": "Dans le canton de Genève, [VoteInfo](https://www.bfs.admin.ch/bfs/fr/home/statistiques/politique/votations/voteinfo.html) et [smartvote](https://smartvote.ch/fr/group/40/election/21_fr_leg/home?locale=fr_CH) sont à la disposition des citoyen·ne·s. Le score est donc de 50 points. Pour cet indicateur, le canton se rapproche de la moyenne suisse qui est de 52,5."
    },
    "3": {
      "text": "Le canton de Genève fournit des [procès-verbaux](https://ge.ch/grandconseil/sessions/live/) des séances du Grand Conseil, des [rapports du gouvernement](https://www.ge.ch/publication?All=&organisation=497) et [d’importantes statistiques](https://statistique.ge.ch/) en ligne accessibles sous format PDF. Ces ressources ne sont pas traitées ultérieurement. Le score est de 50 points. Cela place le canton légèrement en dessous de la moyenne cantonale qui s’élève à 55,8."
    },
    "4": {
      "text": "Le canton de Genève dispose de sa propre [plateforme de consultation](https://participer.ge.ch/), où il est même possible de délibérer. Elle est régulièrement utilisée pour des consultations. Le score est de 75. Avec un bonus pour [l’utilisation](https://participer.ge.ch/processes?filter%5Barea_id%5D=&filter%5Bdate%5D=past&filter%5Bscope_id%5D=) ainsi que [l’association à un autre outil](https://www.ge.ch/dossier/geneve-2050/consultation-geneve-2050/sondage-5000-reponses) de 5 points chacun, le score final est de 85. Cette note situe le canton bien au-dessus de la moyenne nationale qui s’élève à 25,4 pour cet outil."
    },
    "5": {
      "text": "Dans le canton de Genève, il existe plusieurs plateformes de pétitions en ligne privées non affiliées à un parti, qui sont occasionnellement utilisées (ex : [Openpetition](https://www.openpetition.eu/ch/region/petition/Gen%C3%A8ve?language=fr_FR.utf8), [Pétition en ligne](https://www.petitionenligne.ch/browse.php?order_by=petition_created&page_number=1), [Change.org](https://www.change.org/search?q=gen%C3%A8ve)). Avec un bonus de 5 points pour la variété, le score final est de 30. Pour cet indicateur, le canton de Genève se situe donc légèrement au-dessus de la moyenne générale qui est de 24,0 points."
    },
    "6": {
      "text": "Le canton de Genève dispose d’un [portail d’e-gouvernement](https://www.ge.ch/catalogue-e-demarches) sur lequel il est possible de s’inscrire sans vérification de l’identité. Pour accéder à toutes les fonctionnalités, il faut en revanche faire vérifier son identité. Le login se fait via un bouton central très intuitif, mais il existe plusieurs logins différents. Avec un bonus pour l’ergonomie et un malus pour les différents portails qui s’annulent, le score final est de 50. Cette note situe le canton bien au-dessus de la moyenne cantonale qui est de 29,6 points."
    },
    "7": {
      "text": "Le canton de Genève ne dispose [actuellement](https://www.ge.ch/document/point-presse-du-conseil-etat-du-19-juin-2019#extrait-16319) d’aucun e-vote. [Par le passé](https://www.bk.admin.ch/bk/fr/home/droits-politiques/groupe-experts-vote-electronique.html), le vote électronique était disponible pour les Suisse·sse·s de l’étranger et parfois pour tou·te·s les Genevois·es autorisé·e·s à voter. Avec un malus pour l’utilisation et un bonus d’inclusion qui s’annulent, le score final est de 50. Pour cet outil, Genève se situe donc au-dessus de la moyenne suisse qui est de 36,5 points sur l'ensemble des cantons."
    }
  }
}
