{
  "last_updated": "2023-07-27",
  "summary": "With 14 out of 100 possible points the canton Nidwalden is on position 24 in Switzerland in the final group of the cantons, but only in the very low range of the scale. Compared to last year, the score has deteriorated by 26 points, as a result of which the canton has deteriorated by 19 places.\r\n \r\nFor the opinion formation dimension (discussing, learning, monitoring), he achieves a score of 43 (+/- 0), for the co-creation dimension (consulting, voice opinions), it achieves a score of 3 (-50) and for the decision dimension (identifying and voting) a value of 28 (+/- 0; Please note that there has been a change in the coding scheme for the 'eVoting' indicator in this dimension, which is why the values stated here for the previous year cannot be compared directly with those of the previous year's profile).\r\n \r\nThere are also considerable differences between the individual tools. The range between the lowest and highest value is very high with 55 points.",
  "tools": {
    "1": {
      "text": "The canton has various channels on social media (Twitter, Facebook, YouTube) that are used regularly. There is sometimes interaction between the canton and the users. (https://twitter.com/KantonNW; https://www.facebook.com/KantonNidwalden; https://www.youtube.com/channel/UCJQ4VPcwy0PyQUgJrhH4Knw). Therefore, 2 points are assigned.\r\n\r\nIn total, the canton receives 2 points."
    },
    "2": {
      "text": "In the canton, voters can use VoteInfo and smartvote. (https://www.bfs.admin.ch/bfs/fr/home/statistiques/politique/votations/voteinfo.html; https://www.smartvote.ch/de/group/43/election/22_nw_leg/home). Therefore, 3 points are assigned.\r\nBonus and Malus:\r\nInclusiveness:  There are informational videos on cantonal ballots.  ( https://www.youtube.com/watch?v=uKTclwN9Fn4&t=2s ). For this  0.2  points are assigned.\r\n\r\nIn total, the canton receives 3.2 points."
    },
    "3": {
      "text": "The canton makes minutes of the sessions of the Grand Council, government reports and important statistics available online as PDF files. These are not processed further. (https://www.nw.ch/sitzung; https://www.nw.ch/regierungsratmain; https://www.nw.ch/vwddirektionssekrdienste/1283). Therefore, 3 points are assigned.\r\n\r\nIn total, the canton receives 3 points."
    },
    "4": {
      "text": "Usually, materials can be submitted by e-mail (For municiplaities the canton uses the software Axioma). Consultations take place freqeuntly. (https://www.nw.ch/exekutivgeschaefte). Therefore, 1 points are assigned.\r\nBonus and Malus:\r\nUse: There are frequent consultations. (NA). For this 0.2 points are assigned.\r\n\r\nIn total, the canton receives 1.2 points."
    },
    "5": {
      "text": "In the canton, partisan and non-partisan private e-petition platforms were used in the past, however non during the last year. (https://www.openpetition.eu/ch/region/petition/Nidwalden; https://www.petitionen.com/search.php?q=Nidwalden; https://wecollect.ch/projekte/klima-initiative-nidwalden; https://www.openpetition.eu/ch/region/petition/Nidwalden). Therefore, 1 points are assigned.\r\n\r\nIn total, the canton receives 1 points."
    },
    "6": {
      "text": "The canton has an e-government portal where you can log in without verifying your identity. The login is very intuitive via a central button. (https://www.nw.ch/login). Therefore, 2 points are assigned.\r\nBonus and Malus:\r\nUsability: The login to the tool is very intuitive. (NA). For this 0.2 points are assigned.\r\n\r\nIn total, the canton receives 2.2 points."
    },
    "7": {
      "text": "There is a legal basis for e-voting in the canton (EG BPR Art. 28). (https://gesetze.nw.ch/app/de/texts_of_law/131.1). Therefore, 2 points are assigned.\r\n\r\nIn total, the canton receives 2 points (There was an adjustment in the coding scheme: As eVoting is now available again prior experiences only result in 2 points instead of 3)."
    }
  }
}
