{
  "last_updated": "2023-08-02",
  "summary": "Con 20 punti su 100 per il DigiPartIndex, il Canton Svitto si colloca al 22° posto, nella fascia bassa dei cantoni, ma solo nella fascia bassa della scala. Rispetto all'anno scorso, il punteggio è peggiorato di5 punti, il che significa che il Cantone è sceso di 2 posizioni.\r\n \r\nHa ottenuto un punteggio di 50 (+17), per la dimensione della formazione dell'opinione (discutere, imparare, monitorare), un punteggio di 12 (-25) per la dimensione della partecipazione (consultare, esprimere opinioni) e un punteggio di 12 (+/- 0) per la dimensione del processo decisionale (identificazione e voto; si noti che c'è stato un cambiamento nello schema di codifica per l'indicatore 'eVoting' in questa dimensione, motivo per cui i punteggi qui riportati per l'anno precedente non possono essere direttamente confrontati con quelli del profilo dell'anno precedente).\r\n \r\nEsistono inoltre notevoli differenze tra i singoli strumenti. L'intervallo tra il valore più basso e quello più alto è molto alto, pari a  75 punti.",
  "tools": {
    "1": {
      "text": null
    },
    "2": {
      "text": null
    },
    "3": {
      "text": null
    },
    "4": {
      "text": null
    },
    "5": {
      "text": null
    },
    "6": {
      "text": null
    },
    "7": {
      "text": null
    }
  }
}
