{
  "last_updated": "2022-08-03",
  "summary": "Der Kanton Aargau liegt mit 49 von 100 möglichen Punkten für den DigiPartIndex schweizweit auf Rang 3, also in der Spitzengruppe der Kantone, jedoch lediglich im mittleren Bereich der Skala. Im Vergleich zum letzten Jahr konnte sich der Kanton um 5 Punkte und dadurch in der Rangliste um 2 Plätze verbessern.\r\n\r\nIn den einzelnen Dimensionen Meinungsbildung, Mitwirkung und Entscheidung ist der Kanton relativ ausgeglichen. Für die Dimension Meinungsbildung (Diskutieren, Lernen, Monitoring) erzielt er einen Wert von 62 (+19), für die Dimension Mitwirkung (Konsultieren, Meinung äussern) 48 (+/-0) und für die Dimension Entscheidung (Identifizierung, Abstimmen und Wählen) einen Wert von 40 (+/-0).\r\n\r\nFür die einzelnen Tools zeichnen sich jedoch erhebliche Unterschiede ab. Die Spannbreite zwischen dem niedrigsten und höchsten Wert ist mit 60 Zählern sehr hoch.",
  "tools": {
    "1": {
      "text": null
    },
    "2": {
      "text": null
    },
    "3": {
      "text": null
    },
    "4": {
      "text": null
    },
    "5": {
      "text": null
    },
    "6": {
      "text": null
    },
    "7": {
      "text": null
    }
  }
}
