{
  "last_updated": "2023-08-18",
  "summary": "Der Kanton Schaffhausen liegt mit 53 von 100 möglichen Punkten für den DigiPartIndex schweizweit auf Rang 3 in der Spitzengruppe der Kantone, jedoch lediglich im mittleren Bereich der Skala. Im Vergleich zu letztem Jahr hat sich die Punktzahl um 24 Punkte verbessert, wodurch sich der Kanton um 13 Plätze verbessert hat.\r\n \r\nFür die Dimension Meinungsbildung (Diskutieren, Lernen, Monitoring) erzielt er einen Wert von 57 (+20), für die Dimension Mitwirkung (Konsultieren, Meinung äussern) erzielt er einen Wert von 50 (+ 38) und für die Dimension Entscheidung (Identifizierung, Abstimmen und Wählen) einen Wert von 52 (+/- 0; Achtung in dieser Dimension ist es beim Indikator 'eVoting' zu einer Veränderung des Codierungsschemas gekommen, weshalb die hier genannten Werte für das Vorjahr nicht direkt mit denjenigen des Profils des Vorjahres verglichen werden können).\r\n \r\nFür die einzelnen Tools zeichnen sich ebenfalls erhebliche Unterschiede ab. Die Spannbreite zwischen dem niedrigsten und höchsten Wert ist mit 55 Zählern sehr hoch.",
  "tools": {
    "1": {
      "text": null
    },
    "2": {
      "text": null
    },
    "3": {
      "text": null
    },
    "4": {
      "text": null
    },
    "5": {
      "text": null
    },
    "6": {
      "text": null
    },
    "7": {
      "text": null
    }
  }
}
