<?xml version="1.0" encoding="UTF-8" standalone="no"?>
<!-- Generator: Adobe Illustrator 16.0.2, SVG Export Plug-In . SVG Version: 6.00 Build 0)  -->

<svg
   version="1.1"
   id="Ebene_1"
   x="0px"
   y="0px"
   width="420"
   height="510"
   viewBox="-175.931 -213.741 419.99999 509.99999"
   enable-background="new -175.931 -213.741 406.316 492.574"
   xml:space="preserve"
   xmlns:xlink="http://www.w3.org/1999/xlink"
   xmlns="http://www.w3.org/2000/svg"
   xmlns:svg="http://www.w3.org/2000/svg"><defs
   id="defs65"><filter
   id="selectable_hidder_filter"
   width="1"
   height="1"
   x="0"
   y="0"
   style="color-interpolation-filters:sRGB"><feComposite
     id="boolops_hidder_primitive"
     result="composite1"
     operator="arithmetic"
     in2="SourceGraphic"
     in="BackgroundImage"
     k1="0"
     k2="0"
     k3="0"
     k4="0" /></filter>
	
	

		
	
			
		
				<defs
   id="defs13">
					<rect
   id="SVGID_1_"
   x="-175.931"
   y="-213.741"
   width="406.31601"
   height="492.57401" />
				</defs>
				<clipPath
   id="SVGID_2_">
					<use
   xlink:href="#SVGID_1_"
   overflow="visible"
   id="use15"
   x="0"
   y="0"
   width="100%"
   height="100%" />
				</clipPath>
				
			</defs>
<path
   fill="#ffffff"
   d="M 33.922146,-213.73973 H 244.069 V 95.236191 C 244.069,206.24704 150.05024,296.25901 34.056502,296.25901 -81.918482,296.25901 -175.931,206.24912 -175.931,95.236191 V -213.73973 Z"
   id="path2"
   style="stroke:none;stroke-width:1.04167" />
<rect
   x="33.987762"
   y="-213.73973"
   fill="#e8423f"
   width="210.08124"
   height="71.608276"
   id="rect4"
   style="stroke-width:1.04167" />
<rect
   x="33.979427"
   y="-69.078186"
   fill="#e8423f"
   width="210.08124"
   height="73.069939"
   id="rect6"
   style="stroke-width:1.04167" />
<path
   fill="#e8423f"
   d="M 33.97943,150.10246 H 236.15972 C 241.2944,132.68432 244.069,114.24103 244.069,95.227857 V 77.045021 H 33.97943 Z"
   id="path8"
   style="stroke-width:1.04167" />
<path
   fill="#e8423f"
   d="M 196.0457,223.1922 H 33.97943 v 73.06681 h 0.674902 C 99.607488,296.05481 157.63144,267.68092 196.0457,223.1922"
   id="path10"
   style="stroke-width:1.04167" />
<path
   clip-path="url(#SVGID_2_)"
   fill="none"
   stroke="#010202"
   stroke-width="3.048"
   d="M 228.853,-73.354 H 27.139 V -3.225 H 228.853 M 182.745,207.177 H 27.139 v 70.134 M 221.252,137.021 H 27.139 v 70.156 M 228.854,66.896 H 27.139 v 70.125 M 228.84601,-3.2249985 27.139,-3.225 m 0,0 v 70.121 m -0.055,-279.113 0.055,68.734 m 201.714,-0.008 H 27.139 v 70.137"
   id="path18"
   style="stroke-width:3.048;stroke-linecap:butt;stroke-miterlimit:4;stroke-dasharray:none"
   transform="matrix(1.0415168,0,0,1.0418173,5.7137037,7.3516124)" /><g
   id="g38"
   transform="matrix(1.0415168,0,0,1.0418173,5.7137037,7.3516124)">
		<g
   id="g36">
			<g
   id="g34">
				<defs
   id="defs27">
					<rect
   id="SVGID_3_"
   x="-175.931"
   y="-213.741"
   width="406.31601"
   height="492.57401" />
				</defs>
				<clipPath
   id="SVGID_4_">
					<use
   xlink:href="#SVGID_3_"
   overflow="visible"
   id="use29"
   x="0"
   y="0"
   width="100%"
   height="100%" />
				</clipPath>
				<path
   clip-path="url(#SVGID_4_)"
   fill="none"
   stroke="#010202"
   stroke-width="3.048"
   d="m 27.084,-212.217 h 201.77 V 84.357 c 0,106.555 -90.271,192.954 -201.641,192.954 -111.352,0 -201.617,-86.397 -201.617,-192.954 v -296.574 z"
   id="path32"
   style="stroke:none" />
			</g>
		</g>
	</g>
<path
   fill="#e8423f"
   d="m -157.98463,-136.76401 c 0,21.7271 10.37456,47.390179 39.62243,48.115283 5.53358,0.151064 19.394087,-0.516741 28.552145,-9.449282 5.484627,-5.360151 8.267561,-12.778921 8.267561,-22.029221 0,-15.54601 -7.900947,-22.41991 -14.523953,-25.46306 -8.031133,-3.6422 -17.506863,-3.25985 -23.002933,-1.61586 1.75807,-4.57046 6.10641,-12.0257 21.163615,-12.50181 6.037673,-0.19898 14.670805,1.33874 21.538568,9.7837 8.230066,10.10876 15.622753,32.29635 4.023379,80.537694 l -0.459309,1.949241 h 59.500817 l 0.02396,-1.566894 c 0.740517,-50.158291 -9.548628,-86.417701 -30.611223,-107.791631 -17.641212,-17.90259 -37.787273,-19.84349 -45.643435,-19.84349 -67.659022,0.008 -68.451622,59.27733 -68.451622,59.87533"
   id="path42"
   style="stroke-width:1.04167" />
<path
   fill="#010202"
   d="m -89.541344,-198.21456 c -35.586546,0 -52.710126,16.26172 -60.826666,29.90328 -9.08932,15.3543 -9.19868,30.88779 -9.19868,31.53893 0,22.44387 10.78179,48.948743 41.14408,49.722813 h 0.54472 l 0.63011,0.0083 c 8.75916,0 37.287349,-2.380552 37.287349,-33.077703 0,-22.05319 -15.639416,-29.92412 -30.269599,-29.92412 -1.90806,0 -3.98277,0.14273 -5.96061,0.45215 2.44965,-3.88285 7.43331,-8.1918 18.332784,-8.54185 0.358282,-0.0166 0.634284,-0.0166 0.907161,-0.0166 5.516915,0 13.3887,1.66483 19.63051,9.58369 7.815542,9.9181 14.756211,31.64519 3.425549,78.804098 l -0.932158,3.91515 h 4.015048 55.932578 3.124551 l 0.04895,-3.142122 c 0.740515,-50.589616 -9.69965,-87.235546 -31.070534,-108.914716 -18.054694,-18.33703 -38.718389,-20.31127 -46.765148,-20.31127 m -66.840381,61.41825 c 0,-2.49515 1.33835,-58.24384 66.840381,-58.24384 14.764543,0 74.504907,7.01977 74.71217,120.528887 0,1.799218 -0.0083,3.638026 -0.04062,5.482043 h -55.932579 c 4.190023,-17.446273 6.005386,-31.97859 6.005386,-43.95531 -0.0083,-35.20615 -15.622753,-48.33824 -32.144335,-48.33824 -0.333285,0 -0.674903,0 -1.009229,0.0239 -21.546894,0.68343 -23.002944,15.72519 -23.918434,16.89307 0.53326,-0.45945 1.54561,-0.9241 2.89647,-1.33457 0.33327,-0.0896 0.69156,-0.19169 1.06546,-0.28129 2.07471,-0.50007 4.74411,-0.84283 7.68535,-0.84283 11.513971,0 27.103395,5.24972 27.103395,26.74553 0,27.119551 -24.731855,29.903286 -34.122175,29.903286 -0.39889,0 -0.75718,-0.01667 -1.09046,-0.01667 -27.53146,-0.691768 -38.04349,-24.771296 -38.04349,-46.540056 v -0.0239 z"
   id="path44"
   style="stroke-width:1.04167" />
<rect
   x="-83.203712"
   y="-62.977303"
   fill="#e8423f"
   width="80.599861"
   height="11.985065"
   id="rect46"
   style="stroke-width:1.04167" />
<rect
   x="-83.203712"
   y="-62.977303"
   fill="none"
   stroke="#010202"
   stroke-width="3.175"
   stroke-miterlimit="10"
   width="80.599861"
   height="11.985065"
   id="rect48" />
<rect
   x="-83.203712"
   y="-29.932943"
   fill="#e8423f"
   width="80.599861"
   height="11.993402"
   id="rect50"
   style="stroke-width:1.04167" />
<rect
   x="-83.203712"
   y="-29.932943"
   fill="none"
   stroke="#010202"
   stroke-width="3.175"
   stroke-miterlimit="10"
   width="80.599861"
   height="11.993402"
   id="rect52" />
<rect
   x="-99.473251"
   y="-46.410332"
   fill="#e8423f"
   width="113.13061"
   height="11.993402"
   id="rect54"
   style="stroke-width:1.04167" />
<rect
   x="-99.473251"
   y="-46.410332"
   fill="none"
   stroke="#010202"
   stroke-width="3.175"
   stroke-miterlimit="10"
   width="113.13061"
   height="11.993402"
   id="rect56" />
<polygon
   fill="#e8423f"
   points="-73.763,154.724 -107.701,194.427 -81.451,-19.569 -12.236,-19.569 14.292,194.427 -19.923,154.982 -46.701,240.052 "
   id="polygon58"
   transform="matrix(1.0415168,0,0,1.0418173,5.7137037,7.3516124)" />
<polygon
   fill="none"
   stroke="#010202"
   stroke-width="3.048"
   stroke-miterlimit="10"
   points="-73.763,154.724 -107.701,194.427 -81.451,-19.569 -12.236,-19.569 14.292,194.427 -19.923,154.982 -46.701,240.052 "
   id="polygon60"
   transform="matrix(1.0415168,0,0,1.0418173,5.7137037,7.3516124)" />
</svg>
