<?xml version="1.0" encoding="UTF-8" standalone="no"?>
<svg
   height="510"
   width="420"
   version="1.1"
   id="svg94"
   xmlns="http://www.w3.org/2000/svg"
   xmlns:svg="http://www.w3.org/2000/svg"
   xmlns:rdf="http://www.w3.org/1999/02/22-rdf-syntax-ns#"
   xmlns:cc="http://creativecommons.org/ns#"
   xmlns:dc="http://purl.org/dc/elements/1.1/">
  <defs
     id="defs98" />
  <title
     id="title2">Wappen Schaffhausen</title>
  <path
     d="M 209.87924,0 H 420 V 308.90789 C 420,420.07895 326.07629,510 210.01342,510 94.017635,510 0.00447256,420.07895 0.00447256,308.90789 L 0,0 209.87477,0.01543421 Z"
     fill="#ffd72e"
     id="path4"
     style="stroke-width:0.223656" />
  <path
     d="M 209.87924,0 H 420 V 308.90789 C 420,420.07895 326.07629,510 210.01342,510 94.017635,510 0.00447256,420.07895 0.00447256,308.90789 L 0,0 209.87477,0.01543421 Z"
     stroke="#000"
     stroke-width="3.1625"
     fill="none"
     id="path6"
     style="stroke:none" />
  <path
     d="m 34.800971,165.66746 c 0,0 13.529487,3.19868 20.819756,0.55921 4.338381,-1.56579 4.718548,-9.73026 3.510958,-9.39474 -3.264967,0.96185 -20.439589,-1.78947 -26.321002,-3.31052 -1.677209,-0.425 1.990288,12.14605 1.990288,12.14605 z"
     stroke="#000000"
     stroke-miterlimit="10"
     stroke-width="2.78004"
     fill="none"
     id="path8" />
  <path
     d="m 63.313526,164.52667 c 0,0 -31.643345,-0.69342 -33.655996,-1.49868 -2.035014,-0.80527 3.779311,13.44342 11.897003,16.79868 4.673823,1.92369 13.082231,-8.05263 22.407514,-8.81316 2.303367,-0.17894 -0.648521,-6.48684 -0.648521,-6.48684"
     fill="#ffd72e"
     id="path10"
     style="stroke-width:0.223656" />
  <path
     d="m 54.234234,154.6622 c -0.536707,0.55921 -0.916874,7.82894 -0.916874,7.82894 l 7.111367,10.1329 c 0,0 5.702511,-1.90132 5.523608,-0.67105 0.693247,3.4 -2.884799,6.03947 2.236279,7.38158 5.098716,1.36447 5.076353,-7.1579 20.260686,-6.62106 15.16197,0.55921 20.23832,2.23685 24.12945,7.98553 4.91981,7.26974 8.09533,28.18421 9.34764,31.20395 0.93924,2.25921 3.60041,9.14868 7.53626,10.87105 4.11476,1.56579 9.2582,-6.19605 9.2582,-6.41974 0,-1.74473 -1.76666,-3.66842 -1.76666,-5.18947 0,-1.54342 2.19155,-5.61447 3.82404,-8.23158 2.12446,-3.42237 -6.61939,-23.19605 -7.20082,-25.45526 -0.0671,-3.89211 -1.5654,-7.56053 -1.5654,-7.56053 0,0 -2.52699,-4.65263 -3.71222,-5.83816 -1.20759,-1.16316 -1.43122,-2.50526 -2.86244,-2.95263 -1.05105,-0.35789 -13.8202,-2.77368 -22.54169,-2.90789 -2.52699,-0.0447 -21.132833,-3.24342 -23.212573,-1.81185 -7.178455,-2.25921 -18.270398,-9.8421 -25.448853,-1.74473"
     id="path12"
     style="stroke-width:0.223656" />
  <path
     d="m 221.8657,329.91878 c 0.22362,1.3421 4.24893,31.31579 4.24893,32.21052 0,0.89474 -6.32867,9.84211 -14.82653,9.17106 -5.54597,-0.67106 -8.6544,-11.18422 -7.37972,-21.92106 1.25231,-10.73684 15.29614,-20.13158 17.95732,-19.46052 z"
     stroke="#000000"
     stroke-width="3.12895"
     fill="none"
     id="path14" />
  <path
     d="m 245.34662,360.33983 c -6.03795,-9.61842 -18.56111,-28.85526 -18.56111,-28.85526 0,0 -11.78519,2.23684 -10.86832,21.92105 0.93924,19.68421 23.83874,18.11842 29.42943,6.93421"
     fill="#ffd72e"
     id="path16"
     style="stroke-width:0.223656" />
  <g
     stroke="#000000"
     fill="none"
     id="g24"
     transform="matrix(0.22362788,0,0,0.22368421,-2.4330714,-1.5812237)">
    <path
       d="m 1108,1618 c -27,-43 -83,-129 -83,-129 0,0 -52.7,10 -48.6,98 4.2,88 106.6,81 131.6,31 z"
       stroke-width="13.99"
       id="path18" />
    <path
       d="m 294,742.6 c 0,0 -141.5,-3.1 -150.5,-6.7 -9.1,-3.6 16.9,60.1 53.2,75.1 20.9,8.6 58.5,-36 100.2,-39.4 10.3,-0.8 -2.9,-29 -2.9,-29 z"
       stroke-miterlimit="10"
       stroke-width="12.43"
       id="path20" />
    <path
       d="m 225.9,1104 -33.3,100 c 0,0 -84.5,1 -76.4,-5 8,-7 51.9,-77 60.6,-80 8.7,-3 49.1,-15 49.1,-15 z"
       stroke-miterlimit="10"
       stroke-width="13.99"
       id="path22" />
  </g>
  <path
     d="m 47.324133,243.57667 c 0,0 13.037505,2.01316 12.232445,1.78947 -0.805061,-0.22368 0.693246,18.56579 0.156539,19.46053 -0.514344,1.11842 -15.944668,12.07895 -25.046323,8.5 -1.341767,-0.44737 12.657339,-29.75 12.657339,-29.75"
     fill="#ffd72e"
     id="path26"
     style="stroke-width:0.223656" />
  <path
     d="m 47.324133,243.57667 c 0,0 13.037505,2.01316 12.232445,1.78947 -0.805061,-0.22368 0.693246,18.56579 0.156539,19.46053 -0.514344,1.11842 -15.944668,12.07895 -25.046323,8.5 -1.341767,-0.44737 12.657339,-29.75 12.657339,-29.75 z"
     stroke="#000000"
     stroke-miterlimit="10"
     stroke-width="3.12895"
     fill="none"
     id="path28" />
  <path
     d="m 99.205802,423.41878 c 0,0 9.325278,-0.67106 10.935408,1.56579 1.61012,2.23684 -13.440041,16.32894 -13.440041,16.32894 0,0 -15.475049,1.11842 -16.391924,-0.44737 -0.916874,-1.56578 18.896557,-17.44736 18.896557,-17.44736 z"
     stroke="#000000"
     stroke-width="3.12895"
     fill="none"
     id="path30" />
  <path
     d="m 111.21462,420.73457 6.79829,2.46052 c 0,0 1.76666,18.56579 -0.58144,21.25 -2.39281,2.9079 -16.14593,8.94737 -27.86403,3.80263 -2.750623,-1.3421 21.64718,-27.51315 21.64718,-27.51315"
     fill="#ffd72e"
     id="path32"
     style="stroke-width:0.223656" />
  <path
     d="m 111.21462,420.73457 6.79829,2.46052 c 0,0 1.76666,18.56579 -0.58144,21.25 -2.39281,2.9079 -16.14593,8.94737 -27.86403,3.80263 -2.750623,-1.3421 21.64718,-27.51315 21.64718,-27.51315 z m 221.34688,-2.23685 c 3.13079,-2.23684 6.48521,-4.92105 11.85228,-5.14473 l -0.89452,25.5 c 0,0 -16.1012,7.60526 -16.54846,6.48684 -0.44726,-1.11842 3.13079,-24.60526 5.5907,-26.84211 z"
     stroke="#000000"
     stroke-width="3.12895"
     fill="none"
     id="path34" />
  <path
     d="m 344.19015,406.41878 c 0,0 -8.72149,38.69736 -7.82698,40.03947 0.67089,1.11842 22.13916,-9.39474 23.2573,-17 0.89451,-7.38158 -5.81432,-24.60526 -5.81432,-24.60526 z"
     fill="#ffd72e"
     id="path36"
     style="stroke-width:0.223656" />
  <path
     d="m 344.19015,406.41878 c 0,0 -8.72149,38.69736 -7.82698,40.03947 0.67089,1.11842 22.13916,-9.39474 23.2573,-17 0.89451,-7.38158 -5.81432,-24.60526 -5.81432,-24.60526 z"
     stroke="#000000"
     stroke-width="3.12895"
     fill="none"
     id="path38" />
  <path
     d="m 229.46904,324.99772 c -2.4599,3.13158 -6.26158,4.69737 -6.70883,3.80264 1.34176,-8.5 -2.37046,-19.01316 -8.98984,-27.28948 7.8717,1.11842 18.60584,20.13158 15.69867,23.48684 M 124.05086,252.52404 c 1.09578,1.56579 -1.38649,6.71053 1.58776,10.96053 2.19155,3.13157 7.78225,1.78947 9.1911,3.80263 2.37046,3.13158 8.25187,19.23684 23.39148,6.71052 3.80167,8.5 57.49473,25.27632 52.99981,23.93421 -21.1552,-5.14473 -19.70162,2.01316 -23.83873,0.44737 -4.13712,-1.78947 -14.91598,-7.82894 -18.38222,4.92106 -8.72148,-2.23685 -12.79151,-1.56579 -18.76238,10.06578 -1.20759,0.67106 -15.78812,3.35527 -12.03118,18.78948 -8.94511,5.14474 -6.59702,12.97368 1.45359,21.69737 -1.05106,8.5 -3.28733,15.21052 11.44974,17 0.84979,1.3421 2.57172,7.38158 15.0278,6.71052 2.34809,4.02632 -0.40253,5.81579 -0.40253,5.81579 0,0 -33.67836,24.1579 -48.4378,24.82895 -5.97087,0.44737 -5.68015,0.89474 -7.22318,2.23684 -1.54304,1.34211 -5.74724,11.4079 -5.74724,11.4079 0,0 -1.67721,2.68421 0.69325,3.80263 2.32573,1.3421 8.25187,3.57895 12.36662,3.80263 1.25231,0.22368 3.04134,-0.44737 3.77931,-3.13158 0.76033,-2.90789 6.41812,-5.14474 7.22318,3.13158 0.0894,0.89474 5.00926,-0.22368 5.43416,-0.89474 3.62277,-5.81579 6.44048,-14.53947 22.25097,-21.02631 13.03751,-5.14474 37.12223,-13.64474 38.97834,-14.76316 1.83375,-1.34211 2.75063,-8.5 1.11814,-10.96053 -1.65484,-2.23684 -5.85905,-7.82894 -5.85905,-7.82894 0,0 15.27379,-5.36843 16.59319,-5.81579 -11.31557,-17.44737 4.53965,-40.03948 20.10415,-36.46053 -0.44726,0.44737 -4.69619,5.14474 3.35442,10.73684 -5.5907,11.63158 8.94511,14.31579 8.94511,14.31579 0,0 0.44726,7.60526 2.01265,8.72369 1.5654,1.11842 1.5654,1.3421 13.6413,0.44736 3.57805,-0.22368 10.28688,12.75 22.81005,0 2.68353,6.71053 17.89023,9.61843 20.57376,-0.22368 14.98307,8.05263 20.35014,-7.60526 19.232,-10.28947 2.01265,0 2.01265,-0.22369 2.68353,-1.78948 7.1561,3.80263 8.27424,11.18421 11.62865,20.80263 3.57805,10.96053 7.37972,23.26316 7.37972,23.26316 0,0 0.67089,5.14474 -0.22362,5.81579 -2.23628,1.34211 -4.24893,6.93421 -2.23628,12.75 13.6413,6.93421 20.57376,0.89474 20.57376,-0.22368 0.22363,-1.11842 0.89451,-4.69737 2.01265,-5.59211 1.11814,-0.89473 6.48521,-3.35526 6.48521,-4.69737 -0.22363,-1.3421 -1.78902,-3.35526 -4.0253,-5.81579 -2.45991,-1.11842 -4.0253,-4.47368 -6.03795,-5.5921 -3.57805,-2.01316 -15.2067,-39.59211 -16.54847,-45.18421 -1.11814,-5.59211 3.57805,-19.9079 -4.24893,-21.47369 -6.93246,-1.3421 -9.83962,6.48685 -14.31218,2.46053 -1.11814,-1.3421 2.90716,-2.46053 -0.44726,-7.60526 -0.67088,-0.89474 -3.35441,-4.02632 -8.49786,-2.9079 1.78903,-10.96052 -11.40502,-12.07894 -11.40502,-12.07894 0,0 2.01265,-5.36843 -6.26158,-18.34211 21.69191,1.56579 19.45563,-6.26316 23.03367,-7.15789 1.78903,-0.44737 17.44298,4.69736 19.232,-6.71053 2.23628,0 13.41767,1.56579 15.87758,-10.28947 11.85228,2.68421 13.86493,-10.73685 13.86493,-10.73685 0,0 15.87758,-2.90789 8.27423,-14.98684 6.03795,-4.92105 6.70884,-14.0921 -4.91981,-15.43421 0.44725,-12.86184 -9.616,-13.71184 -16.10121,-6.97895 -0.44725,-1.02894 -10.73414,-8.54473 -17.21935,7.42632 -14.08855,-2.01316 -12.29953,11.18421 -12.29953,11.18421 0,0 -11.40502,-2.9079 -10.51051,13.86842 -5.14344,0.67105 -4.47256,4.47368 -4.47256,4.47368 0,0 2.23628,23.26316 -17.6666,27.28948 -7.37972,-12.30263 -29.07163,-18.56579 -44.05469,-26.61842 -10.06326,-5.14474 -16.77209,-11.18421 -15.65396,-13.19737 6.26159,-11.85526 3.80168,-14.53947 3.80168,-14.53947 0,0 10.73414,-5.12237 8.94511,-12.10132 10.51051,-3.24342 7.37972,-11.76579 9.39237,-14.06974 1.78903,-2.30394 10.95777,-1.18552 6.70884,-13.39868 -0.89451,-2.08026 -12.29953,-6.06184 -16.54846,-12.14605 -0.89451,0 -1.5654,0.11184 -1.5654,0.11184 0,0 -0.44725,-8.54474 -4.0253,-8.83553 -3.57805,-0.29079 -8.72149,5.99474 -12.97042,5.79342 -2.23628,-0.0895 -8.85566,-0.38026 -10.64468,-0.67105 -1.81139,-0.26842 -8.34132,5.07763 -8.34132,5.07763 0,0 -14.53582,-3.4 -18.67293,4.87632 -10.66705,-5.05527 -15.9894,4.13816 -15.9894,4.13816 0,0 -13.57421,-4.22764 -15.9223,11.85526 -15.45269,2.70658 -14.51345,10.66974 -14.17801,14.22631 0.31308,3.57895 1.9232,3.62369 0.76034,7.26974 -5.56834,1.45395 -11.09195,8.09737 -11.09195,8.09737 0,0 -1.99028,0.89474 -8.56494,-4.47368 -7.82698,-6.24079 -11.5392,-9.23816 -13.35059,-11.29606 -1.83375,-2.05789 -6.77592,-3.19868 -14.423998,0.20132 -3.309692,1.45395 -2.862437,2.81842 -12.120631,8.74605 -10.980129,7.04605 -22.966584,15.54605 -30.525206,14.42763 -4.584372,-0.67105 -13.082231,6.48684 -13.171682,12.52632 -0.06709,5.81579 21.960258,5.14474 22.206248,2.68421 0.268354,-2.46053 1.967926,-3.57895 1.967926,-3.57895 0,0 5.322343,10.73684 11.762826,2.68421 6.440483,-8.05263 11.718102,-12.30263 11.718102,-12.30263 0,0 8.408408,-9.39474 16.503735,-5.81579 8.09533,3.57895 13.73075,14.09211 20.90921,21.69737"
     id="path40"
     style="stroke-width:0.223656" />
  <path
     d="m 179.89074,65.568776 c -3.55568,-36.169737 82.67523,-36.952631 60.08881,40.978944"
     stroke="#000000"
     stroke-width="3.08645"
     fill="none"
     id="path42" />
  <path
     d="m 253.62085,136.32009 c 2.23628,1.76711 16.10121,-29.10131 18.78475,-31.96447 2.68353,-2.84079 4.24893,-6.800002 4.24893,-11.206581 0,-6.978947 -4.02531,-12.928947 -9.616,-15.121052 2.01265,-3.176316 3.13079,-7.023684 3.13079,-11.206579 0.22363,-10.938158 -7.60335,-19.885526 -17.44298,-19.975 -0.44725,-0.02237 -0.89451,0.02237 -1.34176,0.06711 3.57804,-4.563158 4.47255,-10.826316 1.56539,-15.814474 -3.57804,-6.50921 -12.0759,-8.343421 -18.78474,-4.115789 -0.44726,0.246053 -0.89451,0.536842 -1.11814,0.805263 -0.22363,-1.990789 -0.89451,-3.914474 -2.01265,-5.614474 -3.80168,-6.097631 -12.25481,-7.258552 -18.71766,-2.628289 -0.73797,0.514474 -1.38649,1.087105 -1.99028,1.688816 -4.02531,-5.648027 -12.143,-6.659079 -18.4493,-2.145132 -1.83375,1.295132 -3.28733,2.928027 -4.36075,4.739869 -3.93585,-2.147369 -8.67676,-2.102632 -12.43371,0.581579 -5.1658,3.690789 -6.61938,11.027631 -3.66749,17.044736 -3.24261,-0.201315 -6.41813,0.894737 -8.74386,3.355264 -4.67382,4.853947 -4.29365,13.197368 0.80507,18.655263 0.31307,0.313158 0.64852,0.626316 0.9616,0.917105 -0.17891,0.178947 -0.35781,0.335526 -0.53671,0.514474 -4.42783,4.630263 -4.40547,12.257894 0.0671,17.022368 3.26496,3.467105 7.96115,4.451316 11.98645,2.952632 -1.45358,4.160526 -0.76033,8.857894 2.19155,12.011842 4.20421,4.451309 11.31558,4.205259 15.89995,-0.603948 0.80506,-0.85 1.47594,-1.789473 2.03501,-2.796052 3.8464,4.853947 10.42106,5.771052 14.80417,2.057895 4.04766,-3.444737 4.78563,-9.64079 2.01265,-14.517106 11.65101,-9.439473 -4.60674,-25.186842 -14.37928,-15.568421 4.94218,2.303948 5.61306,8.186842 1.3865,10.267105 -2.01265,0.961843 -4.2713,1.610527 -6.08268,1.006579 -7.67044,-2.505263 -6.61939,-12.928947 -5.7696,-15.680263 3.35442,-10.938158 19.32145,-13.085526 29.78723,-8.678947 5.36707,2.236842 27.28261,10.960526 9.39237,59.186837"
     stroke="#000000"
     stroke-width="3.13118"
     fill="none"
     id="path44" />
  <path
     d="m 366.55294,169.62667 c 5.14344,-3.35526 8.27423,-9.52895 7.37972,-16.10526 -0.67089,-5.79342 -4.24893,-10.44605 -8.94512,-12.79474 1.34177,-2.72895 1.78902,-5.79342 1.5654,-8.9921 -1.11814,-8.72369 -8.72149,-14.91974 -17.66661,-14.31579 0.89451,-1.83421 1.34177,-3.825 1.11814,-5.90527 -0.89451,-6.53158 -7.37972,-11.05 -14.53581,-10.11052 -3.80167,0.4921 -7.15609,2.46052 -9.16874,5.18947 -2.45991,-7.157894 -9.83963,-11.810526 -17.66661,-10.75921 -5.14344,0.648684 -9.39237,3.467105 -12.0759,7.38158 -3.80168,-2.55 -8.94512,-3.802633 -14.31219,-3.08684 -10.73413,1.40921 -18.33748,9.48421 -17.21934,18.07368 0.22362,2.75132 1.34176,5.23421 3.13079,7.24737 l -15.87758,10.84868 14.75944,21.1829 c 0,0 21.24465,-16.41842 39.35851,-15.52369 20.35013,0.98421 30.41339,10.24474 29.51888,27.22237 -0.89452,14.78553 -16.10121,14.67369 -19.00837,7.35921 -3.13079,-7.2921 3.57804,-11.00526 3.57804,-11.00526 -9.16874,-9.05921 -18.33748,-1.76711 -19.67925,4.29474 -3.13079,-0.76053 -6.26158,-0.17895 -8.72149,1.94605 -4.47256,3.73553 -4.91981,10.82632 -1.11814,15.83684 0.89451,0.93948 1.5654,1.76711 2.45991,2.41579 -2.45991,4.09342 -2.23628,9.90921 1.11814,14.24869 4.0253,5.30131 10.95776,6.46447 15.65395,2.59473 0,-0.0895 0.22363,-0.20131 0.22363,-0.29079 0.44725,1.05132 1.11814,2.0579 1.78902,2.99737 4.0253,5.30132 11.18139,6.26316 16.10121,2.14737 1.78902,-1.61053 3.13079,-3.80263 3.57804,-6.15132 0.44726,0.31316 0.67089,0.64869 0.89452,0.96185 5.59069,5.43552 14.31218,5.03289 19.45562,-0.87237 3.57805,-4.00395 4.69619,-9.50658 3.13079,-14.36053 0.89451,0 1.5654,-0.0224 2.23628,-0.11184 8.27423,-1.09605 14.31219,-7.40395 13.41767,-14.11447 -0.44725,-3.04211 -2.01265,-5.63685 -4.47255,-7.44869"
     fill="#ffd72e"
     id="path46"
     style="stroke-width:0.223656" />
  <path
     d="m 366.55294,169.62667 c 5.14344,-3.35526 8.27423,-9.52895 7.37972,-16.10526 -0.67089,-5.79342 -4.24893,-10.44605 -8.94512,-12.79474 1.34177,-2.72895 1.78902,-5.79342 1.5654,-8.9921 -1.11814,-8.72369 -8.72149,-14.91974 -17.66661,-14.31579 0.89451,-1.83421 1.34177,-3.825 1.11814,-5.90527 -0.89451,-6.53158 -7.37972,-11.05 -14.53581,-10.11052 -3.80167,0.4921 -7.15609,2.46052 -9.16874,5.18947 -2.45991,-7.157894 -9.83963,-11.810526 -17.66661,-10.75921 -5.14344,0.648684 -9.39237,3.467105 -12.0759,7.38158 -3.80168,-2.55 -8.94512,-3.802633 -14.31219,-3.08684 -10.73413,1.40921 -18.33748,9.48421 -17.21934,18.07368 0.22362,2.75132 1.34176,5.23421 3.13079,7.24737 l -15.87758,10.84868 14.75944,21.1829 c 0,0 21.24465,-16.41842 39.35851,-15.52369 20.35013,0.98421 30.41339,10.24474 29.51888,27.22237 -0.89452,14.78553 -16.10121,14.67369 -19.00837,7.35921 -3.13079,-7.2921 3.57804,-11.00526 3.57804,-11.00526 -9.16874,-9.05921 -18.33748,-1.76711 -19.67925,4.29474 -3.13079,-0.76053 -6.26158,-0.17895 -8.72149,1.94605 -4.47256,3.73553 -4.91981,10.82632 -1.11814,15.83684 0.89451,0.93948 1.5654,1.76711 2.45991,2.41579 -2.45991,4.09342 -2.23628,9.90921 1.11814,14.24869 4.0253,5.30131 10.95776,6.46447 15.65395,2.59473 0,-0.0895 0.22363,-0.20131 0.22363,-0.29079 0.44725,1.05132 1.11814,2.0579 1.78902,2.99737 4.0253,5.30132 11.18139,6.26316 16.10121,2.14737 1.78902,-1.61053 3.13079,-3.80263 3.57804,-6.15132 0.44726,0.31316 0.67089,0.64869 0.89452,0.96185 5.59069,5.43552 14.31218,5.03289 19.45562,-0.87237 3.57805,-4.00395 4.69619,-9.50658 3.13079,-14.36053 0.89451,0 1.5654,-0.0224 2.23628,-0.11184 8.27423,-1.09605 14.31219,-7.40395 13.41767,-14.11447 -0.44725,-3.04211 -2.01265,-5.63685 -4.47255,-7.44869 z m -56.1306,9.01447 c 9.83962,23.28553 47.18548,6.10658 29.29525,-28.29605 -11.62865,-22.41316 -47.85637,-21.27237 -64.1812,-5.72631"
     stroke="#000000"
     stroke-width="3.14461"
     fill="none"
     id="path48" />
  <g
     fill="#ffd72e"
     id="g56"
     transform="matrix(0.22362788,0,0,0.22368421,-2.4330714,-1.5812237)">
    <path
       d="m 1141,605.6 c 11,13.7 35,10.8 54,-6.2 20,-17 27,-41.9 16,-55.6 -11,-13.7 -36,-10.9 -55,6.2 -19,17 -26,41.9 -15,55.6"
       id="path50" />
    <path
       d="m 1059,523.5 c 11,14.3 36,12.1 55,-5 20,-17 26,-42.5 15,-56.7 -11,-14.3 -36,-12.1 -56,4.9 -19,17.1 -25,42.6 -14,56.8"
       id="path52" />
    <path
       d="m 1204,682.9 c 12,14.2 37,11.7 56,-5.7 20,-17.4 27,-43 16,-57.2 -12,-14.3 -37,-11.7 -56,5.6 -20,17.4 -27,43.1 -16,57.3"
       id="path54" />
  </g>
  <path
     d="m 252.72634,133.88193 c 2.45991,3.06448 7.82698,2.41579 12.07591,-1.38684 4.47256,-3.80263 6.03795,-9.37237 3.57805,-12.43684 -2.45991,-3.06447 -8.05061,-2.43816 -12.29954,1.38684 -4.24893,3.80263 -5.81432,9.37237 -3.35442,12.43684 z m -18.33748,-18.36447 c 2.4599,3.19868 8.0506,2.70658 12.29953,-1.11842 4.47256,-3.80263 5.81433,-9.50658 3.35442,-12.6829 -2.45991,-3.198679 -8.05061,-2.706574 -12.52316,1.09606 -4.24893,3.825 -5.5907,9.52894 -3.13079,12.70526 z m 32.42604,35.65526 c 2.68353,3.17632 8.27423,2.61711 12.52316,-1.275 4.47256,-3.8921 6.03795,-9.61842 3.57805,-12.79473 -2.68354,-3.19869 -8.27423,-2.61711 -12.52316,1.25263 -4.47256,3.8921 -6.03796,9.64079 -3.57805,12.8171 z"
     stroke="#000000"
     stroke-width="2.62349"
     fill="none"
     id="path58" />
  <path
     d="m 222.98383,110.01483 c 5.5907,-11.788159 3.1308,-24.202633 3.1308,-24.202633 0,0 18.56111,8.79079 10.28688,33.776313 -0.89451,-0.82763 -8.72149,-6.95658 -13.41768,-9.57368"
     fill="#ffd72e"
     id="path60"
     style="stroke-width:0.223656" />
  <path
     d="m 267.93304,158.82272 c 12.29953,-7.2921 29.96614,-4.00394 29.96614,-4.00394 0,0 -13.19405,-19.93027 -35.55684,-4.92106 0.89451,0.76053 3.80168,4.20527 5.5907,8.925"
     fill="#ffd72e"
     id="path62"
     style="stroke-width:0.223656" />
  <path
     d="m 222.98383,110.01483 c 5.5907,-11.788159 3.1308,-24.202633 3.1308,-24.202633 0,0 18.56111,8.79079 10.28688,33.776313 -0.89451,-0.82763 -8.72149,-6.95658 -13.41768,-9.57368 z"
     stroke="#000000"
     stroke-width="3.14461"
     fill="none"
     id="path64" />
  <path
     d="m 267.93304,158.82272 c 12.29953,-7.2921 29.96614,-4.00394 29.96614,-4.00394 0,0 -13.19405,-19.93027 -35.55684,-4.92106 0.89451,0.76053 3.80168,4.20527 5.5907,8.925 z"
     stroke="#000000"
     stroke-width="3.08645"
     fill="none"
     id="path66" />
  <g
     id="g74"
     transform="matrix(0.22362788,0,0,0.22368421,-2.4330714,-1.5812237)">
    <path
       d="m 868.3,698 c -10.2,8.6 -159.1,60.8 -196.1,11.8 -39.8,-52.5 13.1,-111.3 20.9,-107.1 7.7,4.2 10.2,67.4 49.8,79.1 39.5,11.7 113.4,4.6 113.4,4.6 z"
       fill="#050102"
       id="path68" />
    <path
       d="m 1051,617.1 c 19,22.8 58,19.2 89,-8 31,-27.2 41,-67.8 23,-90.6 -18,-22.8 -58,-19.3 -88,7.9 -31,27.3 -42,67.9 -24,90.7"
       fill="#ffd72e"
       id="path70" />
    <path
       d="m 1128,673 c 15,19.1 50,14.4 78,-10.3 29,-24.8 39,-60.2 24,-79.3 -15,-19 -50,-14.4 -78,10.4 -28,24.7 -39,60.2 -24,79.2"
       fill="#ffd72e"
       id="path72" />
  </g>
  <path
     d="m 232.59983,136.4543 c 4.24893,5.1 12.97042,4.29474 19.90289,-1.78947 6.93246,-6.08421 9.16874,-15.16579 5.14344,-20.26579 -4.02531,-5.1 -12.97042,-4.31711 -19.67926,1.7671 -6.93246,6.10658 -9.39237,15.18816 -5.36707,20.28816 z m 17.21935,12.50395 c 3.35442,4.27237 11.1814,3.22105 17.44298,-2.30395 6.4852,-5.54737 8.72148,-13.46579 5.36706,-17.73816 -3.35441,-4.25 -11.18139,-3.22105 -17.44297,2.32632 -6.26158,5.525 -8.72149,13.46579 -5.36707,17.71579 z"
     stroke="#000000"
     stroke-width="3.14461"
     fill="none"
     id="path76" />
  <path
     d="m 218.35474,115.58457 c 24.97923,13.93552 39.73867,38.85394 43.54035,47.75657 3.13079,-1.54342 4.24893,-3.91447 7.15609,-5.21184 -9.83963,-20.93684 -28.17711,-40.93421 -45.39646,-49.85921 -1.5654,2.61711 -3.33206,4.83158 -5.29998,7.31448"
     fill="#ffd72e"
     id="path78"
     style="stroke-width:0.223656" />
  <path
     d="m 218.35474,115.58457 c 24.97923,13.93552 39.73867,38.85394 43.54035,47.75657 3.13079,-1.54342 4.24893,-3.91447 7.15609,-5.21184 -9.83963,-20.93684 -28.17711,-40.93421 -45.39646,-49.85921 -1.5654,2.61711 -3.33206,4.83158 -5.29998,7.31448 z"
     stroke="#000000"
     stroke-width="3.14461"
     fill="none"
     id="path80" />
  <path
     d="m 240.42681,127.30562 c 9.83963,9.57368 19.67925,22.88289 22.81004,33.10526 -0.44725,0.60395 1.5654,-0.44737 0.67089,-0.0224 3.80167,1.43158 4.47256,2.37106 8.49786,5.8829 2.01265,1.83421 3.80167,3.28816 4.91981,6.57631 0.67088,2.32632 0.67088,4.69737 0.67088,7.06842 0.44726,7.85132 -1.78902,15.2329 -5.14344,17.24606 -4.47255,2.77368 -4.69618,-3.10921 -7.15609,-7.225 -4.69618,-8.16448 -17.89023,-13.57763 -21.6919,-20.15395 -0.89452,-1.7 -2.68354,-9.90921 -2.68354,-9.90921 0,0 -11.62865,8.05263 -18.56111,8.88026 -7.08901,0.82763 -10.68942,-4.63026 -23.92819,-4.3171 -4.62909,4.11579 -9.25819,5.70394 -13.14932,7.38158 -4.04766,1.7671 -6.17213,-5.34606 -11.7181,-8.96974 2.10211,-1.65526 17.33116,1.275 17.77842,-8.29868 -2.281,1.92368 -35.5792,13.6 -43.85343,2.63947 -8.90039,-11.74342 2.92953,-24.89605 4.67382,-23.95658 1.72194,0.93947 2.28101,15.07632 11.13667,17.69342 8.8333,2.61711 25.35941,1.02895 25.35941,1.02895 0,0 -0.55907,-0.33553 -0.98397,-0.67105 -0.31308,1.14079 -21.93789,-0.60395 -21.93789,-0.60395 0,0 -2.92953,-5.74869 -0.87215,-9.05921 0.84978,-1.05132 0.93924,-1.05132 0.93924,-1.05132 l 2.14682,-4.42895 c 0,0 1.27468,-1.7671 3.10843,-1.00657 1.83375,0.76052 5.7696,0.62631 5.7696,0.62631 0,0 17.82314,-14.53947 23.72692,-12.10131 0.53671,-4.74211 8.20714,-16.41843 19.50035,-10.93816 0.69325,-0.425 0.0224,0.44737 0.55907,0.69342 1.52067,0.0447 10.68941,5.45789 19.4109,13.89079"
     id="path82"
     style="stroke-width:0.223656" />
  <path
     d="m 147.80014,144.90957 c -0.20126,0.93947 -0.29072,1.85657 -0.31308,2.72894 0,2.72895 0.87215,5.30132 2.63881,7.65 6.26158,8.34342 31.71043,0.93948 40.02939,-2.05789 -7.64807,2.37105 -22.07207,1.63289 -27.66277,0.29079 -6.50757,-1.40921 -10.44342,-10.625 -11.22612,-15.70263 v -0.0224 c -1.27468,1.56579 -2.81771,4.07105 -3.46623,7.11316"
     fill="#e7423f"
     id="path84"
     style="stroke-width:0.223656" />
  <g
     fill="#ffd72e"
     id="g92"
     transform="matrix(0.22362788,0,0,0.22368421,-2.4330714,-1.5812237)">
    <path
       d="m 999.8,598.2 c -2,-1.8 -19.6,-13.8 -27.5,-13 -2.4,-2.3 -13.3,-8.8 -7.4,-11.4 3.1,-1.4 9,-2.1 10.2,-2.1 1.3,0 14.4,2.2 17.2,2.3 12.7,1.8 37.7,20.6 32.7,53.7 -1,6.7 -20,-24.8 -25.2,-29.5"
       id="path86" />
    <path
       d="m 804.4,633.3 7.7,-2.3 6.6,3.5 -0.1,3.5 -3.3,6.9 -5.5,5.7 -8.8,5.7 h -5.5 l -3.2,-2.3 -2.2,-4.7 3.3,-5.7 z"
       id="path88" />
    <circle
       cx="986"
       cy="605.40002"
       r="18.799999"
       id="circle90" />
  </g>
  <metadata
     id="metadata2508">
    <rdf:RDF>
      <cc:Work
         rdf:about="">
        <dc:title>Wappen Schaffhausen</dc:title>
      </cc:Work>
    </rdf:RDF>
  </metadata>
</svg>
