<?xml version="1.0" encoding="UTF-8" standalone="no"?>
<svg
   viewBox="0 0 419.99996 509.99999"
   version="1.1"
   id="svg24"
   width="419.99997"
   height="510"
   xmlns="http://www.w3.org/2000/svg"
   xmlns:svg="http://www.w3.org/2000/svg"
   xmlns:rdf="http://www.w3.org/1999/02/22-rdf-syntax-ns#"
   xmlns:cc="http://creativecommons.org/ns#"
   xmlns:dc="http://purl.org/dc/elements/1.1/">
  <defs
     id="defs28" />
  <title
     id="title2">Wappen Graubünden</title>
  <path
     d="M 419.99998,1.9832406 V 309.81165 C 419.99998,420.33693 326.0199,510 209.99234,510 94.031595,510 0.00696354,420.33693 0.00696354,309.81165 L 0.00807705,1.9832406 Z"
     stroke="#000"
     stroke-width="3.15914"
     fill="#ffffff"
     id="path4"
     style="stroke:none" />
  <path
     d="M 105.50339,246.57278 H 1.6135236 L 1.6217036,1.5529022 105.51158,1.5941827 V 246.61406 Z m 242.02621,54.81876 c -0.22123,-1.1097 -0.88492,-2.21938 -1.32738,-3.10713 0.22123,-1.33164 0.22123,-2.66328 -0.22122,-3.9949 -0.88493,-2.4413 -3.09724,-4.21683 -5.53078,-4.88263 0,-1.1097 0,-1.99747 -0.44245,-3.10715 -0.88492,-2.8852 -3.76092,-4.88263 -7.30061,-5.10459 0,-0.88774 0,-1.55355 -0.22124,-2.21936 -1.54861,-4.21682 -6.41568,-6.21428 -11.50398,-4.88265 0,-0.44387 0,-0.88776 -0.22124,-1.33163 -1.5486,-4.21682 -6.85814,-6.43622 -11.94644,-4.66072 -0.22123,0.22195 -0.44246,0.22195 -0.44246,0.22195 0,-0.66581 -0.22123,-1.10967 -0.44247,-1.77552 -1.32738,-3.99487 -6.63691,-5.77038 -11.72522,-3.99487 -0.88492,0.22192 -1.76983,0.66581 -2.43353,1.10968 0,-0.44387 0,-1.10968 -0.22123,-1.55356 -1.32739,-3.99488 -6.63692,-5.77038 -11.94644,-3.99488 -1.76985,0.6658 -3.5397,1.7755 -4.64585,3.10713 -1.10615,-3.77296 -5.97322,-6.21425 -11.06153,-5.32653 -2.87599,0.66583 -5.0883,1.99746 -6.63691,3.77296 -1.76985,-2.88519 -5.97323,-4.43875 -10.39784,-3.77296 -3.98216,0.88777 -7.07937,3.32909 -7.9643,6.21428 -1.76984,-2.66325 -5.75198,-4.21682 -9.73413,-3.55102 -4.86708,1.1097 -8.40677,5.10458 -7.52185,9.32141 0,0.44388 0.22123,0.66583 0.22123,1.10969 1.99108,-1.55355 4.86708,-3.10713 7.30062,-3.77295 5.0883,-1.33163 9.95537,-0.44386 12.83137,2.2194 0.8849,-0.66583 1.76983,-1.33164 2.87598,-1.77551 5.08831,-2.44133 10.84029,-1.77552 13.93753,1.55358 0.22123,0 0.44246,-0.22194 0.66369,-0.4439 6.19445,-2.8852 13.0526,-1.33164 15.48614,3.77295 v 0.44389 c 0.22123,-0.22194 0.22123,-0.22194 0.44245,-0.22194 5.97323,-2.88521 12.83138,-1.33163 15.26492,3.77293 0.22123,0.22197 0.44246,0.66583 0.44246,1.10969 11.94645,-3.32905 42.25504,12.87244 52.65287,34.6224 1.99108,-2.44133 2.65477,-5.77041 1.76984,-8.87754 M 188.97367,278.30995 c 0,-0.88774 0.84068,-1.55356 2.12382,-1.99743 0.22123,1.55356 1.68135,2.88519 3.4512,2.88519 1.92471,0 3.49544,-1.55357 3.49544,-3.55103 h -0.0221 c 2.14594,0.22195 3.82729,1.10971 3.82729,2.66327 0,4.43878 -12.87562,3.55102 -12.87562,0 m 141.96364,46.16316 c 0.44247,-1.7755 0.44247,-3.77292 -0.44245,-5.54845 -1.10616,-1.99744 -2.65478,-3.551 -4.42462,-4.21682 0.6637,-1.77551 0.6637,-3.77296 -0.22123,-5.77038 -1.10615,-1.99746 -2.876,-3.55103 -5.08831,-3.99491 0.44248,-1.77551 0.44248,-3.55101 -0.22122,-5.32649 -1.32738,-2.66329 -4.20338,-3.99493 -7.30062,-3.99493 0.44247,-1.77549 0.22124,-3.77292 -0.44245,-5.32652 -1.76985,-3.32905 -5.75199,-4.88262 -9.95538,-4.21682 0,-0.88774 -0.22122,-1.99743 -0.66369,-2.88519 -1.76984,-3.77295 -6.41568,-5.32652 -11.06153,-3.77295 0.22123,-1.55357 0,-2.88519 -0.44245,-3.9949 -1.76985,-3.77294 -7.30062,-5.10457 -12.38892,-2.66325 -1.10615,0.44387 -1.99108,1.10969 -2.87599,1.99746 0,-1.1097 0,-2.2194 -0.66369,-3.3291 -1.76985,-3.77294 -7.30061,-5.10458 -12.16769,-2.66325 -0.88492,0.44387 -1.76984,0.88776 -2.43354,1.55357 -1.76984,-3.9949 -7.30061,-5.10459 -12.38891,-2.66326 -1.5486,0.66581 -2.876,1.77551 -3.98214,2.88519 -1.76983,-3.10712 -6.85814,-4.6607 -11.94645,-3.32905 -3.09722,0.88772 -5.53076,2.44131 -7.3006,4.43875 -9.15895,-9.76528 -20.99478,-8.65559 -24.24687,-8.21173 -16.45955,2.44133 -24.60083,12.87244 -34.95443,13.76018 -4.71221,0.44388 -9.42443,-1.33163 -11.83583,-2.66327 -2.3008,4.21685 1.92471,2.88522 1.57073,5.77041 -0.11061,0.88774 -4.7122,6.21428 1.8141,6.43621 3.11934,0.22195 8.67224,-0.44388 10.59694,1.99745 -30.50769,5.10458 -22.18943,-9.54335 -27.36622,-9.54335 -7.47759,0 -6.28295,21.52801 14.71182,17.53313 0.73007,1.55357 2.30081,2.66325 3.38484,3.551 6.99088,-4.88265 22.54339,-2.21938 7.83155,8.43366 11.7031,1.33162 13.38445,-6.88009 13.49508,-7.54589 4.24761,-1.99745 13.76053,1.99743 19.07006,1.33162 5.30954,-0.44389 12.65439,-7.98977 14.71184,-8.43366 7.34485,8.43366 12.54377,7.98977 26.70252,4.88264 -4.86706,-12.42853 -18.8046,-8.2117 -19.71165,-11.5408 5.33167,-3.55098 16.17197,-5.3265 28.33964,-4.88264 0,0 0.22123,0.22196 0.44246,0.22196 11.06152,0.44387 23.67167,2.8852 34.51197,7.76784 22.78675,10.65304 42.25503,30.62749 42.91872,54.37487 6.19446,-7.10201 7.07938,-13.98212 4.42461,-20.41833 m -78.9793,59.03561 c 5.53076,5.99232 5.97323,17.75505 21.0169,29.29585 -9.29168,8.65557 -11.06153,2.66325 -11.72522,2.21939 -15.26491,0.88773 -4.20338,-15.31375 -5.30953,-19.30864 -20.35321,18.64282 -7.52185,33.0688 -7.52185,33.0688 0,0 3.31846,5.54846 -1.99106,6.65814 -11.50399,2.44133 -39.51178,13.3163 -48.33887,27.07648 -4.64584,7.10202 -8.9156,-2.66326 -10.64119,-2.44132 -3.27421,0.66581 -10.77394,13.76018 -10.77394,13.76018 0,0 -17.56569,2.66325 -18.07453,1.99745 -0.53096,-0.88777 6.23871,-11.5408 8.65012,-15.31376 -4.40249,-2.21937 -10.81818,9.32141 -10.81818,9.32141 l -9.49079,1.33163 c 0,0 14.99943,-15.31373 15.75161,-17.97699 0.70795,-1.77552 34.04739,1.33163 54.86518,-27.29841 -37.78618,-33.06879 24.88844,-45.49735 34.40135,-42.39021 m -229.194847,6.65815 c 0,0 6.017471,1.55356 7.344854,2.21937 1.30526,0.88775 11.791589,-8.65558 12.588019,-8.65558 0.818553,0.22193 1.570736,0.6658 1.747722,1.55356 0.15486,0.88776 -14.490602,15.0918 -14.490602,15.0918 0,0 12.765002,0.66582 20.087734,0.22194 7.344854,-0.66582 7.145747,-5.32653 9.20319,-9.54336 2.787506,-2.88518 4.336119,-3.55099 4.336119,-3.55099 0,0 1.946829,2.8852 6.437809,3.55099 4.889196,0.88776 9.866883,-10.43108 22.963731,-19.30861 8.451011,-5.99234 32.963361,1.55357 32.963361,1.55357 0,0 36.65789,11.31883 38.78171,15.31372 10.97304,-2.88519 11.83584,-24.19127 15.99497,-22.63769 7.27849,2.88518 -1.68135,9.09947 -1.41587,13.09435 5.8626,-1.10969 61.30298,-3.32906 65.94881,-1.10969 0.44246,0 -12.61013,-6.8801 -12.61013,-6.8801 0,0 17.69843,-11.31885 33.84826,27.7423 5.30954,13.09436 20.57445,12.65049 29.86613,16.86731 26.99012,3.99489 18.1409,37.72951 19.24706,41.94633 -0.22124,0.66583 -1.76984,2.21939 -2.21232,2.66327 -1.76983,1.99745 -7.07937,2.88519 -7.07937,2.88519 h -1.76984 c 0,0 -2.43353,-0.66581 -4.64584,-0.66581 -5.752,-0.22193 -11.28277,7.76785 -18.58337,15.97956 4.64585,2.21939 9.07046,-1.33163 9.07046,-1.33163 0,0 8.40676,-13.76018 10.61906,-9.09947 0.22123,0.66583 -9.51291,15.97955 -10.39784,16.86732 1.10615,3.55102 7.30061,-1.99746 9.29169,-2.44133 2.21231,-0.22193 13.0526,-1.1097 15.04368,-9.98724 0.88492,-5.10458 13.0526,-3.77292 13.0526,-3.77292 0,0 2.2123,-0.88776 3.09723,-1.99745 -3.53969,-4.21684 -0.22124,-40.39278 -1.99108,-45.94124 2.65477,-6.88008 -0.44245,-10.43109 -0.44245,-10.43109 0,0 -5.53077,0.22192 -9.95538,-3.55103 -7.74308,-3.77296 -16.37107,-36.61981 -22.12306,-39.50501 0.44246,-1.1097 0.88492,-1.99742 1.76985,-2.44133 7.74306,-3.32906 15.48614,3.99489 16.14982,9.32141 0.22124,3.77296 12.38892,5.32652 12.38892,5.32652 0,0 0.66369,-0.88775 -2.876,-5.10455 -0.88492,-0.88778 0.88492,-1.77553 0.88492,-1.77553 0,0 13.49507,5.99233 16.37106,-4.21681 -15.48614,5.10456 -25.66274,-21.30609 -47.7858,-3.77297 -9.07045,-7.98978 -28.53874,-20.64027 -85.94806,-29.51779 17.3666,-19.53056 12.91986,-31.73719 5.90687,-35.06625 -15.90648,12.2066 -21.10541,3.10713 -26.79103,4.88264 -4.62372,19.97445 -54.8873,3.99491 -57.25447,47.71673 0.79642,0 14.44635,0.66582 16.41531,0.66582 0.70793,2.66328 1.74772,2.66328 -5.44228,4.43877 -3.96001,-1.1097 -24.91056,-1.55356 -34.48983,-4.43877 -10.154493,-1.99743 -20.286851,6.65816 -20.286851,6.65816 0,0 -16.879891,13.53822 -20.751425,15.31373 -3.849412,1.77551 -12.322543,3.55102 -14.62334,4.66071 -2.256551,0.88775 -6.703285,-0.44389 -6.703285,-0.44389 z M 128.82104,324.25119 c 0.97342,1.33162 4.55735,3.10714 4.55735,3.10714 0,0 -6.41569,7.76783 -9.84476,24.63513 -4.51311,-0.22194 -7.41123,-0.44387 -7.41123,-0.44387 0,0 -5.57501,0.44387 -7.45547,-7.10201 -4.75645,-18.86477 -5.22104,-26.85454 -10.088108,-33.5127 -2.38929,-3.32906 -8.716484,-5.10458 -14.534847,-6.88007 -6.061717,-1.99747 -11.614603,-3.77297 -11.614603,-3.77297 0,0 -7.610332,-3.551 -13.627803,1.7755 -0.685815,0.66583 -2.145937,0.44389 -2.345044,-3.10713 -0.199107,-3.55102 -4.004273,-1.99744 -4.004273,-1.99744 0,0 -5.464394,3.10714 -11.172141,4.66071 -7.16787,1.99745 -18.649736,-12.2066 -22.432779,-11.98467 5.57501,-0.22193 21.879702,-0.44387 21.879702,-0.44387 0,0 2.300798,-1.77553 0.641568,-3.32908 -1.659229,-1.55357 -14.092385,2.21939 -15.419769,0.22193 -1.327383,-1.99743 -3.716673,-5.77039 -3.716673,-5.77039 0,0 6.902392,2.21937 17.16749,0.88774 7.831562,-1.10967 12.499526,0.22196 13.295955,0.66583 16.017093,9.98724 44.02488,11.09689 48.471625,10.43109 6.28294,-0.88775 9.38016,4.88266 10.68543,6.8801 1.72559,2.88518 2.58839,5.32651 2.58839,5.32651 0,0 7.32274,10.20917 14.37999,19.75252"
     id="path6"
     style="stroke-width:0.221584" />
  <path
     d="m 242.75483,391.27654 c 0,0 4.64582,-3.99489 13.93751,0 0.88493,1.99745 1.10615,2.21939 2.43353,4.88265 -2.65476,-3.77295 -13.27382,-3.32905 -16.37104,-4.88265"
     fill="#e7423f"
     id="path8"
     style="stroke-width:0.221584" />
  <path
     d="m 139.72776,281.19514 c 1.81409,0.22196 1.06191,7.9898 9.889,9.54337 4.84495,0.88774 10.70756,0.88774 17.49933,-0.22194 0,0.88774 -0.0665,1.33164 -0.13272,2.21936 -14.20301,2.66326 -17.76482,3.77296 -23.6938,1.10971 -7.01301,-2.8852 -5.81837,-12.87243 -3.56181,-12.6505"
     fill="#e7423f"
     id="path10"
     style="stroke-width:0.221584" />
  <path
     d="M 210.16756,1.5766496 V 246.59653 H 418.41188 V 1.5766496 l -208.24432,0.023748 z"
     stroke="#000000"
     stroke-width="3.14871"
     fill="#0083c2"
     id="path12" />
  <g
     stroke="#000000"
     stroke-width="14.21"
     fill="none"
     id="g20"
     transform="matrix(0.22123055,0,0,0.22193829,-0.15632081,-6.6581064e-4)">
    <path
       d="M 1276,1111 H 950.7 V 708.9 H 1276 Z"
       id="path14" />
    <path
       d="M 1892,410.5 H 1567 V 7.5 l 325,0.059 v 403 z"
       id="path16" />
    <path
       d="m 7.813,7.108 0.218,1104 h 1884 v -1104 z"
       stroke-linecap="square"
       stroke-miterlimit="10"
       id="path18" />
  </g>
  <path
     d="M 418.41188,91.105005 H 346.51195 V 1.6638714 l 71.89993,0.013094 V 91.118101 Z M 282.13385,246.57278 h -71.96629 v -89.24139 h 71.96629 z m 0,-244.7979395 V 91.193781 H 210.4994 l -0.0442,33.113199 H 314.21228 V 1.7748405 l -32.07843,0.00466 z M 418.41188,157.42017 v -33.24636 h -104.1996 v 122.48776 h 32.29967 v -89.2414 z"
     stroke="#000000"
     stroke-width="3.14871"
     fill="#ffd303"
     id="path22" />
  <metadata
     id="metadata2438">
    <rdf:RDF>
      <cc:Work
         rdf:about="">
        <dc:title>Wappen Graubünden</dc:title>
      </cc:Work>
    </rdf:RDF>
  </metadata>
</svg>
