<?xml version="1.0" encoding="UTF-8" standalone="no"?>
<!-- Generator: Adobe Illustrator 16.0.2, SVG Export Plug-In . SVG Version: 6.00 Build 0)  -->

<svg
   version="1.1"
   id="Ebene_1"
   x="0px"
   y="0px"
   width="420"
   height="510"
   viewBox="-176.306 -213.897 419.99999 509.99999"
   enable-background="new -176.306 -213.897 406.402 492.691"
   xml:space="preserve"
   xmlns:xlink="http://www.w3.org/1999/xlink"
   xmlns="http://www.w3.org/2000/svg"
   xmlns:svg="http://www.w3.org/2000/svg"><defs
   id="defs139">
	
	
	
	
	
	
	
	
	
	
	
	
	
	
	
	
	
	
	
	
	
	
	
	
	
	
	
	
	
	
	

		
		
		
	</defs>
<path
   fill="#ffffff"
   d="M 35.816949,-213.897 H 243.694 V 95.703138 C 243.694,206.37578 150.02821,296.103 34.489743,296.103 -81.072581,296.103 -176.306,206.37371 -176.306,95.703138 V -213.897 Z"
   id="path2"
   style="stroke-width:1.03782" /><path
   fill="#16a74e"
   d="m -176.306,95.703138 c -9e-5,110.672632 95.233419,200.399862 210.795743,200.399862 77.262847,0 144.704457,-40.12462 180.961477,-99.78875 L -176.30574,-213.897 Z"
   id="path4"
   style="stroke-width:1.03782" /><path
   fill="#e8423f"
   d="m -46.419236,-20.518399 c -1.219874,-0.474522 -6.304757,-1.569972 -7.601392,0.648963 -7.30991,12.5088971 4.672034,40.171347 15.924751,45.703629 6.057878,2.948889 6.134639,0.8639 6.118042,0.191055 -0.158709,-7.82494 -22.472239,-31.6174917 -14.441401,-46.543647"
   id="path6"
   style="stroke-width:1.03782" /><path
   fill="none"
   stroke="#010202"
   stroke-width="3.16328"
   d="m -46.419236,-20.518399 c -1.219874,-0.474522 -6.304757,-1.569972 -7.601392,0.648963 -7.30991,12.5088971 4.672034,40.171347 15.924751,45.703629 6.057878,2.948889 6.134639,0.8639 6.118042,0.191055 -0.158709,-7.82494 -22.472239,-31.6174917 -14.441401,-46.543647 z"
   id="path8" /><path
   fill="#ffd730"
   d="m 56.776303,143.70254 c -19.980624,-3.89378 -51.0148025,5.93827 -51.0148025,5.93827 0,0 -18.3313055,7.94954 -22.2004635,17.75772 -3.898204,9.85593 0.39314,13.83901 0.39314,13.83901 0,0 9.344069,15.8835 3.14408,22.73759 -11.487148,2.86375 -30.430464,-0.1464 -35.142954,-6.63604 -4.882609,-6.68484 3.144079,-11.09779 3.286191,-15.86689 0.303931,-10.12383 -7.703049,-14.52016 -10.774517,-13.20666 -1.932505,0.83586 4.068321,4.80233 0.948099,9.31288 -3.643025,5.2239 -8.955079,-3.00185 -13.910299,-5.53228 -4.95107,-2.54705 -9.741358,1.19202 -9.741358,1.19202 0,0 4.988413,1.56582 6.106632,2.60415 1.114068,1.05496 1.280037,5.95385 -1.194979,7.26839 -3.739496,2.02789 -13.310735,-2.43386 -19.324009,6.34323 5.061025,-1.58139 7.103484,-0.0976 7.548489,0.25958 3.577676,2.70903 -2.212578,8.38773 6.657442,13.12568 -6.365958,0.15367 -8.472731,0.30839 -9.927036,0.72995 6.730053,0.81926 4.700042,8.14475 9.372077,10.05945 4.655438,1.94689 8.290165,1.44434 9.084742,2.1826 36.005995,31.74209 95.177149,8.33891 99.143815,4.01526 0.976107,-1.00615 -6.325504,-9.13429 -7.678154,-11.94923 -0.786278,-1.57932 2.779986,-22.33264 7.560938,-24.10094 6.714494,-6.95169 32.088082,-12.08733 32.088082,-12.08733 0,0 -2.756126,-20.75125 -4.425155,-27.98641"
   id="path10"
   style="stroke-width:1.03782" /><path
   fill="#ffd730"
   d="m 56.776303,143.70254 c -19.980624,-3.89378 -51.0148025,5.93827 -51.0148025,5.93827 0,0 -18.3313055,7.94954 -22.2004635,17.75772 -3.898204,9.85593 0.39314,13.83901 0.39314,13.83901 0,0 9.344069,15.8835 3.14408,22.73759 -11.487148,2.86375 -30.430464,-0.1464 -35.142954,-6.63604 -4.882609,-6.68484 3.144079,-11.09779 3.286191,-15.86689 0.303931,-10.12383 -7.703049,-14.52016 -10.774517,-13.20666 -1.932505,0.83586 4.068321,4.80233 0.948099,9.31288 -3.643025,5.2239 -8.955079,-3.00185 -13.910299,-5.53228 -4.95107,-2.54705 -9.741358,1.19202 -9.741358,1.19202 0,0 4.988413,1.56582 6.106632,2.60415 1.114068,1.05496 1.280037,5.95385 -1.194979,7.26839 -3.739496,2.02789 -13.310735,-2.43386 -19.324009,6.34323 5.061025,-1.58139 7.103484,-0.0976 7.548489,0.25958 3.577676,2.70903 -2.212578,8.38773 6.657442,13.12568 -6.365958,0.15367 -8.472731,0.30839 -9.927036,0.72995 6.730053,0.81926 4.700042,8.14475 9.372077,10.05945 4.655438,1.94689 8.290165,1.44434 9.084742,2.1826 36.005995,31.74209 95.177149,8.33891 99.143815,4.01526 0.976107,-1.00615 -6.325504,-9.13429 -7.678154,-11.94923 -0.786278,-1.57932 2.779986,-22.33264 7.560938,-24.10094 6.714494,-6.95169 32.088082,-12.08733 32.088082,-12.08733 0,0 -2.756126,-20.75125 -4.425155,-27.98641"
   id="path12"
   style="stroke-width:1.03782" /><path
   fill="none"
   stroke="#010202"
   stroke-width="3.16328"
   stroke-miterlimit="17"
   d="m 56.776303,143.70254 c -19.980624,-3.89378 -51.0148025,5.93827 -51.0148025,5.93827 0,0 -18.3313055,7.94954 -22.2004635,17.75772 -3.898204,9.85593 0.39314,13.83901 0.39314,13.83901 0,0 9.344069,15.8835 3.14408,22.73759 -11.487148,2.86375 -30.430464,-0.1464 -35.142954,-6.63604 -4.882609,-6.68484 3.144079,-11.09779 3.286191,-15.86689 0.303931,-10.12383 -7.703049,-14.52016 -10.774517,-13.20666 -1.932505,0.83586 4.068321,4.80233 0.948099,9.31288 -3.643025,5.2239 -8.955079,-3.00185 -13.910299,-5.53228 -4.95107,-2.54705 -9.741358,1.19202 -9.741358,1.19202 0,0 4.988413,1.56582 6.106632,2.60415 1.114068,1.05496 1.280037,5.95385 -1.194979,7.26839 -3.739496,2.02789 -13.310735,-2.43386 -19.324009,6.34323 5.061025,-1.58139 7.103484,-0.0976 7.548489,0.25958 3.577676,2.70903 -2.212578,8.38773 6.657442,13.12568 -6.365958,0.15367 -8.472731,0.30839 -9.927036,0.72995 6.730053,0.81926 4.700042,8.14475 9.372077,10.05945 4.655438,1.94689 8.290165,1.44434 9.084742,2.1826 36.005995,31.74209 95.177149,8.33891 99.143815,4.01526 0.976107,-1.00615 -6.325504,-9.13429 -7.678154,-11.94923 -0.786278,-1.57932 2.779986,-22.33264 7.560938,-24.10094 6.714494,-6.95169 32.088082,-12.08733 32.088082,-12.08733 0,0 -2.756126,-20.75125 -4.425155,-27.98641 z"
   id="path14" /><path
   fill="none"
   stroke="#010202"
   stroke-width="3.16328"
   d="m -61.0598,178.01557 c 0,0 -5.535075,15.07256 1.288337,24.7582 6.819261,9.68565 13.841836,8.61512 19.583335,26.76948 m -35.507049,-45.26442 c 0,0 -0.78213,3.23652 4.95937,6.38373 -2.115072,2.75784 -2.536219,19.97146 1.49476,25.17977"
   id="path16" /><path
   fill="#ffd730"
   d="m 3.3310881,75.666266 c 0,-0.07268 0,-0.170287 -0.0083,-0.325 0,0.01662 -0.0083,0.0488 -0.0083,0.06542 0.0083,0.08929 0.016597,0.186902 0.016597,0.259585 m 0,0 c 0.023858,0.186902 0.023858,0.186902 0,0 M 156.12343,156.8116 C 144.21825,139.2574 119.25025,125.72573 106.33265,121.06982 90.71598,109.22545 87.489952,109.19326 82.78991,105.85085 85.05954,90.503125 72.246713,71.893972 72.246713,71.893972 c 0,0 -5.996677,-6.830209 -19.198495,-6.895623 3.468758,2.725645 17.521168,13.936616 13.865695,16.645648 C 50.957006,53.787378 27.828152,63.051458 27.828152,63.051458 c 0,0 9.510039,1.784909 12.086711,7.446983 2.614016,5.678689 12.338777,27.354063 22.881975,37.412479 3.362952,3.22819 10.219557,8.35553 18.99622,11.47055 21.556292,7.64116 52.441102,26.55869 58.939832,35.01183 3.39512,4.39634 5.57553,10.4644 5.46973,12.6553 -0.11307,2.17429 -2.3827,4.18556 -5.59213,3.76399 -4.05172,-0.51917 -52.37575,-31.76701 -52.37575,-31.76701 0,0 -10.421832,-7.54459 -31.573578,-12.75187 C 42.813101,107.52258 2.232579,88.313263 -6.3532185,81.255658 c -0.061201,0.08099 -0.1255142,0.161981 -0.1742677,0.227396 4.5299236,-5.451292 7.9665247,-11.340763 10.413534,-16.549083 -0.680474,5.548896 -0.6161609,9.18309 -0.5632582,10.400026 0.089208,-1.979078 21.1029914,-23.298301 17.1197294,-33.076361 15.211083,-6.023417 13.278579,-7.742911 12.57321,-13.58358 -0.535252,0.20663 -1.685626,0.133946 -3.103626,0 1.0093,0.06853 2.046608,0.08515 3.103626,0 -0.02075,-7.792751 -19.113436,-11.876548 -18.582335,-12.914888 0.522803,-1.021729 6.183393,1.493135 7.378372,0.405991 0.429445,-0.442333 -23.9514398,-29.398556 -29.4865147,-28.615646 -2.139966,0.681151 -3.2695953,2.6405016 -5.6605893,1.293772 -2.402405,-1.346728 -8.096188,-7.077333 -10.304617,-7.44283 0.142112,0.815098 -2.580822,2.923969 -2.580822,2.923969 0,0 -3.254035,1.123486 -5.883611,2.997691 -2.637873,1.885628 -2.455307,8.274542 0.150411,10.8901236 0.142111,0.1339461 -2.208429,6.8790109 -2.208429,6.8790109 0,0 4.07662,-5.5000937 4.814146,-5.5000937 0.713668,0 8.258008,4.7701398 8.561939,9.2318922 0.567408,8.063758 -13.286877,20.35668 -13.801381,20.442862 -2.852597,0.43818 -8.286015,-9.819592 -9.639702,-10.517358 -0.522803,-0.259585 -2.658621,-2.267738 -5.478024,8.083487 -0.206424,0.795369 0.595415,2.547051 1.993706,4.814788 v -0.01662 c 0,0 -11.321179,-7.881011 -22.606051,-8.853937 1.900348,0.117333 3.626428,0.425721 4.927213,0.831712 -3.922061,-8.225739 -11.775519,-39.814157 -7.998681,-56.687202 25.51155,-9.665919 22.861228,-13.705066 22.589454,-18.556197 3.808994,-4.765987 -2.098475,-10.496592 -2.098475,-10.496592 l -2.269628,6.421103 c 0,0 -2.576674,1.736106 -5.766396,-0.531631 -3.184534,-2.251124 -1.126516,-10.834053 -2.480203,-15.684145 -1.361985,-4.818942 -6.831709,-9.795711 -6.831709,-9.795711 0,0 1.25203,3.849131 1.487499,4.993383 0.206424,1.155674 -0.514504,3.391222 -5.012272,3.147213 -4.489468,-0.238819 -4.323499,-4.956003 -6.815112,-7.199859 -2.520659,-2.267738 -7.581684,-3.525168 -7.581684,-3.525168 0,0 3.391997,7.385721 2.58912,8.485324 -2.293488,0.238819 -5.186539,6.850976 -7.029835,7.422063 -1.827737,0.543053 -7.212406,-7.896585 -11.442548,-2.230356 5.226999,-0.600162 5.709347,2.255277 5.806854,3.23651 0.324677,3.612389 -8.464434,17.44517 -1.560109,21.566347 -6.644995,15.384064 0.174265,24.579614 0.174265,24.579614 0,0 -5.12534,25.5857671 -5.72594,55.470267 0.78214,0.567972 1.37754,1.249125 1.8516,1.946889 -15.93202,-13.806823 -25.76674,-56.220987 -24.8954,-61.453188 0.45435,-2.709032 1.08607,-3.731798 1.08607,-3.731798 0,0 2.03416,0.291773 4.13263,-0.276199 2.12337,-0.56382 2.76339,-1.103758 2.76339,-1.103758 0,0 6.03298,-0.547205 7.62629,-1.054954 1.5767,-0.506711 7.36281,-11.539087 4.3152,-18.933114 -0.84645,1.82125 -1.97296,6.059759 -4.43242,6.672381 -2.46361,0.63235 -2.18042,-1.670692 -6.05788,-3.265584 1.20328,-11.534933 -10.01625,-23.922344 -10.01625,-23.922344 0,0 3.76855,7.706569 1.27279,9.093793 -2.48436,1.39553 -6.75495,2.693457 -6.75495,2.693457 l -1.29663,13.347877 c 0.19812,-2.774448 0.40973,-6.911199 0.40973,-12.358338 -1.51966,-3.472213 -4.7737,-9.353378 -9.0557,-14.22839 1.9937,3.180439 4.3764,8.761523 -0.68878,16.013298 0.18257,0.491136 0.53941,1.561666 3.52893,8.083488 -3.39511,-5.974616 -15.66854,-13.648996 -15.66854,-13.648996 0,0 3.08807,11.746754 -3.06317,18.466899 4.3598,1.926123 1.28004,40.5607244 12.22468,42.53564946 2.77999,5.77629244 5.86701,75.03261654 20.37376,93.42994654 1.82359,0.121485 16.17993,-0.08099 16.17993,-0.08099 l -2.75094,0.681151 c 0,0 18.643535,20.766829 25.482505,25.958539 9.408383,7.20401 49.673564,13.77464 77.210977,16.54908 27.541561,2.79107 41.160377,12.83286 42.055574,11.45395 0.514504,-1.10376 -6.365958,-9.06888 -4.995675,-9.45825 2.913798,-0.81095 15.478708,39.91176 26.791588,49.451 11.329477,9.58804 38.671876,13.40082 40.357502,22.45413 1.361985,7.08979 -2.869194,26.03952 -14.020254,24.57961 -1.661767,-0.24297 -6.548525,-17.928 -9.352368,-19.2415 -2.820441,-1.29793 -10.300467,-2.85544 -16.937163,0.84417 1.118218,0.34057 7.926069,1.93028 10.583652,2.55536 2.301786,2.36845 -1.669029,7.0981 -3.047611,7.60897 -3.14408,1.10375 -5.632581,0.35719 -8.096188,0.86805 -6.702046,1.44433 -10.802525,10.67518 -10.802525,10.67518 0,0 12.188368,0.37276 12.707022,6.94442 6.564085,-3.68298 8.638701,-6.57062 13.209079,-3.79617 -14.822092,3.37461 -15.997362,6.99219 -18.501423,17.44933 5.583828,-3.00185 8.906325,-5.41911 10.559795,-4.32366 1.621311,1.11934 3.59842,2.43388 6.12634,1.45991 0.437743,-0.16198 1.005151,-0.40599 1.64517,-0.71437 -1.239583,0.81924 -2.244735,1.58969 -2.495763,2.10886 -0.818436,1.75272 -1.224023,10.19652 -0.170119,11.25978 0.494796,-1.08715 1.685626,-5.27269 4.47391,-5.35369 2.771687,-0.12979 12.496447,2.04449 13.857396,0 1.345388,-2.06007 -1.005152,0.16198 1.944952,-3.2687 2.950104,-3.3663 15.997357,-8.49363 18.963027,-10.6025 3.45216,-6.97662 31.45947,-33.55193 30.21159,-52.46842 -17.76389,-3.32581 -17.11558,-7.21959 -19.19849,-10.30242 -12.21223,-2.82326 -31.159695,-34.78444 -34.441737,-39.71656 4.780952,5.02973 48.396637,33.02444 59.385877,36.24435 13.33044,3.89273 27.3424,-10.11657 16.88841,-25.53697 M 25.045055,28.190189 c -2.812142,-0.170288 -5.709343,-0.129792 -7.573385,0.940737 2.197017,-1.244971 4.794437,-1.203438 7.573385,-0.940737 m -55.819614,69.662315 c 0.911794,-0.259585 1.839147,-0.55136 2.74368,-0.859746 -0.904533,0.308386 -1.824625,0.600161 -2.74368,0.859746"
   id="path18"
   style="stroke-width:1.03782" /><path
   fill="none"
   stroke="#010202"
   stroke-width="3.16328"
   d="m -99.447458,-21.13102 c 6.649149,-1.021729 13.302441,-10.079179 20.595753,-21.533122 7.297461,-11.470555 15.321038,-14.062255 17.521167,-13.790209 m -38.571258,10.277501 c 0,0 14.205934,-15.060102 24.182761,-18.000684 -3.800696,-10.277502 0.531102,-9.62127 0.531102,-9.62127 m -43.725637,27.147432 c 0,0 -8.95509,9.247467 -9.41254,19.879043 M 54.539867,226.72104 c 8.80052,0.95735 24.26367,11.37295 21.896533,4.15337 M 54.085526,-17.046186 c -0.826734,2.534591 -0.761383,2.859592 3.524773,7.2517752 C 49.823228,5.3591415 55.415355,16.456933 55.415355,16.456933"
   id="path20" /><path
   fill="#e8423f"
   d="m 16.102423,153.18467 c 0,0 15.875997,7.99834 21.625795,7.77925 -1.02901,-2.84713 -4.117075,-9.0616 -4.117075,-9.0616 0,0 -6.106632,-3.49506 -17.50872,1.28235"
   id="path22"
   style="stroke-width:1.03782" /><path
   fill="none"
   stroke="#010202"
   stroke-width="3.16328"
   d="m 16.102423,153.18467 c 0,0 15.875997,7.99834 21.625795,7.77925 -1.02901,-2.84713 -4.117075,-9.0616 -4.117075,-9.0616 0,0 -6.106632,-3.49506 -17.50872,1.28235 z"
   id="path24" /><path
   fill="#ffd730"
   d="m 162.24147,-11.246012 c -2.26962,-1.229396 -25.35699,-5.094102 -36.84103,-3.289465 -11.4913,1.784909 -13.55035,13.2554645 -14.31173,18.5157013 -0.71367,5.2238949 0.84333,13.3478767 -15.608375,10.3626457 -6.99353,-1.260547 -15.883259,-9.9732677 -15.817907,-14.46720869 0.09751,-6.21343401 7.715495,-8.73244991 7.926069,-13.58358031 0.06535,-1.459908 0.146261,-13.530625 -9.149056,-13.530625 -0.794578,2.567818 3.420004,9.393874 -2.261331,10.010648 -5.462463,0.584586 -10.032842,-7.285002 -14.749481,-10.249466 -3.581824,-2.283313 -8.379373,-0.681152 -8.379373,-0.681152 l 6.256003,3.96231 c 0,0 -0.14626,5.325652 -2.463606,6.555048 -4.425155,2.332114 -13.468405,-5.293463 -21.734712,3.780601 5.360807,-0.681152 6.91262,0.810944 8.387672,1.15152 1.596416,3.9623106 -1.985407,11.0489896 4.287193,13.7902105 C 46.485171,0.91504094 37.611002,0.29826624 37.776972,0.60665357 c 5.312053,1.78906203 4.444864,6.52182153 4.444864,6.52182153 0,0 2.042459,6.4854789 11.645856,7.7429109 15.113576,20.649492 55.779158,36.710555 82.393358,35.299449 -0.35682,-21.156202 6.52364,-27.094476 19.0927,-29.219961 1.00411,-4.794022 6.66885,-31.194886 6.88772,-32.196886"
   id="path26"
   style="stroke-width:1.03782" /><path
   fill="#ffd730"
   d="m -47.615252,-158.65828 c -0.263476,1.02173 -3.262333,11.01991 2.646172,21.03887 0.108917,-0.28035 -0.05705,-1.87421 -0.05705,-1.87421 0,0 3.70319,-2.61973 5.169943,-5.5572 0.69707,-1.37061 5.692746,-3.3175 8.489328,-6.74922 2.865044,-4.25096 0.579855,-13.34061 -4.995675,-18.27272 0.324677,4.3278 1.417999,6.9195 0.680474,7.68994 -2.978111,3.23444 -11.665565,2.71112 -11.93319,3.72454"
   id="path28"
   style="stroke-width:1.03782" /><path
   fill="none"
   stroke="#010202"
   stroke-width="3.16328"
   d="m -47.615252,-158.65828 c -0.263476,1.02173 -3.262333,11.01991 2.646172,21.03887 0.108917,-0.28035 -0.05705,-1.87421 -0.05705,-1.87421 0,0 3.70319,-2.61973 5.169943,-5.5572 0.69707,-1.37061 5.692746,-3.3175 8.489328,-6.74922 2.865044,-4.25096 0.579855,-13.34061 -4.995675,-18.27272 0.324677,4.3278 1.417999,6.9195 0.680474,7.68994 -2.978111,3.23444 -11.665565,2.71112 -11.93319,3.72454 z"
   id="path30" /><path
   fill="#e8423f"
   d="m 76.963352,-185.32185 c -1.313232,-0.17443 -6.636696,-0.008 -7.366961,2.70489 -4.214582,15.32798 14.473558,41.80153 27.002162,44.73381 6.759097,1.56166 6.313057,-0.71437 6.142937,-1.39553 -2.07358,-8.35865 -30.048734,-27.93761 -25.778138,-46.04317"
   id="path32"
   style="stroke-width:1.03782" /><path
   fill="none"
   stroke="#010202"
   stroke-width="3.16328"
   d="m 162.24147,-11.246012 c -2.26962,-1.229396 -25.35699,-5.094102 -36.84103,-3.289465 -11.4913,1.784909 -13.55035,13.2554645 -14.31173,18.5157013 -0.71367,5.2238949 0.84333,13.3478767 -15.608375,10.3626457 -6.99353,-1.260547 -15.883259,-9.9732677 -15.817907,-14.46720869 0.09751,-6.21343401 7.715495,-8.73244991 7.926069,-13.58358031 0.06535,-1.459908 0.146261,-13.530625 -9.149056,-13.530625 -0.794578,2.567818 3.420004,9.393874 -2.261331,10.010648 -5.462463,0.584586 -10.032842,-7.285002 -14.749481,-10.249466 -3.581824,-2.283313 -8.379373,-0.681152 -8.379373,-0.681152 l 6.256003,3.96231 c 0,0 -0.14626,5.325652 -2.463606,6.555048 -4.425155,2.332114 -13.468405,-5.293463 -21.734712,3.780601 5.360807,-0.681152 6.91262,0.810944 8.387672,1.15152 1.596416,3.9623106 -1.985407,11.0489896 4.287193,13.7902105 C 46.485171,0.91504094 37.611002,0.29826624 37.776972,0.60665357 c 5.312053,1.78906203 4.444864,6.52182153 4.444864,6.52182153 0,0 2.042459,6.4854789 11.645856,7.7429109 15.113576,20.649492 55.779158,36.710555 82.393358,35.299449 -0.35682,-21.156202 6.52364,-27.094476 19.0927,-29.219961 1.00411,-4.794022 6.66885,-31.194886 6.88772,-32.196886 z M 76.963352,-185.32185 c -1.313232,-0.17443 -6.636696,-0.008 -7.366961,2.70489 -4.214582,15.32798 14.473558,41.80153 27.002162,44.73381 6.759097,1.56166 6.313057,-0.71437 6.142937,-1.39553 -2.07358,-8.35865 -30.048734,-27.93761 -25.778138,-46.04317 z"
   id="path34" /><g
   id="g64"
   transform="matrix(1.0373079,0,0,1.0383413,6.5778618,8.2010815)">
		<g
   id="g48">
			<g
   id="g46">
				<g
   id="g44">
					<defs
   id="defs37">
						<rect
   id="SVGID_1_"
   x="-176.306"
   y="-213.897"
   width="406.40201"
   height="492.69101" />
					</defs>
					<clipPath
   id="SVGID_2_">
						<use
   xlink:href="#SVGID_1_"
   overflow="visible"
   id="use39"
   x="0"
   y="0"
   width="100%"
   height="100%" />
					</clipPath>
					<path
   clip-path="url(#SVGID_2_)"
   fill="#ffd730"
   d="m 223.346,-2.713 c -0.859,-8.266 -9.609,-29.953 -30.938,-62.457 -15.063,-22.93 -16.313,-34.688 -13.516,-44.77 13.844,-2.008 32.079,-20.695 31.579,-32.008 -0.517,-11.336 -7.392,-17.094 -7.392,-17.094 0,0 -3.906,24.449 -8.969,23.055 1.734,-2.504 7.016,-10.344 7.094,-21.398 0.094,-11.043 -15.609,-20.832 -17.797,-20.977 1.453,2.008 7.555,8.367 6,13.277 -1.578,4.898 -5.688,10.523 -11.281,17.883 -5.672,7.422 -13.016,19.664 -13.891,31.375 -0.891,11.602 5.516,25.473 8.406,33.848 3.094,8.879 24.094,42.77 24.094,42.77 0,0 25.085,37.75 16.594,44.719 -2.578,2.129 -13.508,1.488 -19.625,-7 -5.734,-7.938 -4.969,-7.609 -9.883,-14.953 -6.969,-10.438 -11.328,-9.672 -11.609,-10.934 -22.461,-37.625 -53.82,-58.543 -58.445,-61.281 0,0 7.25,-7.063 9.461,-14.895 -0.148,2.742 -0.703,9.734 -0.703,9.734 0,0 20.211,-22.633 17.883,-34.43 26.133,-2.344 16.508,-14.816 14.313,-16.059 0.148,-1.488 -14.938,-7.91 -14.938,-9.32 0,0 0.344,-0.207 0.844,-0.414 4.953,1.48 6.156,1.191 6.078,0.414 -0.063,-0.766 -20.594,-23.91 -29.141,-25.559 -2.859,1.992 -3.344,0.848 -5.188,1.199 -2.836,0.449 -9.836,-8.734 -13.359,-8.941 -0.359,1.406 -3.625,3.086 -3.625,3.086 0,0 -7.078,2.129 -8.484,4.734 -1.422,2.602 1.203,8.77 1.203,8.77 l -1.148,5.84 c 0,0 3.773,-4.648 3.969,-5.008 1.906,2.832 8,2.527 9.477,10.656 1.484,8.121 -4.734,10.801 -7.133,15.68 -2.422,4.855 -4.898,3.105 -6.945,2.758 -3.039,-0.535 -10.133,-7.637 -10.398,-7.637 -3.195,0 -4.898,8.336 -4.836,9.465 0.922,-0.344 1.328,3.031 2.25,3.484 0.406,0.195 1,0.563 1.656,1 -11.016,-7.336 -29.125,-5.504 -29,-4.965 0.141,0.52 4.961,2.461 4.672,3.688 -0.203,0.871 -8.594,-1.258 -19.863,2.703 0.129,-0.047 0.242,-0.098 0.363,-0.145 0,0 -20.008,-20.703 -14.664,-35.457 6.75,-1.527 12.094,-0.926 16.094,-2.48 6.664,-2.582 9.805,-10.367 9.703,-14.031 -6.508,7.059 -8.469,5.25 -9.551,4.777 -4.016,-1.816 0.387,-12.168 0,-15.887 -0.367,-3.715 -5.254,-8.105 -5.254,-8.105 0,0 1.512,5.504 -6.512,8.105 -3.785,1.215 -6.906,-4.336 -9.547,-6.672 -2.664,-2.313 -7.664,-2.699 -7.664,-2.699 0,0 4.008,6.043 2.875,7.633 -2.617,0.059 -4.992,4.289 -8.457,5.074 -3.465,0.789 -6.824,-6.992 -12.73,-1.906 4.418,-0.422 4.801,0.848 5.25,1.586 2.063,3.352 -1.121,4.367 -2.504,17.488 -0.625,5.719 -0.105,11.773 0.504,16.734 1.367,11.273 9.801,24.074 14.582,50.105 0.02,0.016 0.066,0.039 0.121,0.055 -17.727,-7.25 -37.512,-12.25 -47.785,-22.496 -10.68,-10.656 -9.246,-27.16 -7.863,-29.648 0,-0.871 -7.16,-11.672 -20.742,-13.336 7.152,5.809 6.238,3.984 0.984,12.336 3.504,3.887 5.391,7.73 6.406,10.488 -1,-2.078 -2.832,-4.992 -6.273,-8.992 -3.637,-1.129 -9.52,-1.344 -17.102,0.648 10.102,1.727 8.152,13.273 8.152,13.273 0,0 2.598,1.742 7.75,4.398 -5.641,-2.406 -22.766,1.176 -22.766,1.176 0,0 13.848,1.184 12.598,9.777 6.984,4.605 15.113,13.945 18.754,15.918 1.391,0.832 0.742,1.52 7.742,3 25.351,30.538 65.832,55.108 70.328,56.811 5.121,-1.109 14.121,-0.734 14.121,-0.734 0,0 -3.762,0.488 -7.625,0.918 6.738,8.785 30.434,10.41 61.074,14.035 41.109,4.836 57.344,27.766 59.719,28.141 0.734,-1.984 -1.375,-3.125 -1.641,-10.344 6.875,11.328 -1.234,44.969 11.016,57.563 11.75,12.082 28.359,22.543 32.578,28.262 1.328,1.773 3.016,5.492 2.125,15.82 -0.375,4.75 -3.875,7.359 -7.297,13.438 -2.203,1.094 -5.047,1.344 -8.688,0.031 -21.063,-7.563 -27.359,3.484 -27.359,3.484 0,0 12.766,-1.375 12.375,6.094 1.078,-0.195 2.328,-0.289 3.625,-0.328 -3,1.07 -5.922,3.547 -7.75,8.695 5.5,-3.133 10.484,3.227 12.891,6.422 2.391,3.211 5.156,0.461 5.156,0.461 0,0 6.563,-7.625 12.031,-7.719 -0.594,0.344 -16.594,4.328 -12.453,21.852 2.125,-11.07 14.844,-2.578 18.047,-6.867 0.188,-0.789 -0.078,-3.172 1.734,-5.563 1.75,-2.391 12,-6 12,-6 0,0 10.172,-16.531 10.734,-26.148 0.164,-2.641 2.547,-15.789 2.766,-38.945 -17.438,-1.516 -18.313,-13.102 -19.93,-25.711 -1.117,-8.672 -3.922,-14.902 -5.594,-17.965 3.297,5.109 12.836,17.391 27.07,14.109 9.752,-2.29 9.884,-12.337 9.017,-20.567 M 77.096,-132.506 c -0.258,-0.25 -0.57,-0.48 -0.852,-0.711 0.298,0.246 0.594,0.48 0.852,0.711 m -1.226,-0.993 c -0.281,-0.191 -0.563,-0.398 -0.852,-0.602 0.289,0.212 0.57,0.411 0.852,0.602"
   id="path42" />
				</g>
			</g>
		</g>
		<g
   id="g62">
			<g
   id="g60">
				<g
   id="g58">
					<defs
   id="defs51">
						<rect
   id="SVGID_3_"
   x="-176.306"
   y="-213.897"
   width="406.40201"
   height="492.69101" />
					</defs>
					<clipPath
   id="SVGID_4_">
						<use
   xlink:href="#SVGID_3_"
   overflow="visible"
   id="use53"
   x="0"
   y="0"
   width="100%"
   height="100%" />
					</clipPath>
					<path
   clip-path="url(#SVGID_4_)"
   fill="none"
   stroke="#010202"
   stroke-width="3.048"
   stroke-miterlimit="16"
   d="m 113.752,-88.651 c 4.625,2.738 35.984,23.656 58.445,61.281 0.273,1.262 4.641,0.504 11.602,10.934 4.922,7.344 4.164,7.016 9.891,14.953 6.109,8.488 17.046,9.129 19.625,7 8.484,-6.969 -16.592,-44.719 -16.592,-44.719 0,0 -20.984,-33.891 -24.086,-42.77 -2.883,-8.383 -9.289,-22.246 -8.406,-33.848 0.867,-11.711 8.211,-23.953 13.883,-31.375 5.594,-7.359 9.711,-12.984 11.281,-17.879 1.563,-4.914 -4.539,-11.273 -6,-13.281 2.188,0.145 17.891,9.934 17.805,20.977 -0.086,11.055 -5.359,18.887 -7.102,21.398 5.07,1.395 8.969,-23.055 8.969,-23.055 0,0 6.875,5.758 7.391,17.094 0.508,11.313 -17.734,30 -31.57,32.012 -2.805,10.078 -1.539,21.836 13.508,44.766 21.33,32.504 30.08,54.184 30.938,62.457 0.875,8.23 0.75,18.277 -9.031,20.543 -17.859,4.129 -28.344,-16.281 -28.344,-16.281 0,0 5.25,7.516 6.875,20.145 1.625,12.609 2.5,24.203 19.938,25.703 -0.22,23.172 -2.608,36.313 -2.767,38.953 -0.563,9.609 -10.742,26.141 -10.742,26.141 0,0 -10.242,3.609 -12,6 -1.82,2.391 -1.539,4.789 -1.734,5.563 -3.195,4.297 -15.922,-4.188 -18.055,6.875 -4.141,-17.531 11.859,-21.516 12.461,-21.859 -5.477,0.094 -12.031,7.719 -12.031,7.719 0,0 -2.773,2.766 -5.164,-0.453 -2.406,-3.188 -7.391,-9.547 -12.883,-6.422 5,-14.219 18.492,-8.125 18.492,-8.125 0,0 -9.117,-1.188 -14.367,-0.234 0.398,-7.469 -12.375,-6.094 -12.375,-6.094 0,0 6.297,-11.047 27.359,-3.492 3.641,1.313 6.492,1.063 8.695,-0.031 3.422,-6.086 6.914,-8.695 7.289,-13.445 0.891,-10.328 -0.805,-14.047 -2.125,-15.813 -4.219,-5.719 -20.836,-16.188 -32.578,-28.262 -12.242,-12.594 -4.148,-46.234 -11.016,-57.563 0.266,7.219 2.375,8.359 1.641,10.344 -2.375,-0.375 -18.609,-23.297 -59.727,-28.145 -30.634,-3.621 -54.333,-5.246 -61.067,-14.031 3.863,-0.441 7.625,-0.918 7.625,-0.918 0,0 -9,-0.379 -14.121,0.734 -4.496,-1.703 -44.977,-26.273 -70.328,-56.809 -7,-1.48 -6.352,-2.168 -7.742,-3 -3.641,-1.977 -11.77,-11.313 -18.754,-15.918 1.25,-8.586 -12.598,-9.777 -12.598,-9.777 0,0 18.734,-3.926 23.477,-0.824 -5.613,-2.848 -8.461,-4.758 -8.461,-4.758 0,0 1.949,-11.547 -8.152,-13.273 7.574,-1.992 13.465,-1.777 17.102,-0.648 8.258,9.586 7.387,13.063 7.387,13.063 0,0 -0.891,-7.199 -7.512,-14.551 5.254,-8.352 6.168,-6.527 -0.984,-12.336 13.582,1.664 20.742,12.465 20.742,13.336 -1.383,2.496 -2.816,18.992 7.863,29.648 14.602,14.559 48.457,18.488 68.191,33.496 13.145,10.008 11.238,25.793 -1.965,27.094 5.574,5.188 29.203,4.043 29.203,4.043 0,0 -4.508,4.23 -6,5.621 2.016,1.492 28,4.984 44.242,-13.828 -2.258,5.109 -3.633,7.719 -3.633,7.719 0,0 6.616,0.998 28.092,-21.795 z"
   id="path56" />
				</g>
			</g>
		</g>
	</g><path
   fill="none"
   stroke="#010202"
   stroke-width="3.16328"
   stroke-miterlimit="9"
   d="m 29.263786,-64.91891 c 5.781954,5.386915 30.300801,4.198014 30.300801,4.198014 0,0 -4.684483,4.392184 -6.223847,5.836516 2.091212,1.545052 29.028023,5.175093 45.884277,-14.358183 -2.35054,5.304886 -3.776838,8.014956 -3.776838,8.014956 0,0 6.855571,1.038342 29.142131,-22.62857 0,0 7.52048,-7.333805 9.81397,-15.46609 -0.15352,2.847128 -0.72923,10.10721 -0.72923,10.10721 0,0 20.96502,-23.500783 18.55018,-35.750083 27.10796,-2.43388 17.12388,-15.38407 14.84699,-16.67473 -0.71368,-0.14225 -7.7155,0 -13.68728,-0.28035 -6.00498,-0.28347 -7.84516,5.71503 -7.84516,5.71503 0,0 -4.13264,9.81544 -13.16136,21.63904 -13.34704,17.607144 -34.790275,-5.28517 -45.811672,-14.82026 -10.980941,-9.52781 -32.392014,-7.41894 -32.254051,-6.81774 0.153521,0.54098 5.146085,2.55535 4.846302,3.8294 -0.291484,1.27612 -17.553324,-3.69961 -36.244575,11.82774 0.846443,0 9.586799,-0.11732 9.26316,2.25944 -0.133813,1.14737 -12.09916,2.57508 -16.118728,16.40683 0.86304,0.27204 10.766218,5.423253 15.255687,8.83005 13.613629,10.390681 11.653118,26.780898 -2.050757,28.13178"
   id="path66" /><path
   fill="none"
   stroke="#010202"
   stroke-width="3.16328"
   d="m 16.049521,-101.88178 c 4.019567,-13.83071 15.993213,-15.25842 16.118727,-16.40683 0.320527,-2.37676 -8.423978,-2.25944 -9.26316,-2.25944 5.607687,-4.65176 11.094008,-7.45944 16.017071,-9.17063 0,0 -20.754456,-21.49677 -15.211082,-36.81646 7.001828,-1.58554 12.545201,-0.9615 16.694432,-2.57508 6.912621,-2.681 10.179103,-10.76449 10.065,-14.56898 -6.742502,7.32966 -8.784961,5.4513 -9.907328,4.96017 -4.165829,-1.88563 0.393139,-12.63454 0,-16.49613 -0.380692,-3.85744 -5.450016,-8.41472 -5.450016,-8.41472 0,0 1.568409,5.71503 -6.754949,8.41472 -3.926211,1.26158 -7.163648,-4.50225 -9.903178,-6.92782 -2.763389,-2.40168 -7.949928,-2.80248 -7.949928,-2.80248 0,0 4.15753,6.2747 2.98226,7.92566 -2.714635,0.0613 -5.1782413,4.45344 -8.7725132,5.26854 -3.5942719,0.81926 -7.0785891,-7.26008 -13.2049296,-1.97907 4.5828264,-0.43818 4.9801153,0.88051 5.4458665,1.6468 2.13996618,3.48053 -1.1628222,4.53444 -2.5974189,18.15851 -0.6483175,5.93828 -0.1089173,12.2244 0.5228031,17.3756 1.4179999,11.70523 10.1666548,24.99704 15.1260241,52.0261 0.608899,0.35823 6.042319,2.64154 6.042319,2.64154 z"
   id="path68" /><path
   fill="none"
   stroke="#010202"
   stroke-width="3.16328"
   stroke-miterlimit="5"
   d="m 167.07118,-141.63053 c -0.0166,0.29178 -7.72276,0 -13.69558,-0.28035 -5.99667,-0.28346 -7.84516,5.71503 -7.84516,5.71503 0,0 -4.13264,9.81544 -13.16136,21.63904 -13.35534,17.607149 -34.79857,-5.28516 -45.803369,-14.82025 -1.190829,-1.03834 -2.98226,-2.25943 -3.889904,-2.70176 -0.956398,-0.47037 -1.377545,-3.97477 -2.333943,-3.61758 -0.08091,-1.17229 1.685626,-9.8279 5.008123,-9.8279 0.275923,0 7.633548,7.3743 10.778665,7.92981 2.12337,0.36134 4.700048,2.18571 7.212398,-2.86375 2.4802,-5.06606 8.93019,-7.84882 7.39082,-16.28119 -1.5321,-8.43237 -7.85242,-8.12398 -9.83056,-11.06456 -0.20228,0.37277 -4.117078,5.20001 -4.117078,5.20001 l 1.190829,-6.06392 c 0,0 -2.722933,-6.40448 -1.247881,-9.10625 1.458455,-2.70487 8.80052,-4.9155 8.80052,-4.9155 0,0 3.38785,-1.74441 3.76024,-3.20432 3.64717,0.21493 10.90833,9.75106 13.8574,9.28381 1.91279,-0.3655 2.41485,0.8234 5.38155,-1.24498 8.86587,1.71119 30.16284,25.7519 30.22819,26.53897 0.0809,0.8151 -1.16697,1.10687 -6.30476,-0.42988 -0.51865,0.20663 -0.87549,0.42988 -0.87549,0.42988 -0.0145,1.47237 15.63431,8.13956 15.49635,9.68564 z"
   id="path70" /><path
   fill="#010202"
   d="m 125.05191,-170.57013 c 1.19083,0.15055 12.27758,2.99768 14.23083,15.98111 -0.43775,0.71438 -14.23083,-2.1421 -14.23083,-6.25393 0,-4.63723 4.75709,-5.63923 0,-9.72718"
   id="path72"
   style="stroke-width:1.03782" /><path
   fill="#e8423f"
   d="m 131.46247,-6.679387 c 8.6387,-0.048801 19.02838,0.3571893 21.58949,4.5790849 0.0487,1.75272003 0.64832,5.6942635 0.9398,8.4770181 -4.26333,-0.6032763 -22.52929,-12.0904456 -22.52929,-13.056103"
   id="path74"
   style="stroke-width:1.03782" /><path
   fill="none"
   stroke="#010202"
   stroke-width="3.16328"
   d="m -101.85505,40.038701 c 0,0 1.20328,-6.165671 13.444553,-4.85113 1.272777,-2.283313 -7.841011,-4.088988 -7.690601,-4.785715 0.174268,-0.714379 13.161363,-6.161518 22.055241,-4.136752 -1.87649,-1.427719 -3.217729,-2.023727 -5.766395,-2.251124 4.489469,-1.849285 10.976793,-1.459907 14.413393,-0.405991 -3.92206,-8.225739 -11.775519,-39.814157 -7.998681,-56.687202 25.511551,-9.665919 22.861228,-13.705066 22.589454,-18.556197 3.808995,-4.765987 -2.098474,-10.496592 -2.098474,-10.496592 l -2.269629,6.421103 c 0,0 -2.580823,1.736106 -5.766395,-0.531631 -3.184535,-2.251124 -1.126516,-10.834053 -2.480203,-15.684145 -1.361986,-4.818942 -6.83171,-9.795711 -6.83171,-9.795711 0,0 1.25203,3.849131 1.4875,4.993383 0.206424,1.155674 -0.514505,3.391222 -5.012272,3.147213 -4.489468,-0.238819 -4.3235,-4.956003 -6.815113,-7.199859 -2.520659,-2.267738 -7.581683,-3.525168 -7.581683,-3.525168 0,0 3.391996,7.385721 2.584971,8.485324 -2.289339,0.238819 -5.18654,6.850976 -7.025687,7.422063 -1.827737,0.543053 -7.212403,-7.896585 -11.442549,-2.230356 5.227,-0.600162 5.709349,2.255277 5.806855,3.23651 0.324678,3.612389 -8.464425,17.44517 -1.560107,21.566347 -6.644998,15.384064 0.174266,24.579614 0.174266,24.579614 0,0 -5.125334,25.5857671 -5.725934,55.470267 2.82874,2.05903 3.5092,5.815749 3.5092,5.815749 z M 25.685073,-195.53081 c 0.616161,2.61661 -5.392963,4.74936 -8.148053,10.05944 -12.366785,3.09841 -20.863374,13.02392 -23.3435773,19.52186 m 3.594272,20.30684 c 2.35468888,-1.17229 17.1923403,-31.62476 29.8309003,-37.14874 6.855568,-2.98938 6.308907,0.68115 11.39379,-2.61662 M 131.46247,-6.679387 c 8.6387,-0.048801 19.02838,0.3571893 21.58949,4.5790849 0.0487,1.75272003 0.64832,5.6942635 0.9398,8.4770181 -4.26333,-0.6032763 -22.52929,-12.0904456 -22.52929,-13.056103 z"
   id="path76" /><path
   fill="none"
   stroke="#010202"
   stroke-width="3.16328"
   stroke-miterlimit="17"
   d="m -34.170705,5.0839811 c 0,0 4.072472,-5.50009363 4.814146,-5.50009363 0.713669,0 8.258009,4.77013973 8.561939,9.22773873 0.567409,8.0679118 -13.286876,20.3608338 -13.801381,20.4459778 -2.852597,0.43818 -8.286015,-9.819594 -9.639702,-10.517359 -0.522803,-0.259585 -2.65862,-2.267737 -5.478023,8.083487 -0.846444,3.147213 14.371901,21.707563 20.357167,26.94807 C -9.6560069,71.05084 7.1960973,44.540949 9.2302581,42.496455 15.162622,36.606983 13.481146,31.366475 17.464409,29.131964 21.69455,26.730281 27.363438,29.099774 32.99602,28.674056 32.97943,20.881305 13.885696,16.797508 14.416797,15.759168 c 0.522804,-1.021729 6.183393,1.493135 7.378372,0.405991 0.429445,-0.442333 -23.9514397,-29.398556 -29.4865147,-28.615646 -2.1399659,0.681151 -3.2695943,2.6405016 -5.6605893,1.293772 -2.406554,-1.346728 -8.100337,-7.077333 -10.304617,-7.44283 0.142112,0.815098 -2.580822,2.923969 -2.580822,2.923969 0,0 -3.254034,1.123486 -5.88361,2.997691 -2.642023,1.885628 -2.455308,8.274542 0.15041,10.8901236 0.137962,0.1256394 -2.200131,6.8717425 -2.200131,6.8717425 z"
   id="path78" /><path
   fill="none"
   stroke="#010202"
   stroke-width="3.16328"
   stroke-miterlimit="7"
   d="m -47.720021,31.630214 c 4.189687,6.79802 13.873994,18.215621 18.363462,22.141588 C -9.6560069,71.05084 7.1960973,44.548217 9.2302581,42.504762 15.162622,36.61529 13.481146,31.374782 17.464409,29.140271 c 4.230141,-2.401683 13.590807,0.291774 15.531611,-0.457908 0.705369,5.84067 2.642022,7.560163 -12.56906,13.58358 C 24.43408,52.102149 3.1246638,73.639424 3.30723,75.40772 3.4897962,77.184321 2.8653368,73.079758 3.8787867,64.943316 -1.8544141,77.014033 -12.624782,92.808242 -30.785969,97.861849 c 0.47405,-0.932431 1.96881,-3.642501 3.602571,-7.747064 -24.89539,24.295105 -50.078114,15.413135 -50.078114,15.413135 0,0 1.758237,-1.5087 6.240445,-5.3215 -16.548173,-0.795369 -23.707672,-2.887623 -39.004853,-15.251153 9.46958,-1.314539 13.74433,-10.626384 14.813795,-19.404521 1.086061,-8.761524 -2.998857,-10.140441 -5.105635,-14.974958 -2.13996,-4.85113 -1.54351,-10.5537 -1.54351,-10.5537 0,0 1.20328,-6.165671 13.444549,-4.851131 1.268628,-2.283313 -7.841011,-4.088987 -7.690601,-4.785714 0.174268,-0.71438 13.161363,-6.161518 22.05524,-4.136752 -1.876489,-1.427719 -4.181387,-2.514863 -6.738352,-2.721492 13.292064,-5.476212 33.070413,8.103215 33.070413,8.103215 z"
   id="path80" /><path
   fill="none"
   stroke="#010202"
   stroke-width="3.16328"
   stroke-miterlimit="10"
   d="m -6.34492,81.255658 c -5.709343,6.749218 -14.007806,13.693644 -24.42134,16.596846 0.4699,-0.940737 1.965698,-3.634195 3.598421,-7.738758 -24.89539,24.287844 -50.078113,15.404834 -50.078113,15.404834 0,0 1.758236,-1.50871 6.240444,-5.3215 -16.548173,-0.802637 -23.707672,-2.895936 -39.004842,-15.258427 9.46958,-1.306233 13.74432,-10.619115 14.813785,-19.404521 1.086061,-8.761523 -2.994709,-10.140441 -5.105625,-14.974958 -2.13997,-4.851129 -1.54352,-10.545393 -1.54352,-10.545393 0,0 -0.19086,-2.368457 -1.66488,-3.88132 -15.93201,-13.80267 -25.76672,-56.216833 -24.89539,-61.453188 0.45434,-2.704879 1.08607,-3.727645 1.08607,-3.727645 0,0 2.03416,0.291773 4.13263,-0.2762 2.12337,-0.563819 2.76338,-1.103757 2.76338,-1.103757 0,0 6.03299,-0.547205 7.6263,-1.054954 1.5767,-0.506711 7.3628,-11.539087 4.3152,-18.933114 -0.84645,1.82125 -1.97297,6.055605 -4.43242,6.672381 -2.46361,0.628196 -2.18042,-1.670692 -6.05788,-3.265584 1.20328,-11.539086 -10.01625,-23.922344 -10.01625,-23.922344 0,0 3.76855,7.706569 1.27279,9.093793 -2.48436,1.39553 -6.75496,2.693457 -6.75496,2.693457 l -1.75823,17.619612 c 0,0 0.84332,-5.666228 0.84332,-16.613459 -1.5155,-3.472213 -4.76954,-9.353378 -9.05258,-14.228391 1.15452,3.528284 4.37226,8.761524 -0.68878,16.013299 0.19087,0.506711 0.57987,1.687305 4.16584,9.479018 -1.97296,-6.079488 -16.30545,-15.043488 -16.30545,-15.043488 0,0 3.08807,11.746754 -3.06316,18.462746 4.35565,1.930275 1.28003,40.5638389 12.22467,42.5398023 2.77999,5.7762924 5.86702,75.0326157 20.37376,93.4299467 1.82359,0.121486 16.17993,-0.08099 16.17993,-0.08099 l -2.75509,0.681152 c 0,0 18.647686,20.766826 25.486656,25.958526 9.408383,7.20402 49.673564,13.77464 77.206827,16.54909 27.545711,2.79106 41.160377,12.83285 42.059723,11.45394 0.514505,-1.10376 -1.892049,-7.17079 -4.995674,-9.45825 4.315201,0.12979 15.478708,39.91176 26.791588,49.451 11.329477,9.58805 38.671876,13.40083 40.357501,22.45413 1.361986,7.0898 -2.869193,26.03952 -14.020253,24.57962 -1.669028,-0.24298 -6.548525,-17.928 -9.352369,-19.2415 -2.82044,-1.29793 -10.308765,-2.85545 -16.937163,0.84417 1.118218,0.34057 7.92607,1.93027 10.583653,2.55535 2.301786,2.36015 -1.669029,7.0981 -3.047611,7.60896 -3.14408,1.10377 -5.632582,0.35719 -8.096188,0.86806 -6.702046,1.44434 -10.802525,10.67519 -10.802525,10.67519 0,0 12.188368,0.37276 12.707022,6.94442 6.564085,-3.68299 8.638701,-6.57062 13.209079,-3.79617 -14.830391,3.37461 -15.997363,6.99219 -18.501424,17.44101 5.575531,-2.99353 8.906326,-5.41079 10.559794,-4.31534 1.621313,1.11934 3.598422,2.43387 6.126341,1.45991 2.51236,-0.93244 8.581649,-4.68084 8.581649,-4.68084 0,0 -8.598246,4.35584 -9.433278,6.07637 -0.818436,1.75272 -1.224024,10.19651 -0.170119,11.26081 0.494796,-1.08818 1.685626,-5.27374 4.473909,-5.35473 2.771687,-0.1381 12.496448,2.04449 13.857396,0 1.345389,-2.06006 -1.005151,0.16199 1.944952,-3.26869 2.950105,-3.36631 15.997354,-8.49363 18.963024,-10.60251 3.45216,-6.97661 31.45948,-33.55192 30.21159,-52.46842 -17.76389,-3.3258 -17.11558,-7.21959 -19.20678,-10.30242 -12.9176,-3.00185 -33.193861,-37.96487 -34.887785,-40.3489 0,2.27189 48.226525,33.4377 59.840215,36.87772 13.33148,3.9104 27.359,-10.10722 16.89671,-25.52035 C 144.20268,139.26052 119.23468,125.72885 106.3088,121.07293 90.699383,109.22545 87.466094,109.19326 82.774351,105.85085 85.043981,90.503125 72.231154,71.893972 72.231154,71.893972 c 0,0 -5.996678,-6.830209 -19.198495,-6.895623 3.468757,2.725645 17.521167,13.936616 13.857396,16.645648 -15.932012,-27.855581 -39.060866,-18.5915 -39.060866,-18.5915 0,0 9.510039,1.784908 12.086711,7.446983 2.614017,5.678689 12.338777,27.354062 22.881976,37.41247 3.362952,3.22821 10.219556,8.35553 18.996219,11.47056 21.556295,7.64115 52.441095,26.5587 58.939835,35.01183 3.39511,4.39634 5.57553,10.4644 5.46972,12.6553 -0.11306,2.17429 -2.38269,4.18556 -5.59212,3.76399 -4.05172,-0.51917 -52.375753,-31.76701 -52.375753,-31.76701 0,0 -10.421832,-7.54459 -31.573578,-12.75187 C 42.813101,107.53088 2.2450267,88.313263 -6.34492,81.255658 Z"
   id="path82" /><path
   fill="#010202"
   d="M -8.7442132,-3.3816152 C 3.0717611,-0.28216654 5.2148392,12.003488 5.37251,13.39798 4.1163302,13.755169 -7.2255945,11.353485 -8.4444312,6.9613021 -9.5667983,2.8972344 -2.5120674,-0.16483398 -8.7442132,-3.3816152"
   id="path84"
   style="stroke-width:1.03782" /><path
   fill="none"
   stroke="#010202"
   stroke-width="3.16328"
   d="m 71.02269,-18.441717 c 0,0 -7.001829,12.4600953 -5.048578,20.020258 2.722933,10.688685 16.037817,19.031757 15.325187,33.681714"
   id="path86" /><path
   fill="#ffd730"
   d="m 170.81585,100.53765 c 0,0 -0.34023,-2.961345 0.72923,-4.396332 1.03732,-1.42772 1.52381,-5.378608 1.39415,-6.602813 -0.12137,-1.208629 0.57571,-1.533629 -6.12634,-2.725646 5.81826,-2.246969 15.4953,1.468215 17.45581,3.001846 1.92836,1.476521 3.06318,11.056255 5.7052,12.646995 -1.19913,2.27189 -5.99668,1.56582 -5.99668,1.56582 z"
   id="path88"
   style="stroke-width:1.03782" /><g
   id="g102"
   transform="matrix(1.0373079,0,0,1.0383413,6.5778618,8.2010815)">
			<g
   id="g100">
				<g
   id="g98">
					<defs
   id="defs91">
						<rect
   id="SVGID_5_"
   x="-176.306"
   y="-213.897"
   width="406.40201"
   height="492.69101" />
					</defs>
					<clipPath
   id="SVGID_6_">
						<use
   xlink:href="#SVGID_5_"
   overflow="visible"
   id="use93"
   x="0"
   y="0"
   width="100%"
   height="100%" />
					</clipPath>
					<path
   clip-path="url(#SVGID_6_)"
   fill="none"
   stroke="#010202"
   stroke-width="3.048"
   d="m 158.331,88.927 c 0,0 -0.328,-2.852 0.703,-4.234 1,-1.375 1.469,-5.18 1.344,-6.359 -0.117,-1.164 0.555,-1.477 -5.906,-2.625 5.609,-2.164 14.938,1.414 16.828,2.891 1.859,1.422 2.953,10.648 5.5,12.18 -1.156,2.188 -5.781,1.508 -5.781,1.508 z"
   id="path96" />
				</g>
			</g>
		</g><g
   id="g116"
   transform="matrix(1.0373079,0,0,1.0383413,6.5778618,8.2010815)">
			<g
   id="g114">
				<g
   id="g112">
					<defs
   id="defs105">
						<rect
   id="SVGID_7_"
   x="-176.306"
   y="-213.897"
   width="406.40201"
   height="492.69101" />
					</defs>
					<clipPath
   id="SVGID_8_">
						<use
   xlink:href="#SVGID_7_"
   overflow="visible"
   id="use107"
   x="0"
   y="0"
   width="100%"
   height="100%" />
					</clipPath>
					
						
				<line
   clip-path="url(#SVGID_8_)"
   fill="none"
   stroke="#010202"
   stroke-width="3.048"
   stroke-miterlimit="7"
   x1="-174.548"
   y1="-209.881"
   x2="201.377"
   y2="180.66901"
   id="line110"
   transform="matrix(1.0005932,0,0,1.0076661,-0.13545415,-0.8870295)" /></g>
			</g>
		</g><g
   id="g130"
   transform="matrix(1.0373079,0,0,1.0383413,6.5778618,8.2010815)">
			<g
   id="g128">
				<g
   id="g126">
					<defs
   id="defs119">
						<rect
   id="SVGID_9_"
   x="-176.306"
   y="-213.897"
   width="406.40201"
   height="492.69101" />
					</defs>
					<clipPath
   id="SVGID_10_">
						<use
   xlink:href="#SVGID_9_"
   overflow="visible"
   id="use121"
   x="0"
   y="0"
   width="100%"
   height="100%" />
					</clipPath>
					<path
   clip-path="url(#SVGID_10_)"
   fill="none"
   stroke="#010202"
   stroke-width="3.048"
   d="M 26.772,-212.377 H 228.588 V 84.271 c 0,106.586 -90.297,193 -201.68,193 -111.406,0 -201.695,-86.416 -201.695,-193 v -296.648 z"
   id="path124"
   style="stroke:none" />
				</g>
			</g>
		</g>
</svg>
