{
  "last_updated": "2023-08-20",
  "summary": "Con 54 punti su 100 per il DigiPartIndex, il Canton Soletta si colloca al 2° posto, nella fascia alta dei cantoni, ma solo nella fascia media della scala. Rispetto all'anno scorso, il punteggio è migliorato di 22 punti, il che significa che il Cantone è salito di 11 posizioni.\r\n \r\nHa ottenuto un punteggio di 57 (+ 3), per la dimensione della formazione dell'opinione (discutere, imparare, monitorare), un punteggio di 52 (+ 38) per la dimensione della partecipazione (consultare, esprimere opinioni) e un punteggio di 52 (+12) per la dimensione del processo decisionale (identificazione e voto; si noti che c'è stato un cambiamento nello schema di codifica per l'indicatore 'eVoting' in questa dimensione, motivo per cui i punteggi qui riportati per l'anno precedente non possono essere direttamente confrontati con quelli del profilo dell'anno precedente).\r\n \r\nEsistono inoltre notevoli differenze tra i singoli strumenti. L'intervallo tra il valore più basso e quello più alto è molto alto, pari a  55 punti.",
  "tools": {
    "1": {
      "text": null
    },
    "2": {
      "text": null
    },
    "3": {
      "text": null
    },
    "4": {
      "text": null
    },
    "5": {
      "text": null
    },
    "6": {
      "text": null
    },
    "7": {
      "text": null
    }
  }
}
