{
  "last_updated": "2022-08-17",
  "summary": "Der Kanton Bern liegt mit 44 von 100 möglichen Punkten für den\r\nDigiPartIndex schweizweit auf Rang 5, also in der Spitzengruppe der\r\nKantone, im mittleren Bereich der Skala. Im Vergleich zu letztem Jahr\r\nhat sich die Punktzahl um 6 Punkte verbessert, wodurch sich der Kanton\r\num 5 Plätze verbessert hat.\r\n\r\nIn den einzelnen Dimensionen Meinungsbildung, Mitwirkung und\r\nEntscheidung ist der Kanton relativ ausgeglichen. Für die Dimension\r\nMeinungsbildung (Diskutieren, Lernen, Monitoring) erzielt er einen\r\nWert von 48 (+5), für die Dimension Mitwirkung (Konsultieren,\r\nMeinung äussern) 50 (+32) und für die Dimension Entscheidung\r\n(Identifizierung, Abstimmen und Wählen) einen Wert von 35 (+/-0).\r\n\r\nFür die einzelnen Tools zeichnen sich jedoch erhebliche Unterschiede ab.\r\nDie Spannbreite zwischen dem niedrigsten und höchsten Wert ist mit 50\r\nZählern hoch.",
  "tools": {
    "1": {
      "text": null
    },
    "2": {
      "text": null
    },
    "3": {
      "text": null
    },
    "4": {
      "text": null
    },
    "5": {
      "text": null
    },
    "6": {
      "text": null
    },
    "7": {
      "text": null
    }
  }
}
