{
  "last_updated": "2023-07-27",
  "summary": "Con 37 punti su 100 per il DigiPartIndex, il Canton Lucerna si colloca al 10° posto, nella fascia intermedia dei cantoni, ma solo nella fascia bassa della scala. Rispetto all'anno scorso, il punteggio è migliorato di 3 punti, il che significa che il Cantone è sceso di 1 posizioni.\r\n \r\nHa ottenuto un punteggio di 60 (+/- 0), per la dimensione della formazione dell'opinione (discutere, imparare, monitorare), un punteggio di 55 (+  3) per la dimensione della partecipazione (consultare, esprimere opinioni) e un punteggio di 15 (+ 2) per la dimensione del processo decisionale (identificazione e voto; si noti che c'è stato un cambiamento nello schema di codifica per l'indicatore 'eVoting' in questa dimensione, motivo per cui i punteggi qui riportati per l'anno precedente non possono essere direttamente confrontati con quelli del profilo dell'anno precedente).\r\n \r\nEsistono inoltre notevoli differenze tra i singoli strumenti. L'intervallo tra il valore più basso e quello più alto è molto alto, pari a  75 punti.",
  "tools": {
    "1": {
      "text": null
    },
    "2": {
      "text": null
    },
    "3": {
      "text": null
    },
    "4": {
      "text": null
    },
    "5": {
      "text": null
    },
    "6": {
      "text": null
    },
    "7": {
      "text": null
    }
  }
}
