{
  "last_updated": "2022-08-24",
  "summary": null,
  "tools": {
    "1": {
      "text": "The canton has various channels on social media ([Twitter](https://twitter.com/Kanton_Thurgau), [Facebook](https://www.facebook.com/kt.thurgau), [YouTube](https://www.youtube.com/channel/UCkZIaIENNy-WacMBoTYSvNQ)) that are used regularly. Therefore, 25 points are assigned.\r\n\r\nBonus and Malus:  \r\nUse: There is some interaction from time to time. For this 5 points are assigned.\r\n\r\nIn total, the canton receives 30 points."
    },
    "2": {
      "text": "In the canton, voters have access to [VoteInfo](https://www.bfs.admin.ch/bfs/fr/home/statistiques/politique/votations/voteinfo.html) and smartvote. Therefore, 50 points are assigned.\r\n\r\nIn total, the canton receives 50 points."
    },
    "3": {
      "text": "The canton provides a full [open data portal](https://ogd.tg.ch/). Therefore, 75 points are assigned.\r\n\r\nIn total, the canton receives 75 points."
    },
    "4": {
      "text": "A proprietary software was used for some consultations. However, this year material could only be sent in by [e-mail](https://vernehmlassungen.tg.ch/). Therefore, 75 points are assigned.\r\n\r\nIn total, the canton receives 75 points."
    },
    "5": {
      "text": "There is one [non-partisan private e-demand platform](https://www.petitio.ch/petitions/province/thurgau-7ER03?state=all) that is being used occasionally. Therefore, 25 points are assigned.\r\n\r\nIn total, the canton receives 25 points."
    },
    "6": {
      "text": "The canton has neither an e-government portal nor an e-ID. Therefore, 0 points are assigned.\r\n\r\nIn total, the canton receives 0 points."
    },
    "7": {
      "text": "There is currently no [e-voting](https://www.bk.admin.ch/bk/de/home/politische-rechte/e-voting/chronik.html) available in the canton. In the past, it was available to Swiss citizens living abroad. Therefore, 50 points are assigned.\r\n\r\nBonus and Malus:  \r\nUse: For this -5 points are assigned.  \r\nInclusiveness: For this 5 points are assigned.\r\n\r\nIn total, the canton receives 50 points."
    }
  }
}
