{
  "last_updated": "2022-08-18",
  "summary": "Der Kanton Obwalden liegt mit 35 von 100 möglichen Punkten für den\r\nDigiPartIndex schweizweit auf Rang 11, also im Mittelfeld der Kantone,\r\nim tiefen Bereich der Skala. Im Vergleich zu letztem Jahr hat sich die\r\nPunktzahl um 22 Punkt verbessert, wodurch der Kanton 13 Plätze\r\naufgestiegen ist.\r\n\r\nIn den einzelnen Dimensionen Meinungsbildung, Mitwirkung und\r\nEntscheidung ist der Kanton relativ ausgeglichen. Für die Dimension\r\nMeinungsbildung (Diskutieren, Lernen, Monitoring) erzielt er einen\r\nWert von 42 (+9), für die Dimension Mitwirkung (Konsultieren,\r\nMeinung äussern) 38 (+35) und für die Dimension Entscheidung\r\n(Identifizierung, Abstimmen und Wählen) einen Wert von 28 (+3).\r\n\r\nFür die einzelnen Tools zeichnen sich jedoch grosse Unterschiede ab.\r\nDie Spannbreite zwischen dem niedrigsten und höchsten Wert ist mit 75\r\nZählern sehr hoch.",
  "tools": {
    "1": {
      "text": null
    },
    "2": {
      "text": null
    },
    "3": {
      "text": null
    },
    "4": {
      "text": null
    },
    "5": {
      "text": null
    },
    "6": {
      "text": null
    },
    "7": {
      "text": null
    }
  }
}
