<?xml version="1.0" encoding="UTF-8"?>
<svg width="807.36" height="188" version="1.1" viewBox="0 0 807.36 188" xml:space="preserve" xmlns="http://www.w3.org/2000/svg">
<style type="text/css">
	.st0{enable-background:new    ;}
	.st1{fill:#655E7A;}
	.st2{fill:none;}
</style>
<polygon class="st1" transform="translate(-4.1,-3.5)" points="4.1 172.2 4.1 191.5 192.2 191.5 192.2 3.5 189.6 3.5 6.7 3.5 4.1 3.5 4.1 22.8 9.2 22.8 9.2 8.6 187.1 8.6 187.1 186.4 9.2 186.4 9.2 172.2"/><g transform="translate(-4.1,-3.5)">
		<path class="st2" d="m31.2 28.7c-0.3 0-0.6 0.2-0.7 0.5s-0.2 0.7-0.2 1.2c0 0.7 0.1 1.2 0.2 1.4s0.3 0.4 0.6 0.4 0.5-0.1 0.6-0.4 0.2-0.7 0.2-1.4c0-0.5-0.1-0.9-0.2-1.2 0-0.3-0.2-0.5-0.5-0.5z"/>
		<path class="st2" d="m48 57.7c-0.1-0.3-0.3-0.5-0.7-0.5-0.3 0-0.6 0.2-0.7 0.5 0 0.1 0 0.2-0.1 0.2 0.5 0 1 0 1.4-0.1 0.1 0.1 0.1 0 0.1-0.1z"/>
		<path class="st2" d="m31.2 38.2c-0.3 0-0.6 0.2-0.7 0.5s-0.2 0.7-0.2 1.2c0 0.7 0.1 1.2 0.2 1.4s0.3 0.4 0.6 0.4 0.5-0.1 0.6-0.4 0.2-0.7 0.2-1.4c0-0.5-0.1-0.9-0.2-1.2 0-0.3-0.2-0.5-0.5-0.5z"/>
		<path class="st2" d="m47.3 32.6c-0.4 0-0.8-0.2-1-0.5-0.1-0.2-0.2-0.4-0.2-0.6h-0.7-4.5v26.6h4.5 0.8c0.1-0.2 0.1-0.4 0.2-0.5 0.2-0.4 0.5-0.6 1-0.6 0.4 0 0.7 0.2 0.9 0.5 0.1 0.1 0.1 0.3 0.2 0.5 0.6 0 1.2-0.1 1.8-0.2 0-0.1 0.1-0.3 0.1-0.4 0.2-0.4 0.5-0.6 1-0.6 0.4 0 0.7 0.2 0.9 0.5 1.9-0.5 3.4-1.2 4.8-2.2 3-2.4 4.7-6.2 4.7-10.4 0-4.8-2.2-8.9-5.9-11.2-1.9-1.1-4.2-1.8-7.3-2-0.1 0.2-0.1 0.4-0.2 0.6-0.4 0.3-0.7 0.5-1.1 0.5z"/>
		<path class="st2" d="m46.7 31.9c0.1 0.2 0.3 0.4 0.6 0.4s0.5-0.1 0.6-0.4c0-0.1 0.1-0.2 0.1-0.4-0.5 0-1 0-1.5-0.1 0.1 0.2 0.1 0.4 0.2 0.5z"/>
		<path class="st2" d="m56.1 30.2c0-0.4 0-0.8-0.1-1-0.1-0.3-0.3-0.5-0.7-0.5-0.3 0-0.6 0.2-0.7 0.5 0 0.1-0.1 0.3-0.1 0.4 0.6 0.2 1.1 0.4 1.6 0.6z"/>
		<path class="st2" d="m11 57.2c-0.3 0-0.6 0.2-0.7 0.5s-0.2 0.7-0.2 1.2c0 0.7 0.1 1.2 0.2 1.4s0.3 0.4 0.6 0.4 0.5-0.1 0.6-0.4 0.2-0.7 0.2-1.4c0-0.5-0.1-0.9-0.2-1.2 0.1-0.4-0.1-0.5-0.5-0.5z"/>
		<path class="st2" d="m31.2 57.2c-0.3 0-0.6 0.2-0.7 0.5s-0.2 0.7-0.2 1.2c0 0.7 0.1 1.2 0.2 1.4s0.3 0.4 0.6 0.4 0.5-0.1 0.6-0.4 0.2-0.7 0.2-1.4c0-0.5-0.1-0.9-0.2-1.2 0-0.4-0.2-0.5-0.5-0.5z"/>
		<path class="st2" d="m15.1 43c-0.3 0-0.6 0.2-0.7 0.5s-0.2 0.7-0.2 1.2c0 0.7 0.1 1.2 0.2 1.4s0.3 0.4 0.6 0.4 0.5-0.1 0.6-0.4 0.2-0.7 0.2-1.4c0-0.5-0.1-0.9-0.2-1.2 0-0.4-0.2-0.5-0.5-0.5z"/>
		<path class="st2" d="m31.2 43c-0.3 0-0.6 0.2-0.7 0.5s-0.2 0.7-0.2 1.2c0 0.7 0.1 1.2 0.2 1.4s0.3 0.4 0.6 0.4 0.5-0.1 0.6-0.4 0.2-0.7 0.2-1.4c0-0.5-0.1-0.9-0.2-1.2 0-0.4-0.2-0.5-0.5-0.5z"/>
		<path class="st2" d="m27.1 33.5c-0.3 0-0.6 0.2-0.7 0.5s-0.2 0.7-0.2 1.2c0 0.7 0.1 1.2 0.2 1.4s0.3 0.4 0.6 0.4 0.5-0.1 0.6-0.4 0.2-0.7 0.2-1.4c0-0.5-0.1-0.9-0.2-1.2 0.1-0.4-0.1-0.5-0.5-0.5z"/>
		<path class="st2" d="m51.1 60.6c0.1 0 0.1 0.1 0.2 0.1 0.2 0 0.3-0.1 0.4-0.2-0.2 0-0.4 0-0.6 0.1z"/>
		<path class="st2" d="m51.3 57.2c-0.3 0-0.6 0.2-0.7 0.5 0.4-0.1 0.8-0.1 1.2-0.2-0.1-0.2-0.2-0.3-0.5-0.3z"/>
		<path d="m57.6 31c-0.3-0.2-0.7-0.4-1-0.5 0 0.7-0.1 1.2-0.3 1.6-0.2 0.3-0.5 0.5-1 0.5-0.4 0-0.8-0.2-1-0.5-0.2-0.4-0.3-0.9-0.3-1.6 0-0.4 0-0.7 0.1-0.9-1.8-0.5-3.8-0.9-6.3-1 0.2 0.1 0.3 0.2 0.4 0.4 0.2 0.3 0.3 0.9 0.3 1.6 0 0.4 0 0.7-0.1 1 3.2 0.2 5.4 0.9 7.3 2 3.7 2.2 5.9 6.3 5.9 11.2 0 4.3-1.7 8-4.7 10.4-1.3 1-2.8 1.8-4.8 2.2 0.2 0.3 0.3 0.9 0.3 1.6 0 0.6-0.1 1.1-0.3 1.4 8.6-1.8 12.7-7.8 12.7-15.5 0.2-6.2-2.4-11-7.2-13.9z"/>
		<path d="m46.6 58c-0.1 0.3-0.1 0.6-0.1 1 0 0.7 0.1 1.2 0.2 1.4s0.3 0.4 0.6 0.4 0.5-0.1 0.6-0.4 0.2-0.7 0.2-1.4c0-0.4-0.1-0.7-0.1-1h-1.4z"/>
		<path d="m51.9 60.2c0.1-0.3 0.2-0.7 0.2-1.4 0-0.5-0.1-0.9-0.2-1.2 0-0.1-0.1-0.1-0.1-0.2-0.4 0.1-0.8 0.2-1.2 0.2-0.1 0.3-0.2 0.7-0.2 1.2 0 0.7 0.1 1.2 0.2 1.4s0.2 0.3 0.4 0.3 0.4-0.1 0.6-0.1 0.3-0.1 0.3-0.2z"/>
		<path d="m54.5 30.4c0 0.7 0.1 1.2 0.2 1.4s0.3 0.4 0.6 0.4 0.5-0.1 0.6-0.4 0.2-0.7 0.2-1.4v-0.1c-0.5-0.2-1-0.4-1.6-0.6v0.7z"/>
		<path d="m39.2 33.5c-0.3 0-0.6 0.2-0.7 0.5s-0.2 0.7-0.2 1.2c0 0.7 0.1 1.2 0.2 1.4s0.3 0.4 0.6 0.4 0.5-0.1 0.6-0.4 0.2-0.7 0.2-1.4c0-0.5-0.1-0.9-0.2-1.2 0.1-0.4-0.1-0.5-0.5-0.5z"/>
		<path d="m50 58.8c0-0.4 0.1-0.8 0.2-1.1-0.6 0.1-1.2 0.1-1.8 0.2 0.1 0.3 0.2 0.7 0.2 1.1 0 0.7-0.1 1.2-0.3 1.6l-0.3 0.3c0.9 0 1.8-0.1 2.6-0.2-0.1-0.1-0.2-0.1-0.2-0.2-0.3-0.4-0.4-0.9-0.4-1.7z"/>
		<path d="m39.2 47.7c-0.3 0-0.6 0.2-0.7 0.5s-0.2 0.7-0.2 1.2c0 0.7 0.1 1.2 0.2 1.4s0.3 0.4 0.6 0.4 0.5-0.1 0.6-0.4 0.2-0.7 0.2-1.4c0-0.5-0.1-0.9-0.2-1.2 0.1-0.3-0.1-0.5-0.5-0.5z"/>
		<path d="m46 59c0-0.4 0.1-0.7 0.1-1h-0.8-4.5v-26.6h4.5 0.7c-0.1-0.3-0.1-0.6-0.1-1 0-0.6 0.1-1.1 0.3-1.5 0.1-0.3 0.4-0.4 0.6-0.5h-1.7-5.6c0.3 0.1 0.5 0.2 0.7 0.4 0.2 0.3 0.3 0.9 0.3 1.6s-0.1 1.2-0.3 1.6c-0.2 0.3-0.5 0.5-1 0.5-0.4 0-0.8-0.2-1-0.5-0.2-0.4-0.3-0.9-0.3-1.6 0-0.6 0.1-1.1 0.3-1.5 0.2-0.3 0.4-0.4 0.7-0.5h-1.4v32.5h8.8 0.4c-0.1-0.1-0.3-0.2-0.4-0.4-0.2-0.3-0.3-0.8-0.3-1.5zm-5.8 1.9h-1.8v-0.4h0.7v-3.2l-0.8 0.4v-0.4l0.8-0.4h0.4v3.7h0.7v0.3zm0-5.1c-0.2 0.3-0.5 0.5-1 0.5-0.4 0-0.8-0.2-1-0.5-0.2-0.4-0.3-0.9-0.3-1.6 0-0.6 0.1-1.1 0.3-1.5s0.5-0.6 1-0.6c0.4 0 0.7 0.2 0.9 0.5s0.3 0.9 0.3 1.6c0.1 0.7 0 1.2-0.2 1.6zm0-4.8c-0.2 0.3-0.5 0.5-1 0.5-0.4 0-0.8-0.2-1-0.5-0.2-0.4-0.3-0.9-0.3-1.6 0-0.6 0.1-1.1 0.3-1.5s0.5-0.6 1-0.6c0.4 0 0.7 0.2 0.9 0.5s0.3 0.9 0.3 1.6c0.1 0.8 0 1.3-0.2 1.6zm0-4.6v0.4h-1.8v-0.4h0.7v-3.2l-0.8 0.4v-0.4l0.8-0.4h0.4v3.7zm0-4.9c-0.2 0.3-0.5 0.5-1 0.5-0.4 0-0.8-0.2-1-0.5-0.2-0.4-0.3-0.9-0.3-1.6 0-0.6 0.1-1.1 0.3-1.5s0.5-0.6 1-0.6c0.4 0 0.7 0.2 0.9 0.5s0.3 0.9 0.3 1.6c0.1 0.8 0 1.3-0.2 1.6zm0-4.7c-0.2 0.3-0.5 0.5-1 0.5-0.4 0-0.8-0.2-1-0.5-0.2-0.4-0.3-0.9-0.3-1.6 0-0.6 0.1-1.1 0.3-1.5s0.5-0.6 1-0.6c0.4 0 0.7 0.2 0.9 0.5s0.3 0.9 0.3 1.6c0.1 0.7 0 1.3-0.2 1.6z"/>
		<path d="m39.2 52.4c-0.3 0-0.6 0.2-0.7 0.5s-0.2 0.7-0.2 1.2c0 0.7 0.1 1.2 0.2 1.4s0.3 0.4 0.6 0.4 0.5-0.1 0.6-0.4 0.2-0.7 0.2-1.4c0-0.5-0.1-0.9-0.2-1.2 0.1-0.3-0.1-0.5-0.5-0.5z"/>
		<path d="m39.2 38.2c-0.3 0-0.6 0.2-0.7 0.5s-0.2 0.7-0.2 1.2c0 0.7 0.1 1.2 0.2 1.4s0.3 0.4 0.6 0.4 0.5-0.1 0.6-0.4 0.2-0.7 0.2-1.4c0-0.5-0.1-0.9-0.2-1.2 0.1-0.3-0.1-0.5-0.5-0.5z"/>
		<path d="m38.4 30.4c0 0.7 0.1 1.2 0.2 1.4s0.3 0.4 0.6 0.4 0.5-0.1 0.6-0.4 0.2-0.7 0.2-1.4c0-0.5-0.1-0.9-0.2-1.2s-0.3-0.5-0.7-0.5c-0.3 0-0.6 0.2-0.7 0.5 0.1 0.3 0 0.7 0 1.2z"/>
		<path d="m46.5 30.4c0 0.4 0 0.7 0.1 1 0.5 0 1 0 1.5 0.1 0.1-0.3 0.1-0.6 0.1-1.1s-0.1-0.9-0.2-1.2-0.3-0.5-0.7-0.5c-0.3 0-0.6 0.2-0.7 0.5s-0.1 0.7-0.1 1.2z"/>
		<rect x="72.9" y="28.4" width="3.3" height="32.5"/>
		<path d="m96.6 48.9h18.2c-1.2 5.1-6.7 9.6-13.2 9.6-8 0-14.3-6.1-14.3-13.8 0-7.8 6.2-13.9 14.2-13.9 5 0 9.2 2.3 11.5 6.2h3.7c-2.2-5.5-8.3-9.2-15.4-9.2-9.7 0-17.2 7.3-17.2 16.8s7.7 16.9 17.7 16.9c9.5 0 16.5-7.4 16.9-15.6h-22.1z"/>
		<rect x="126.5" y="28.4" width="3.3" height="32.5"/>
		<polygon points="23.4 41.6 23.4 38 23 38 22.2 38.4 22.2 38.8 22.9 38.4 22.9 41.6 22.2 41.6 22.2 42 24.1 42 24.1 41.6"/>
		<polygon points="23.4 55.8 23.4 52.2 23 52.2 22.2 52.6 22.2 53 22.9 52.6 22.9 55.8 22.2 55.8 22.2 56.2 24.1 56.2 24.1 55.8"/>
		<polygon points="19.4 32.2 19.4 28.5 19 28.5 18.2 28.9 18.2 29.3 18.9 28.9 18.9 32.2 18.2 32.2 18.2 32.5 20 32.5 20 32.2"/>
		<polygon points="19.4 46.4 19.4 42.7 19 42.7 18.2 43.1 18.2 43.5 18.9 43.1 18.9 46.4 18.2 46.4 18.2 46.7 20 46.7 20 46.4"/>
		<path d="m15.1 42.6c-0.4 0-0.8 0.2-1 0.6s-0.3 0.9-0.3 1.5c0 0.7 0.1 1.2 0.3 1.6s0.5 0.5 1 0.5c0.4 0 0.7-0.2 1-0.5 0.2-0.3 0.3-0.9 0.3-1.6s-0.1-1.3-0.3-1.6c-0.3-0.3-0.6-0.5-1-0.5zm0.6 3.4c-0.1 0.3-0.3 0.4-0.6 0.4s-0.5-0.1-0.6-0.4c-0.1-0.2-0.2-0.7-0.2-1.4 0-0.5 0.1-0.9 0.2-1.2s0.3-0.5 0.7-0.5c0.3 0 0.6 0.2 0.7 0.5s0.2 0.7 0.2 1.2c-0.2 0.7-0.3 1.2-0.4 1.4z"/>
		<polygon points="10.9 28.9 10.9 32.2 10.1 32.2 10.1 32.5 12 32.5 12 32.2 11.3 32.2 11.3 28.5 10.9 28.5 10.1 28.9 10.1 29.3"/>
		<path d="m11 56.8c-0.4 0-0.8 0.2-1 0.6s-0.3 0.9-0.3 1.5c0 0.7 0.1 1.2 0.3 1.6s0.5 0.5 1 0.5c0.4 0 0.7-0.2 1-0.5 0.2-0.3 0.3-0.9 0.3-1.6s-0.1-1.3-0.3-1.6-0.5-0.5-1-0.5zm0.7 3.4c-0.1 0.3-0.3 0.4-0.6 0.4s-0.5-0.1-0.6-0.4c-0.1-0.2-0.2-0.7-0.2-1.4 0-0.5 0.1-0.9 0.2-1.2s0.3-0.5 0.7-0.5c0.3 0 0.6 0.2 0.7 0.5s0.2 0.7 0.2 1.2c-0.2 0.7-0.3 1.2-0.4 1.4z"/>
		<path d="m27.2 33.1c-0.4 0-0.8 0.2-1 0.6s-0.3 0.9-0.3 1.5c0 0.7 0.1 1.2 0.3 1.6s0.5 0.5 1 0.5c0.4 0 0.7-0.2 1-0.5 0.2-0.3 0.3-0.9 0.3-1.6s-0.1-1.3-0.3-1.6c-0.3-0.3-0.6-0.5-1-0.5zm0.6 3.4c-0.1 0.3-0.3 0.4-0.6 0.4s-0.5-0.1-0.6-0.4c-0.1-0.2-0.2-0.7-0.2-1.4 0-0.5 0.1-0.9 0.2-1.2s0.3-0.5 0.7-0.5c0.3 0 0.6 0.2 0.7 0.5s0.2 0.7 0.2 1.2c-0.2 0.7-0.3 1.2-0.4 1.4z"/>
		<polygon points="27.4 46.4 27.4 42.7 27.1 42.7 26.2 43.1 26.2 43.5 27 43.1 27 46.4 26.2 46.4 26.2 46.7 28.1 46.7 28.1 46.4"/>
		<polygon points="27.4 55.8 27.4 52.2 27.1 52.2 26.2 52.6 26.2 53 27 52.6 27 55.8 26.2 55.8 26.2 56.2 28.1 56.2 28.1 55.8"/>
		<polygon points="31.4 33.2 31.1 33.2 30.2 33.7 30.2 34.1 31 33.7 31 36.9 30.3 36.9 30.3 37.3 32.1 37.3 32.1 36.9 31.4 36.9"/>
		<path d="m31.2 37.9c-0.4 0-0.8 0.2-1 0.6s-0.3 0.9-0.3 1.5c0 0.7 0.1 1.2 0.3 1.6s0.5 0.5 1 0.5c0.4 0 0.7-0.2 1-0.5 0.2-0.3 0.3-0.9 0.3-1.6s-0.1-1.3-0.3-1.6c-0.3-0.4-0.6-0.5-1-0.5zm0.6 3.4c-0.1 0.3-0.3 0.4-0.6 0.4s-0.5-0.1-0.6-0.4c-0.1-0.2-0.2-0.7-0.2-1.4 0-0.5 0.1-0.9 0.2-1.2s0.3-0.5 0.7-0.5c0.3 0 0.6 0.2 0.7 0.5s0.2 0.7 0.2 1.2c-0.2 0.6-0.3 1.1-0.4 1.4z"/>
		<path d="m31.2 42.6c-0.4 0-0.8 0.2-1 0.6s-0.3 0.9-0.3 1.5c0 0.7 0.1 1.2 0.3 1.6s0.5 0.5 1 0.5c0.4 0 0.7-0.2 1-0.5 0.2-0.3 0.3-0.9 0.3-1.6s-0.1-1.3-0.3-1.6c-0.3-0.3-0.6-0.5-1-0.5zm0.6 3.4c-0.1 0.3-0.3 0.4-0.6 0.4s-0.5-0.1-0.6-0.4c-0.1-0.2-0.2-0.7-0.2-1.4 0-0.5 0.1-0.9 0.2-1.2s0.3-0.5 0.7-0.5c0.3 0 0.6 0.2 0.7 0.5s0.2 0.7 0.2 1.2c-0.2 0.7-0.3 1.2-0.4 1.4z"/>
		<polygon points="31.4 47.4 31.1 47.4 30.2 47.9 30.2 48.3 31 47.9 31 51.1 30.3 51.1 30.3 51.5 32.1 51.5 32.1 51.1 31.4 51.1"/>
		<path d="m31.2 56.8c-0.4 0-0.8 0.2-1 0.6s-0.3 0.9-0.3 1.5c0 0.7 0.1 1.2 0.3 1.6s0.5 0.5 1 0.5c0.4 0 0.7-0.2 1-0.5 0.2-0.3 0.3-0.9 0.3-1.6s-0.1-1.3-0.3-1.6c-0.3-0.3-0.6-0.5-1-0.5zm0.6 3.4c-0.1 0.3-0.3 0.4-0.6 0.4s-0.5-0.1-0.6-0.4c-0.1-0.2-0.2-0.7-0.2-1.4 0-0.5 0.1-0.9 0.2-1.2s0.3-0.5 0.7-0.5c0.3 0 0.6 0.2 0.7 0.5s0.2 0.7 0.2 1.2c-0.2 0.7-0.3 1.2-0.4 1.4z"/>
		<polygon points="35 28.9 35 32.2 34.3 32.2 34.3 32.5 36.1 32.5 36.1 32.2 35.5 32.2 35.5 28.5 35.1 28.5 34.3 28.9 34.3 29.3"/>
		<path d="m35.2 33.1c-0.4 0-0.8 0.2-1 0.6s-0.3 0.9-0.3 1.5c0 0.7 0.1 1.2 0.3 1.6s0.5 0.5 1 0.5c0.4 0 0.7-0.2 1-0.5 0.2-0.3 0.3-0.9 0.3-1.6s-0.1-1.3-0.3-1.6c-0.3-0.3-0.6-0.5-1-0.5zm0.6 3.4c-0.1 0.3-0.3 0.4-0.6 0.4s-0.5-0.1-0.6-0.4c-0.1-0.2-0.2-0.7-0.2-1.4 0-0.5 0.1-0.9 0.2-1.2s0.3-0.5 0.7-0.5c0.3 0 0.6 0.2 0.7 0.5s0.2 0.7 0.2 1.2c-0.2 0.7-0.2 1.2-0.4 1.4z"/>
		<path d="m35.2 37.9c-0.4 0-0.8 0.2-1 0.6s-0.3 0.9-0.3 1.5c0 0.7 0.1 1.2 0.3 1.6s0.5 0.5 1 0.5c0.4 0 0.7-0.2 1-0.5 0.2-0.3 0.3-0.9 0.3-1.6s-0.1-1.3-0.3-1.6c-0.3-0.4-0.6-0.5-1-0.5zm0.6 3.4c-0.1 0.3-0.3 0.4-0.6 0.4s-0.5-0.1-0.6-0.4c-0.1-0.2-0.2-0.7-0.2-1.4 0-0.5 0.1-0.9 0.2-1.2s0.3-0.5 0.7-0.5c0.3 0 0.6 0.2 0.7 0.5s0.2 0.7 0.2 1.2c-0.2 0.6-0.2 1.1-0.4 1.4z"/>
		<polygon points="35.5 42.7 35.1 42.7 34.3 43.1 34.3 43.5 35 43.1 35 46.4 34.3 46.4 34.3 46.7 36.1 46.7 36.1 46.4 35.5 46.4"/>
		<path d="m35.2 47.3c-0.4 0-0.8 0.2-1 0.6s-0.3 0.9-0.3 1.5c0 0.7 0.1 1.2 0.3 1.6s0.5 0.5 1 0.5c0.4 0 0.7-0.2 1-0.5 0.2-0.3 0.3-0.9 0.3-1.6s-0.1-1.3-0.3-1.6c-0.3-0.3-0.6-0.5-1-0.5zm0.6 3.5c-0.1 0.3-0.3 0.4-0.6 0.4s-0.5-0.1-0.6-0.4c-0.1-0.2-0.2-0.7-0.2-1.4 0-0.5 0.1-0.9 0.2-1.2s0.3-0.5 0.7-0.5c0.3 0 0.6 0.2 0.7 0.5s0.2 0.7 0.2 1.2c-0.2 0.6-0.2 1.1-0.4 1.4z"/>
		<path d="m35.2 52.1c-0.4 0-0.8 0.2-1 0.6s-0.3 0.9-0.3 1.5c0 0.7 0.1 1.2 0.3 1.6s0.5 0.5 1 0.5c0.4 0 0.7-0.2 1-0.5 0.2-0.3 0.3-0.9 0.3-1.6s-0.1-1.3-0.3-1.6c-0.3-0.4-0.6-0.5-1-0.5zm0.6 3.4c-0.1 0.3-0.3 0.4-0.6 0.4s-0.5-0.1-0.6-0.4c-0.1-0.2-0.2-0.7-0.2-1.4 0-0.5 0.1-0.9 0.2-1.2s0.3-0.5 0.7-0.5c0.3 0 0.6 0.2 0.7 0.5s0.2 0.7 0.2 1.2c-0.2 0.7-0.2 1.1-0.4 1.4z"/>
		<polygon points="35.5 60.6 35.5 56.9 35.1 56.9 34.3 57.3 34.3 57.8 35 57.4 35 60.6 34.3 60.6 34.3 60.9 36.1 60.9 36.1 60.6"/>
		<path d="m31.2 28.4c-0.4 0-0.8 0.2-1 0.6s-0.3 0.9-0.3 1.5c0 0.7 0.1 1.2 0.3 1.6s0.5 0.5 1 0.5c0.4 0 0.7-0.2 1-0.5 0.2-0.3 0.3-0.9 0.3-1.6s-0.1-1.3-0.3-1.6c-0.3-0.4-0.6-0.5-1-0.5zm0.6 3.4c-0.1 0.3-0.3 0.4-0.6 0.4s-0.5-0.1-0.6-0.4c-0.1-0.2-0.2-0.7-0.2-1.4 0-0.5 0.1-0.9 0.2-1.2s0.3-0.5 0.7-0.5c0.3 0 0.6 0.2 0.7 0.5s0.2 0.7 0.2 1.2c-0.2 0.7-0.3 1.1-0.4 1.4z"/>
		<polygon points="7.3 51.1 7.3 47.4 6.9 47.4 6.1 47.9 6.1 48.3 6.9 47.9 6.9 51.1 6.1 51.1 6.1 51.5 8 51.5 8 51.1"/>
	
		<path class="st2" d="m11.2 134.5c-0.3 0-0.5 0.2-0.7 0.5-0.1 0.3-0.2 0.7-0.2 1.2 0 0.7 0.1 1.2 0.2 1.4s0.3 0.4 0.6 0.4 0.5-0.1 0.6-0.4 0.2-0.7 0.2-1.4c0-0.5-0.1-0.9-0.2-1.2 0-0.4-0.2-0.5-0.5-0.5z"/>
		<path class="st2" d="m31.2 139.2c-0.3 0-0.5 0.2-0.7 0.5-0.1 0.3-0.2 0.7-0.2 1.2 0 0.7 0.1 1.2 0.2 1.4s0.3 0.4 0.6 0.4 0.5-0.1 0.6-0.4 0.2-0.7 0.2-1.4c0-0.5-0.1-0.9-0.2-1.2 0.1-0.4-0.1-0.5-0.5-0.5z"/>
		<path class="st2" d="m31.2 162.8c-0.3 0-0.5 0.2-0.7 0.5-0.1 0.3-0.2 0.7-0.2 1.2 0 0.7 0.1 1.2 0.2 1.4s0.3 0.4 0.6 0.4 0.5-0.1 0.6-0.4 0.2-0.7 0.2-1.4c0-0.5-0.1-0.9-0.2-1.2 0.1-0.4-0.1-0.5-0.5-0.5z"/>
		<path class="st2" d="m23.2 134.5c-0.3 0-0.5 0.2-0.7 0.5-0.1 0.3-0.2 0.7-0.2 1.2 0 0.7 0.1 1.2 0.2 1.4s0.3 0.4 0.6 0.4 0.5-0.1 0.6-0.4 0.2-0.7 0.2-1.4c0-0.5-0.1-0.9-0.2-1.2 0.1-0.4-0.2-0.5-0.5-0.5z"/>
		<path class="st2" d="m23.2 148.6c-0.3 0-0.5 0.2-0.7 0.5-0.1 0.3-0.2 0.7-0.2 1.2 0 0.7 0.1 1.2 0.2 1.4s0.3 0.4 0.6 0.4 0.5-0.1 0.6-0.4 0.2-0.7 0.2-1.4c0-0.5-0.1-0.9-0.2-1.2 0.1-0.3-0.2-0.5-0.5-0.5z"/>
		<path class="st2" d="m19.2 162.8c-0.3 0-0.5 0.2-0.7 0.5-0.1 0.3-0.2 0.7-0.2 1.2 0 0.7 0.1 1.2 0.2 1.4s0.3 0.4 0.6 0.4 0.5-0.1 0.6-0.4 0.2-0.7 0.2-1.4c0-0.5-0.1-0.9-0.2-1.2 0.1-0.4-0.2-0.5-0.5-0.5z"/>
		<path class="st2" d="m27.2 148.6c-0.3 0-0.5 0.2-0.7 0.5-0.1 0.3-0.2 0.7-0.2 1.2 0 0.7 0.1 1.2 0.2 1.4s0.3 0.4 0.6 0.4 0.5-0.1 0.6-0.4 0.2-0.7 0.2-1.4c0-0.5-0.1-0.9-0.2-1.2 0.1-0.3-0.1-0.5-0.5-0.5z"/>
		<path class="st2" d="m7.2 139.2c-0.3 0-0.5 0.2-0.7 0.5-0.1 0.3-0.2 0.7-0.2 1.2 0 0.7 0.1 1.2 0.2 1.4s0.3 0.4 0.6 0.4 0.5-0.1 0.6-0.4 0.2-0.7 0.2-1.4c0-0.5-0.1-0.9-0.2-1.2 0-0.4-0.2-0.5-0.5-0.5z"/>
		<path class="st2" d="m98.3 139.1c-2.5-1.5-5.5-2.1-10.5-2.1h-4.5v26.6h4.5c5.8 0 9.1-0.8 11.7-2.9 3-2.4 4.7-6.2 4.7-10.4 0-4.9-2.2-9-5.9-11.2z"/>
		<path d="m39.2 162.8c-0.3 0-0.5 0.2-0.7 0.5-0.1 0.3-0.2 0.7-0.2 1.2 0 0.7 0.1 1.2 0.2 1.4s0.3 0.4 0.6 0.4 0.5-0.1 0.6-0.4 0.2-0.7 0.2-1.4c0-0.5-0.1-0.9-0.2-1.2 0.1-0.4-0.1-0.5-0.5-0.5z"/>
		<path d="m39.2 147.3c0.3 0 0.5-0.1 0.6-0.4s0.2-0.7 0.2-1.4c0-0.5-0.1-0.9-0.2-1.2s-0.3-0.5-0.7-0.5c-0.3 0-0.5 0.2-0.7 0.5-0.1 0.3-0.2 0.7-0.2 1.2 0 0.7 0.1 1.2 0.2 1.4 0.4 0.3 0.6 0.4 0.8 0.4z"/>
		<path d="m37.5 166.5h1.5c-0.3 0-0.6-0.2-0.8-0.5-0.2-0.4-0.3-0.9-0.3-1.6 0-0.6 0.1-1.1 0.3-1.5s0.5-0.6 1-0.6c0.4 0 0.7 0.2 0.9 0.5s0.3 0.9 0.3 1.6-0.1 1.2-0.3 1.6c-0.2 0.3-0.5 0.4-0.8 0.5h1.4v-32.5h-3.2v32.5zm2.7-4.7h-1.8v-0.4h0.7v-3.2l-0.8 0.4v-0.4l0.8-0.4h0.4v3.7h0.7v0.3zm0-4.7h-1.8v-0.4h0.7v-3.2l-0.8 0.4v-0.4l0.8-0.4h0.4v3.7h0.7v0.3zm-1.9-22.6 0.8-0.4h0.4v3.7h0.7v0.4h-1.8v-0.4h0.7v-3.3l-0.8 0.4zm0 4.9c0.2-0.4 0.5-0.6 1-0.6 0.4 0 0.7 0.2 0.9 0.5s0.3 0.9 0.3 1.6-0.1 1.2-0.3 1.6c-0.2 0.3-0.5 0.5-1 0.5-0.4 0-0.8-0.2-1-0.5-0.2-0.4-0.3-0.9-0.3-1.6 0.1-0.7 0.2-1.2 0.4-1.5zm0 4.7c0.2-0.4 0.5-0.6 1-0.6 0.4 0 0.7 0.2 0.9 0.5s0.3 0.9 0.3 1.6-0.1 1.2-0.3 1.6c-0.2 0.3-0.5 0.5-1 0.5-0.4 0-0.8-0.2-1-0.5-0.2-0.4-0.3-0.9-0.3-1.6 0.1-0.7 0.2-1.2 0.4-1.5zm0 4.7c0.2-0.4 0.5-0.6 1-0.6 0.4 0 0.7 0.2 0.9 0.5s0.3 0.9 0.3 1.6-0.1 1.2-0.3 1.6c-0.2 0.3-0.5 0.5-1 0.5-0.4 0-0.8-0.2-1-0.5-0.2-0.4-0.3-0.9-0.3-1.6 0.1-0.6 0.2-1.1 0.4-1.5z"/>
		<path d="m39.2 142.6c0.3 0 0.5-0.1 0.6-0.4s0.2-0.7 0.2-1.4c0-0.5-0.1-0.9-0.2-1.2s-0.3-0.5-0.7-0.5c-0.3 0-0.5 0.2-0.7 0.5-0.1 0.3-0.2 0.7-0.2 1.2 0 0.7 0.1 1.2 0.2 1.4 0.4 0.3 0.6 0.4 0.8 0.4z"/>
		<path d="m39.2 152.1c0.3 0 0.5-0.1 0.6-0.4s0.2-0.7 0.2-1.4c0-0.5-0.1-0.9-0.2-1.2s-0.3-0.5-0.7-0.5c-0.3 0-0.5 0.2-0.7 0.5-0.1 0.3-0.2 0.7-0.2 1.2 0 0.7 0.1 1.2 0.2 1.4 0.4 0.3 0.6 0.4 0.8 0.4z"/>
		<polygon points="70.1 161 51.9 134 47.5 134 47.5 166.5 50.7 166.5 50.7 138 70.1 166.5 73.4 166.5 73.4 134 70.1 134"/>
		<path d="m100.1 136.6c-3.1-1.8-6.5-2.6-12.4-2.6h-7.7v32.5h8.8c12.7 0 18.7-6.8 18.7-16.1 0-6.1-2.6-11-7.4-13.8zm-0.6 24.1c-2.6 2.1-5.9 2.9-11.7 2.9h-4.5v-26.6h4.5c4.9 0 8 0.6 10.5 2.1 3.7 2.2 5.9 6.3 5.9 11.2 0 4.2-1.7 8-4.7 10.4z"/>
		<polygon points="130.7 166.5 134.5 166.5 123.4 149.9 133.9 134 130.1 134 121.5 147.1 112.9 134 109.1 134 119.5 149.9 108.4 166.5 112.3 166.5 121.5 152.6"/>
		<path d="m23.2 134.1c-0.4 0-0.8 0.2-1 0.6s-0.3 0.9-0.3 1.5c0 0.7 0.1 1.2 0.3 1.6s0.5 0.5 1 0.5c0.4 0 0.7-0.2 1-0.5 0.2-0.3 0.3-0.9 0.3-1.6s-0.1-1.3-0.3-1.6c-0.3-0.3-0.6-0.5-1-0.5zm0.6 3.4c-0.1 0.3-0.3 0.4-0.6 0.4s-0.5-0.1-0.6-0.4c-0.1-0.2-0.2-0.7-0.2-1.4 0-0.5 0.1-0.9 0.2-1.2s0.3-0.5 0.7-0.5c0.3 0 0.6 0.2 0.7 0.5s0.2 0.7 0.2 1.2c-0.2 0.7-0.2 1.1-0.4 1.4z"/>
		<path d="m23.2 148.3c-0.4 0-0.8 0.2-1 0.6s-0.3 0.9-0.3 1.5c0 0.7 0.1 1.2 0.3 1.6s0.5 0.5 1 0.5c0.4 0 0.7-0.2 1-0.5 0.2-0.3 0.3-0.9 0.3-1.6s-0.1-1.3-0.3-1.6c-0.3-0.4-0.6-0.5-1-0.5zm0.6 3.4c-0.1 0.3-0.3 0.4-0.6 0.4s-0.5-0.1-0.6-0.4c-0.1-0.2-0.2-0.7-0.2-1.4 0-0.5 0.1-0.9 0.2-1.2s0.3-0.5 0.7-0.5c0.3 0 0.6 0.2 0.7 0.5s0.2 0.7 0.2 1.2c-0.2 0.6-0.2 1.1-0.4 1.4z"/>
		<polygon points="23.5 166.2 23.5 162.5 23.1 162.5 22.3 162.9 22.3 163.3 23 162.9 23 166.2 22.3 166.2 22.3 166.5 24.1 166.5 24.1 166.2"/>
		<path d="m23.2 167.1"/>
		<polygon points="19 144 19 147.2 18.3 147.2 18.3 147.5 20.1 147.5 20.1 147.2 19.5 147.2 19.5 143.5 19.1 143.5 18.3 143.9 18.3 144.4"/>
		<path d="m19.2 162.4c-0.4 0-0.8 0.2-1 0.6s-0.3 0.9-0.3 1.5c0 0.7 0.1 1.2 0.3 1.6s0.5 0.5 1 0.5c0.4 0 0.7-0.2 1-0.5 0.2-0.3 0.3-0.9 0.3-1.6s-0.1-1.3-0.3-1.6c-0.3-0.3-0.6-0.5-1-0.5zm0.6 3.4c-0.1 0.3-0.3 0.4-0.6 0.4s-0.5-0.1-0.6-0.4c-0.1-0.2-0.2-0.7-0.2-1.4 0-0.5 0.1-0.9 0.2-1.2s0.3-0.5 0.7-0.5c0.3 0 0.6 0.2 0.7 0.5s0.2 0.7 0.2 1.2c-0.2 0.7-0.2 1.2-0.4 1.4z"/>
		<polygon points="15.5 156.7 15.5 153.1 15.1 153.1 14.3 153.5 14.3 153.9 15 153.5 15 156.7 14.3 156.7 14.3 157.1 16.1 157.1 16.1 156.7"/>
		<path d="m11.2 134.1c-0.4 0-0.8 0.2-1 0.6s-0.3 0.9-0.3 1.5c0 0.7 0.1 1.2 0.3 1.6s0.5 0.5 1 0.5c0.4 0 0.7-0.2 1-0.5 0.2-0.3 0.3-0.9 0.3-1.6s-0.1-1.3-0.3-1.6c-0.3-0.3-0.6-0.5-1-0.5zm0.6 3.4c-0.1 0.3-0.3 0.4-0.6 0.4s-0.5-0.1-0.6-0.4c-0.1-0.2-0.2-0.7-0.2-1.4 0-0.5 0.1-0.9 0.2-1.2s0.3-0.5 0.7-0.5c0.3 0 0.6 0.2 0.7 0.5s0.2 0.7 0.2 1.2c-0.2 0.7-0.3 1.1-0.4 1.4z"/>
		<polygon points="11.4 166.2 11.4 162.5 11.1 162.5 10.3 162.9 10.3 163.3 11 162.9 11 166.2 10.3 166.2 10.3 166.5 12.1 166.5 12.1 166.2"/>
		<polygon points="27 139.2 27 142.5 26.3 142.5 26.3 142.8 28.2 142.8 28.2 142.5 27.5 142.5 27.5 138.8 27.1 138.8 26.3 139.2 26.3 139.6"/>
		<path d="m27.2 148.3c-0.4 0-0.8 0.2-1 0.6s-0.3 0.9-0.3 1.5c0 0.7 0.1 1.2 0.3 1.6s0.5 0.5 1 0.5c0.4 0 0.7-0.2 1-0.5 0.2-0.3 0.3-0.9 0.3-1.6s-0.1-1.3-0.3-1.6c-0.3-0.4-0.6-0.5-1-0.5zm0.6 3.4c-0.1 0.3-0.3 0.4-0.6 0.4s-0.5-0.1-0.6-0.4c-0.1-0.2-0.2-0.7-0.2-1.4 0-0.5 0.1-0.9 0.2-1.2s0.3-0.5 0.7-0.5c0.3 0 0.6 0.2 0.7 0.5s0.2 0.7 0.2 1.2c-0.2 0.6-0.2 1.1-0.4 1.4z"/>
		<polygon points="27.5 161.4 27.5 157.8 27.1 157.8 26.3 158.2 26.3 158.6 27 158.2 27 161.4 26.3 161.4 26.3 161.8 28.2 161.8 28.2 161.4"/>
		<path d="m31.2 138.8c-0.4 0-0.8 0.2-1 0.6s-0.3 0.9-0.3 1.5c0 0.7 0.1 1.2 0.3 1.6s0.5 0.5 1 0.5c0.4 0 0.7-0.2 1-0.5 0.2-0.3 0.3-0.9 0.3-1.6s-0.1-1.3-0.3-1.6c-0.3-0.3-0.6-0.5-1-0.5zm0.6 3.4c-0.1 0.3-0.3 0.4-0.6 0.4s-0.5-0.1-0.6-0.4c-0.1-0.2-0.2-0.7-0.2-1.4 0-0.5 0.1-0.9 0.2-1.2s0.3-0.5 0.7-0.5c0.3 0 0.6 0.2 0.7 0.5s0.2 0.7 0.2 1.2c-0.2 0.7-0.2 1.1-0.4 1.4z"/>
		<polygon points="31.5 143.5 31.1 143.5 30.3 143.9 30.3 144.4 31.1 144 31.1 147.2 30.3 147.2 30.3 147.5 32.2 147.5 32.2 147.2 31.5 147.2"/>
		<polygon points="30.3 149.2 31.1 148.8 31.1 152 30.3 152 30.3 152.4 32.2 152.4 32.2 152 31.5 152 31.5 148.3 31.1 148.3 30.3 148.8"/>
		<polygon points="30.3 158.6 31.1 158.2 31.1 161.4 30.3 161.4 30.3 161.8 32.2 161.8 32.2 161.4 31.5 161.4 31.5 157.8 31.1 157.8 30.3 158.2"/>
		<path d="m31.2 162.4c-0.4 0-0.8 0.2-1 0.6s-0.3 0.9-0.3 1.5c0 0.7 0.1 1.2 0.3 1.6s0.5 0.5 1 0.5c0.4 0 0.7-0.2 1-0.5 0.2-0.3 0.3-0.9 0.3-1.6s-0.1-1.3-0.3-1.6c-0.3-0.3-0.6-0.5-1-0.5zm0.6 3.4c-0.1 0.3-0.3 0.4-0.6 0.4s-0.5-0.1-0.6-0.4c-0.1-0.2-0.2-0.7-0.2-1.4 0-0.5 0.1-0.9 0.2-1.2s0.3-0.5 0.7-0.5c0.3 0 0.6 0.2 0.7 0.5s0.2 0.7 0.2 1.2c-0.2 0.7-0.2 1.2-0.4 1.4z"/>
		<path d="m35.2 134.1c-0.4 0-0.8 0.2-1 0.6s-0.3 0.9-0.3 1.5c0 0.7 0.1 1.2 0.3 1.6s0.5 0.5 1 0.5c0.4 0 0.7-0.2 1-0.5 0.2-0.3 0.3-0.9 0.3-1.6s-0.1-1.3-0.3-1.6-0.6-0.5-1-0.5zm0.6 3.4c-0.1 0.3-0.3 0.4-0.6 0.4s-0.5-0.1-0.6-0.4c-0.1-0.2-0.2-0.7-0.2-1.4 0-0.5 0.1-0.9 0.2-1.2s0.3-0.5 0.7-0.5c0.3 0 0.6 0.2 0.7 0.5s0.2 0.7 0.2 1.2c-0.2 0.7-0.2 1.1-0.4 1.4z"/>
		<path d="m35.2 138.8c-0.4 0-0.8 0.2-1 0.6s-0.3 0.9-0.3 1.5c0 0.7 0.1 1.2 0.3 1.6s0.5 0.5 1 0.5c0.4 0 0.7-0.2 1-0.5 0.2-0.3 0.3-0.9 0.3-1.6s-0.1-1.3-0.3-1.6-0.6-0.5-1-0.5zm0.6 3.4c-0.1 0.3-0.3 0.4-0.6 0.4s-0.5-0.1-0.6-0.4c-0.1-0.2-0.2-0.7-0.2-1.4 0-0.5 0.1-0.9 0.2-1.2s0.3-0.5 0.7-0.5c0.3 0 0.6 0.2 0.7 0.5s0.2 0.7 0.2 1.2c-0.2 0.7-0.2 1.2-0.4 1.4z"/>
		<polygon points="35.5 143.5 35.1 143.5 34.3 143.9 34.3 144.4 35.1 144 35.1 147.2 34.3 147.2 34.3 147.5 36.2 147.5 36.2 147.2 35.5 147.2"/>
		<polygon points="34.3 149.2 35.1 148.8 35.1 152 34.3 152 34.3 152.4 36.2 152.4 36.2 152 35.5 152 35.5 148.3 35.1 148.3 34.3 148.8"/>
		<path d="m35.2 153c-0.4 0-0.8 0.2-1 0.6s-0.3 0.9-0.3 1.5c0 0.7 0.1 1.2 0.3 1.6s0.5 0.5 1 0.5c0.4 0 0.7-0.2 1-0.5 0.2-0.3 0.3-0.9 0.3-1.6s-0.1-1.3-0.3-1.6-0.6-0.5-1-0.5zm0.6 3.4c-0.1 0.3-0.3 0.4-0.6 0.4s-0.5-0.1-0.6-0.4c-0.1-0.2-0.2-0.7-0.2-1.4 0-0.5 0.1-0.9 0.2-1.2s0.3-0.5 0.7-0.5c0.3 0 0.6 0.2 0.7 0.5s0.2 0.7 0.2 1.2c-0.2 0.7-0.2 1.1-0.4 1.4z"/>
		<polygon points="35.5 157.8 35.1 157.8 34.3 158.2 34.3 158.6 35.1 158.2 35.1 161.4 34.3 161.4 34.3 161.8 36.2 161.8 36.2 161.4 35.5 161.4"/>
		<path d="m35.2 162.4c-0.4 0-0.8 0.2-1 0.6s-0.3 0.9-0.3 1.5c0 0.7 0.1 1.2 0.3 1.6s0.5 0.5 1 0.5c0.4 0 0.7-0.2 1-0.5 0.2-0.3 0.3-0.9 0.3-1.6s-0.1-1.3-0.3-1.6-0.6-0.5-1-0.5zm0.6 3.4c-0.1 0.3-0.3 0.4-0.6 0.4s-0.5-0.1-0.6-0.4c-0.1-0.2-0.2-0.7-0.2-1.4 0-0.5 0.1-0.9 0.2-1.2s0.3-0.5 0.7-0.5c0.3 0 0.6 0.2 0.7 0.5s0.2 0.7 0.2 1.2c-0.2 0.7-0.2 1.2-0.4 1.4z"/>
		<path d="m7.2 138.8c-0.4 0-0.8 0.2-1 0.6s-0.3 0.9-0.3 1.5c0 0.7 0.1 1.2 0.3 1.6s0.5 0.5 1 0.5c0.4 0 0.7-0.2 1-0.5 0.2-0.3 0.3-0.9 0.3-1.6s-0.1-1.3-0.3-1.6c-0.3-0.3-0.6-0.5-1-0.5zm0.6 3.4c-0.1 0.3-0.3 0.4-0.6 0.4s-0.5-0.1-0.6-0.4c-0.1-0.2-0.2-0.7-0.2-1.4 0-0.5 0.1-0.9 0.2-1.2s0.3-0.5 0.7-0.5c0.3 0 0.6 0.2 0.7 0.5s0.2 0.7 0.2 1.2c-0.2 0.7-0.3 1.1-0.4 1.4z"/>
	
		<path class="st2" d="m35.1 81.7c-0.3 0-0.5 0.2-0.7 0.5-0.1 0.3-0.2 0.7-0.2 1.2 0 0.7 0.1 1.2 0.2 1.4s0.3 0.4 0.6 0.4 0.5-0.1 0.6-0.4 0.2-0.7 0.2-1.4c0-0.5-0.1-0.9-0.2-1.2 0-0.3-0.2-0.5-0.5-0.5z"/>
		<path class="st2" d="m35.1 100.5c-0.3 0-0.5 0.2-0.7 0.5-0.1 0.3-0.2 0.7-0.2 1.2 0 0.7 0.1 1.2 0.2 1.4s0.3 0.4 0.6 0.4 0.5-0.1 0.6-0.4 0.2-0.7 0.2-1.4c0-0.5-0.1-0.9-0.2-1.2 0-0.4-0.2-0.5-0.5-0.5z"/>
		<path class="st2" d="m35.1 95.8c-0.3 0-0.5 0.2-0.7 0.5-0.1 0.3-0.2 0.7-0.2 1.2 0 0.7 0.1 1.2 0.2 1.4s0.3 0.4 0.6 0.4 0.5-0.1 0.6-0.4 0.2-0.7 0.2-1.4c0-0.5-0.1-0.9-0.2-1.2 0-0.4-0.2-0.5-0.5-0.5z"/>
		<path class="st2" d="m35.1 105.1c-0.3 0-0.5 0.2-0.7 0.5-0.1 0.3-0.2 0.7-0.2 1.2 0 0.7 0.1 1.2 0.2 1.4s0.3 0.4 0.6 0.4 0.5-0.1 0.6-0.4 0.2-0.7 0.2-1.4c0-0.5-0.1-0.9-0.2-1.2 0-0.3-0.2-0.5-0.5-0.5z"/>
		<path class="st2" d="m47.8 97.8v-0.4c0-0.5-0.1-0.9-0.2-1.2s-0.3-0.5-0.7-0.5c-0.3 0-0.6 0.2-0.7 0.5s-0.2 0.7-0.2 1.2v0.4h0.6 1.2z"/>
		<path class="st2" d="m31.1 86.4c-0.3 0-0.5 0.2-0.7 0.5-0.1 0.3-0.2 0.7-0.2 1.2 0 0.7 0.1 1.2 0.2 1.4s0.3 0.4 0.6 0.4 0.5-0.1 0.6-0.4 0.2-0.7 0.2-1.4c0-0.5-0.1-0.9-0.2-1.2 0-0.3-0.2-0.5-0.5-0.5z"/>
		<path class="st2" d="m51.9 85.1v0.3h-1.8v-0.3h0.7v-0.4c-1.5-0.3-3.4-0.3-5.4-0.3h-2.1v0.7h0.7v0.4h-1.8v-0.4h0.7v-0.7h-2.1v13.5h2.1v-1.8l-0.8 0.4v-0.4l0.8-0.4h0.4v2.3h2.5v-0.4c0-0.6 0.1-1.1 0.3-1.5s0.5-0.6 1-0.6c0.4 0 0.7 0.2 0.9 0.5s0.3 0.9 0.3 1.6v0.2c0.9 0 1.8-0.1 2.6-0.3v-1.5l-0.8 0.4v-0.4l0.8-0.4h0.4v1.9c3.2-0.8 4.5-2.7 4.5-6.1 0-0.5 0-0.9-0.1-1.4-0.2 0.2-0.4 0.3-0.7 0.3-0.4 0-0.7-0.2-1-0.5-0.2-0.4-0.3-0.9-0.3-1.6 0-0.6 0.1-1.1 0.3-1.5l0.2-0.2c-0.8-0.8-1.8-1.3-3-1.6v0.3h0.7v-0.1z"/>
		<path class="st2" d="m55 89.8c0.3 0 0.5-0.1 0.6-0.4-0.2-1.2-0.6-2.1-1.1-2.8l-0.2 0.2c-0.1 0.3-0.2 0.7-0.2 1.2 0 0.7 0.1 1.2 0.2 1.4 0.2 0.3 0.4 0.4 0.7 0.4z"/>
		<path class="st2" d="m42.4 101c-0.1 0.3-0.2 0.7-0.2 1.2 0 0.7 0.1 1.2 0.2 1.4s0.3 0.4 0.6 0.4 0.5-0.1 0.6-0.4 0.2-0.7 0.2-1.4c0-0.5-0.1-0.9-0.2-1.2 0-0.1-0.1-0.1-0.1-0.2h-1s-0.1 0.1-0.1 0.2z"/>
		<path class="st2" d="m15.2 110.1c-0.3 0-0.5 0.2-0.7 0.5-0.1 0.3-0.2 0.7-0.2 1.2 0 0.7 0.1 1.2 0.2 1.4s0.3 0.4 0.6 0.4 0.5-0.1 0.6-0.4 0.2-0.7 0.2-1.4c0-0.5 0-0.9-0.2-1.2 0-0.3-0.2-0.5-0.5-0.5z"/>
		<path class="st2" d="m15.2 86.4c-0.3 0-0.5 0.2-0.7 0.5-0.1 0.3-0.2 0.7-0.2 1.2 0 0.7 0.1 1.2 0.2 1.4s0.3 0.4 0.6 0.4 0.5-0.1 0.6-0.4 0.2-0.7 0.2-1.4c0-0.5 0-0.9-0.2-1.2 0-0.3-0.2-0.5-0.5-0.5z"/>
		<path class="st2" d="m19.1 95.8c-0.3 0-0.5 0.2-0.7 0.5-0.1 0.3-0.2 0.7-0.2 1.2 0 0.7 0.1 1.2 0.2 1.4s0.3 0.4 0.6 0.4 0.5-0.1 0.6-0.4 0.2-0.7 0.2-1.4c0-0.5-0.1-0.9-0.2-1.2 0.1-0.4-0.1-0.5-0.5-0.5z"/>
		<path class="st2" d="m31.1 91.1c-0.3 0-0.5 0.2-0.7 0.5-0.1 0.3-0.2 0.7-0.2 1.2 0 0.7 0.1 1.2 0.2 1.4s0.3 0.4 0.6 0.4 0.5-0.1 0.6-0.4 0.2-0.7 0.2-1.4c0-0.5-0.1-0.9-0.2-1.2 0-0.4-0.2-0.5-0.5-0.5z"/>
		<path class="st2" d="m31.1 100.5c-0.3 0-0.5 0.2-0.7 0.5-0.1 0.3-0.2 0.7-0.2 1.2 0 0.7 0.1 1.2 0.2 1.4s0.3 0.4 0.6 0.4 0.5-0.1 0.6-0.4 0.2-0.7 0.2-1.4c0-0.5-0.1-0.9-0.2-1.2 0-0.4-0.2-0.5-0.5-0.5z"/>
		<path class="st2" d="m23.1 110.1c-0.3 0-0.5 0.2-0.7 0.5-0.1 0.3-0.2 0.7-0.2 1.2 0 0.7 0.1 1.2 0.2 1.4s0.3 0.4 0.6 0.4 0.5-0.1 0.6-0.4 0.2-0.7 0.2-1.4c0-0.5-0.1-0.9-0.2-1.2 0.1-0.3-0.1-0.5-0.5-0.5z"/>
		<path class="st2" d="m27.1 95.8c-0.3 0-0.5 0.2-0.7 0.5-0.1 0.3-0.2 0.7-0.2 1.2 0 0.7 0.1 1.2 0.2 1.4s0.3 0.4 0.6 0.4 0.5-0.1 0.6-0.4 0.2-0.7 0.2-1.4c0-0.5-0.1-0.9-0.2-1.2 0.1-0.4-0.2-0.5-0.5-0.5z"/>
		<path class="st2" d="m31.1 105.1c-0.3 0-0.5 0.2-0.7 0.5-0.1 0.3-0.2 0.7-0.2 1.2 0 0.7 0.1 1.2 0.2 1.4s0.3 0.4 0.6 0.4 0.5-0.1 0.6-0.4 0.2-0.7 0.2-1.4c0-0.5-0.1-0.9-0.2-1.2 0-0.3-0.2-0.5-0.5-0.5z"/>
		<polygon class="st2" points="80.1 100 73.9 85.1 67.5 100"/>
		<path d="m43 100.5c-0.2 0-0.4 0.1-0.5 0.3h1.1c-0.1-0.2-0.3-0.3-0.6-0.3z"/>
		<path d="m39.1 91.1c-0.3 0-0.5 0.2-0.7 0.5-0.1 0.3-0.2 0.7-0.2 1.2 0 0.7 0.1 1.2 0.2 1.4s0.3 0.4 0.6 0.4 0.5-0.1 0.6-0.4 0.2-0.7 0.2-1.4c0-0.5-0.1-0.9-0.2-1.2 0-0.4-0.2-0.5-0.5-0.5z"/>
		<path d="m39.1 105.1c-0.3 0-0.5 0.2-0.7 0.5-0.1 0.3-0.2 0.7-0.2 1.2 0 0.7 0.1 1.2 0.2 1.4s0.3 0.4 0.6 0.4 0.5-0.1 0.6-0.4 0.2-0.7 0.2-1.4c0-0.5-0.1-0.9-0.2-1.2 0-0.3-0.2-0.5-0.5-0.5z"/>
		<path d="m55.8 88c0-0.5-0.1-0.9-0.2-1.2s-0.3-0.5-0.7-0.5c-0.2 0-0.4 0.1-0.5 0.2 0.5 0.7 0.9 1.6 1.1 2.8 0.2-0.2 0.3-0.6 0.3-1.3z"/>
		<path d="m59.1 91.3c0-5.4-2.3-8.4-7.8-9.4v2.9c1.2 0.3 2.2 0.8 3 1.6 0.2-0.2 0.4-0.3 0.7-0.3 0.4 0 0.7 0.2 0.9 0.5s0.3 0.9 0.3 1.6-0.1 1.2-0.3 1.6l-0.2 0.2c0 0.4 0.1 0.9 0.1 1.4 0 3.4-1.3 5.3-4.5 6.1v1.8h0.7v0.3h-1.8v-0.3h0.7v-1.8c-0.7 0.2-1.6 0.2-2.6 0.3 0 0.6-0.1 1-0.3 1.3s-0.5 0.5-0.9 0.5-0.8-0.2-1-0.5-0.2-0.7-0.3-1.2h-2.5v1.4h0.7v0.4h-1.8v-0.4h0.7v-1.4h-2.1v-13.5h2.1v-2.5l-0.8 0.4v-0.4l0.8-0.4h0.4v2.9h2.1c2.1 0 3.9 0 5.4 0.3v-2.8l-0.8 0.4v-0.4l0.4-0.2c-1.2-0.2-2.5-0.3-3.9-0.3h-9v32.5h0.5v-0.3h0.7v-3.2l-0.7 0.4v-0.4l0.8-0.4h0.4v3.6h0.8v0.3h0.8v-13.2h1.2v-0.1c0.2-0.4 0.5-0.6 1-0.6 0.4 0 0.7 0.2 0.9 0.5 0 0 0 0.1 0.1 0.1h2.5c0.1-0.2 0.3-0.3 0.5-0.3s0.4 0.1 0.5 0.2c8.5 0.1 11.6-3.2 11.6-9.2zm-21-9.4 0.8-0.4h0.4v3.6h0.7v0.3h-1.8v-0.3h0.7v-3.2l-0.7 0.4zm1.9 26.5c-0.2 0.3-0.5 0.5-0.9 0.5s-0.7-0.2-1-0.5c-0.2-0.4-0.3-0.9-0.3-1.6 0-0.6 0.1-1.1 0.3-1.5s0.5-0.6 1-0.6c0.4 0 0.7 0.2 0.9 0.5s0.3 0.9 0.3 1.6c0 0.8-0.1 1.3-0.3 1.6zm0-9.2v0.3h-1.8v-0.3h0.7v-3.2l-0.7 0.4v-0.4l0.8-0.4h0.4v3.6zm-1.9 1.4 0.8-0.4h0.4v3.6h0.7v0.3h-1.8v-0.3h0.7v-3.2l-0.7 0.4zm1.9-6.2c-0.2 0.3-0.5 0.5-0.9 0.5s-0.7-0.2-1-0.5c-0.2-0.4-0.3-0.9-0.3-1.6 0-0.6 0.1-1.1 0.3-1.5s0.5-0.6 1-0.6c0.4 0 0.7 0.2 0.9 0.5s0.3 0.9 0.3 1.6-0.1 1.2-0.3 1.6zm0-4.7c-0.2 0.3-0.5 0.5-0.9 0.5s-0.7-0.2-1-0.5c-0.2-0.4-0.3-0.9-0.3-1.6 0-0.6 0.1-1.1 0.3-1.5s0.5-0.6 1-0.6c0.4 0 0.7 0.2 0.9 0.5s0.3 0.9 0.3 1.6-0.1 1.3-0.3 1.6z"/>
		<path d="m46.8 97.8h-0.6c0 0.5 0.1 0.9 0.2 1 0.1 0.2 0.3 0.4 0.6 0.4s0.5-0.1 0.6-0.4c0.1-0.2 0.2-0.6 0.2-1h-1z"/>
		<path d="m39.1 86.4c-0.3 0-0.5 0.2-0.7 0.5-0.1 0.3-0.2 0.7-0.2 1.2 0 0.7 0.1 1.2 0.2 1.4s0.3 0.4 0.6 0.4 0.5-0.1 0.6-0.4 0.2-0.7 0.2-1.4c0-0.5-0.1-0.9-0.2-1.2 0-0.3-0.2-0.5-0.5-0.5z"/>
		<path d="m72 81.4-13.9 32.5h3.4l4.8-11h15.1l4.7 11h3.6l-14-32.5zm-4.5 18.6 6.4-14.9 6.2 14.9z"/>
		<path d="m115.5 91.9c0-6.8-3.8-10.5-14-10.5h-8v32.5h3.3v-29.6h4.6c7.6 0 10.9 2 10.9 7.4 0 5.9-3.1 7.4-12.2 7.4l11 14.7h4l-9.1-12.1c6.2-0.6 9.5-4 9.5-9.8z"/>
		<polygon points="124.6 84.4 124.6 113.9 127.8 113.9 127.8 84.4 135.3 84.4 135.3 81.4 117.2 81.4 117.2 84.4"/>
		<polygon points="22.9 81.9 22.9 85.1 22.2 85.1 22.2 85.4 24 85.4 24 85.1 23.4 85.1 23.4 81.5 23 81.5 22.2 81.9 22.2 82.3"/>
		<polygon points="22.9 96 22.9 99.2 22.2 99.2 22.2 99.5 24 99.5 24 99.2 23.4 99.2 23.4 95.5 23 95.5 22.2 95.9 22.2 96.4"/>
		<path d="m23.1 109.8c-0.4 0-0.8 0.2-1 0.6s-0.3 0.9-0.3 1.5c0 0.7 0.1 1.2 0.3 1.6s0.5 0.5 1 0.5c0.4 0 0.7-0.2 0.9-0.5s0.3-0.9 0.3-1.6-0.1-1.3-0.3-1.6c-0.2-0.4-0.5-0.5-0.9-0.5zm0.6 3.4c-0.1 0.3-0.3 0.4-0.6 0.4s-0.5-0.1-0.6-0.4c-0.1-0.2-0.2-0.7-0.2-1.4 0-0.5 0.1-0.9 0.2-1.2s0.3-0.5 0.7-0.5c0.3 0 0.6 0.2 0.7 0.5s0.2 0.7 0.2 1.2c-0.2 0.6-0.2 1.1-0.4 1.4z"/>
		<path d="m19.1 95.4c-0.4 0-0.8 0.2-1 0.6s-0.3 0.9-0.3 1.5c0 0.7 0.1 1.2 0.3 1.6s0.5 0.5 1 0.5c0.4 0 0.7-0.2 0.9-0.5s0.3-0.9 0.3-1.6-0.1-1.3-0.3-1.6c-0.1-0.3-0.5-0.5-0.9-0.5zm0.7 3.4c-0.1 0.3-0.3 0.4-0.6 0.4s-0.5-0.1-0.6-0.4c-0.1-0.2-0.2-0.7-0.2-1.4 0-0.5 0.1-0.9 0.2-1.2s0.3-0.5 0.7-0.5c0.3 0 0.6 0.2 0.7 0.5s0.2 0.7 0.2 1.2c-0.3 0.7-0.3 1.1-0.4 1.4z"/>
		<polygon points="19.4 103.8 19.4 100.2 19 100.2 18.2 100.6 18.2 101 19 100.6 19 103.8 18.2 103.8 18.2 104.2 20.1 104.2 20.1 103.8"/>
		<path d="m15.2 86c-0.4 0-0.8 0.2-1 0.6s-0.3 0.9-0.3 1.5c0 0.7 0.1 1.2 0.3 1.6s0.5 0.5 1 0.5c0.4 0 0.7-0.2 0.9-0.5s0.3-0.9 0.3-1.6-0.1-1.3-0.3-1.6-0.5-0.5-0.9-0.5zm0.6 3.4c-0.1 0.3-0.3 0.4-0.6 0.4s-0.5-0.1-0.6-0.4c-0.1-0.2-0.2-0.7-0.2-1.4 0-0.5 0.1-0.9 0.2-1.2s0.3-0.5 0.7-0.5c0.3 0 0.6 0.2 0.7 0.5s0.2 0.7 0.2 1.2c-0.2 0.7-0.3 1.2-0.4 1.4z"/>
		<path d="m15.2 109.8c-0.4 0-0.8 0.2-1 0.6s-0.3 0.9-0.3 1.5c0 0.7 0.1 1.2 0.3 1.6s0.5 0.5 1 0.5c0.4 0 0.7-0.2 0.9-0.5s0.3-0.9 0.3-1.6-0.1-1.3-0.3-1.6c-0.2-0.4-0.5-0.5-0.9-0.5zm0.6 3.4c-0.1 0.3-0.3 0.4-0.6 0.4s-0.5-0.1-0.6-0.4c-0.1-0.2-0.2-0.7-0.2-1.4 0-0.5 0.1-0.9 0.2-1.2s0.3-0.5 0.7-0.5c0.3 0 0.6 0.2 0.7 0.5s0.2 0.7 0.2 1.2c-0.2 0.6-0.3 1.1-0.4 1.4z"/>
		<polygon points="11.4 85.1 11.4 81.5 11.1 81.5 10.3 81.9 10.3 82.3 11 81.9 11 85.1 10.3 85.1 10.3 85.4 12.1 85.4 12.1 85.1"/>
		<polygon points="26.9 86.6 26.9 89.8 26.2 89.8 26.2 90.1 28 90.1 28 89.8 27.4 89.8 27.4 86.1 27 86.1 26.2 86.6 26.2 87"/>
		<path d="m27.1 95.4c-0.4 0-0.8 0.2-1 0.6s-0.3 0.9-0.3 1.5c0 0.7 0.1 1.2 0.3 1.6s0.5 0.5 1 0.5c0.4 0 0.7-0.2 0.9-0.5s0.3-0.9 0.3-1.6-0.1-1.3-0.3-1.6-0.5-0.5-0.9-0.5zm0.6 3.4c-0.1 0.3-0.3 0.4-0.6 0.4s-0.5-0.1-0.6-0.4c-0.1-0.2-0.2-0.7-0.2-1.4 0-0.5 0.1-0.9 0.2-1.2s0.3-0.5 0.7-0.5c0.3 0 0.6 0.2 0.7 0.5s0.2 0.7 0.2 1.2c-0.2 0.7-0.3 1.1-0.4 1.4z"/>
		<polygon points="27.4 108.5 27.4 104.9 27 104.9 26.2 105.3 26.2 105.7 26.9 105.3 26.9 108.5 26.2 108.5 26.2 108.9 28 108.9 28 108.5"/>
		<path d="m31.1 86c-0.4 0-0.8 0.2-1 0.6s-0.3 0.9-0.3 1.5c0 0.7 0.1 1.2 0.3 1.6s0.5 0.5 1 0.5c0.4 0 0.7-0.2 0.9-0.5s0.3-0.9 0.3-1.6-0.1-1.3-0.3-1.6-0.5-0.5-0.9-0.5zm0.6 3.4c-0.1 0.3-0.3 0.4-0.6 0.4s-0.5-0.1-0.6-0.4c-0.1-0.2-0.2-0.7-0.2-1.4 0-0.5 0.1-0.9 0.2-1.2s0.3-0.5 0.7-0.5c0.3 0 0.6 0.2 0.7 0.5s0.2 0.7 0.2 1.2c-0.2 0.7-0.3 1.2-0.4 1.4z"/>
		<path d="m31.1 90.7c-0.4 0-0.8 0.2-1 0.6s-0.3 0.9-0.3 1.5c0 0.7 0.1 1.2 0.3 1.6s0.5 0.5 1 0.5c0.4 0 0.7-0.2 0.9-0.5s0.3-0.9 0.3-1.6-0.1-1.3-0.3-1.6-0.5-0.5-0.9-0.5zm0.6 3.4c-0.1 0.3-0.3 0.4-0.6 0.4s-0.5-0.1-0.6-0.4c-0.1-0.2-0.2-0.7-0.2-1.4 0-0.5 0.1-0.9 0.2-1.2s0.3-0.5 0.7-0.5c0.3 0 0.6 0.2 0.7 0.5s0.2 0.7 0.2 1.2c-0.2 0.7-0.3 1.2-0.4 1.4z"/>
		<path d="m31.1 100.1c-0.4 0-0.8 0.2-1 0.6s-0.3 0.9-0.3 1.5c0 0.7 0.1 1.2 0.3 1.6s0.5 0.5 1 0.5c0.4 0 0.7-0.2 0.9-0.5s0.3-0.9 0.3-1.6-0.1-1.3-0.3-1.6-0.5-0.5-0.9-0.5zm0.6 3.4c-0.1 0.3-0.3 0.4-0.6 0.4s-0.5-0.1-0.6-0.4c-0.1-0.2-0.2-0.7-0.2-1.4 0-0.5 0.1-0.9 0.2-1.2s0.3-0.5 0.7-0.5c0.3 0 0.6 0.2 0.7 0.5s0.2 0.7 0.2 1.2c-0.2 0.7-0.3 1.1-0.4 1.4z"/>
		<path d="m31.1 104.8c-0.4 0-0.8 0.2-1 0.6s-0.3 0.9-0.3 1.5c0 0.7 0.1 1.2 0.3 1.6s0.5 0.5 1 0.5c0.4 0 0.7-0.2 0.9-0.5s0.3-0.9 0.3-1.6-0.1-1.3-0.3-1.6c-0.2-0.4-0.5-0.5-0.9-0.5zm0.6 3.4c-0.1 0.3-0.3 0.4-0.6 0.4s-0.5-0.1-0.6-0.4c-0.1-0.2-0.2-0.7-0.2-1.4 0-0.5 0.1-0.9 0.2-1.2s0.3-0.5 0.7-0.5c0.3 0 0.6 0.2 0.7 0.5s0.2 0.7 0.2 1.2c-0.2 0.6-0.3 1.1-0.4 1.4z"/>
		<path d="m35.1 81.4c-0.4 0-0.8 0.2-1 0.6s-0.3 0.9-0.3 1.5c0 0.7 0.1 1.2 0.3 1.6s0.5 0.5 1 0.5c0.4 0 0.7-0.2 0.9-0.5s0.3-0.9 0.3-1.6-0.1-1.3-0.3-1.6c-0.2-0.4-0.5-0.5-0.9-0.5zm0.6 3.3c-0.1 0.3-0.3 0.4-0.6 0.4s-0.5-0.1-0.6-0.4c-0.1-0.2-0.2-0.7-0.2-1.4 0-0.5 0.1-0.9 0.2-1.2s0.3-0.5 0.7-0.5c0.3 0 0.6 0.2 0.7 0.5s0.2 0.7 0.2 1.2c-0.2 0.7-0.3 1.2-0.4 1.4z"/>
		<polygon points="35.3 86.1 35 86.1 34.1 86.6 34.1 87 34.9 86.6 34.9 89.8 34.2 89.8 34.2 90.1 36 90.1 36 89.8 35.3 89.8"/>
		<polygon points="34.1 91.7 34.9 91.3 34.9 94.5 34.2 94.5 34.2 94.8 36 94.8 36 94.5 35.3 94.5 35.3 90.8 35 90.8 34.1 91.3"/>
		<path d="m35.1 95.4c-0.4 0-0.8 0.2-1 0.6s-0.3 0.9-0.3 1.5c0 0.7 0.1 1.2 0.3 1.6s0.5 0.5 1 0.5c0.4 0 0.7-0.2 0.9-0.5s0.3-0.9 0.3-1.6-0.1-1.3-0.3-1.6-0.5-0.5-0.9-0.5zm0.6 3.4c-0.1 0.3-0.3 0.4-0.6 0.4s-0.5-0.1-0.6-0.4c-0.1-0.2-0.2-0.7-0.2-1.4 0-0.5 0.1-0.9 0.2-1.2s0.3-0.5 0.7-0.5c0.3 0 0.6 0.2 0.7 0.5s0.2 0.7 0.2 1.2c-0.2 0.7-0.3 1.1-0.4 1.4z"/>
		<path d="m35.1 100.1c-0.4 0-0.8 0.2-1 0.6s-0.3 0.9-0.3 1.5c0 0.7 0.1 1.2 0.3 1.6s0.5 0.5 1 0.5c0.4 0 0.7-0.2 0.9-0.5s0.3-0.9 0.3-1.6-0.1-1.3-0.3-1.6-0.5-0.5-0.9-0.5zm0.6 3.4c-0.1 0.3-0.3 0.4-0.6 0.4s-0.5-0.1-0.6-0.4c-0.1-0.2-0.2-0.7-0.2-1.4 0-0.5 0.1-0.9 0.2-1.2s0.3-0.5 0.7-0.5c0.3 0 0.6 0.2 0.7 0.5s0.2 0.7 0.2 1.2c-0.2 0.7-0.3 1.1-0.4 1.4z"/>
		<path d="m35.1 104.8c-0.4 0-0.8 0.2-1 0.6s-0.3 0.9-0.3 1.5c0 0.7 0.1 1.2 0.3 1.6s0.5 0.5 1 0.5c0.4 0 0.7-0.2 0.9-0.5s0.3-0.9 0.3-1.6-0.1-1.3-0.3-1.6c-0.2-0.4-0.5-0.5-0.9-0.5zm0.6 3.4c-0.1 0.3-0.3 0.4-0.6 0.4s-0.5-0.1-0.6-0.4c-0.1-0.2-0.2-0.7-0.2-1.4 0-0.5 0.1-0.9 0.2-1.2s0.3-0.5 0.7-0.5c0.3 0 0.6 0.2 0.7 0.5s0.2 0.7 0.2 1.2c-0.2 0.6-0.3 1.1-0.4 1.4z"/>
		<polygon points="35.3 113.6 35.3 109.9 35 109.9 34.1 110.4 34.1 110.8 34.9 110.4 34.9 113.6 34.2 113.6 34.2 113.9 36 113.9 36 113.6"/>
		<polygon points="7.5 103.8 7.5 100.2 7.1 100.2 6.3 100.6 6.3 101 7 100.6 7 103.8 6.3 103.8 6.3 104.2 8.1 104.2 8.1 103.8"/>
	</g>
<text fill="#000000" font-family="sans-serif" font-size="40px" style="line-height:1.25;shape-inside:url(#rect2182);white-space:pre" xml:space="preserve"/><g aria-label="Index of Digital Political Participation Switzerland"><path d="m245.99 55.083v28.438h-2.2461v-28.438z"/><path d="m259.92 64.067q-1.9336 0-3.2227 1.4453-1.2891 1.4453-1.875 3.3008v14.707h-2.168v-21.133h2.0703l0.0781 3.3203q0.91797-1.6797 2.3633-2.6953 1.4648-1.0156 3.3203-1.0156 2.6562 0 4.1602 1.7969 1.5039 1.7773 1.5039 5.957v13.77h-2.168v-13.887q-0.0195-3.1836-1.0938-4.375-1.0742-1.1914-2.9688-1.1914z"/><path d="m283.55 83.52-0.0977-2.7344q-1.7578 3.1445-5.4492 3.1445-3.1055 0-4.9609-2.3828-1.8555-2.4023-1.8945-7.3633v-2.207q0-5.293 1.8555-7.6367 1.8555-2.3438 5.0391-2.3438 3.5938 0 5.3711 3.2227v-11.699h2.168v30zm-10.215-9.5703q0 7.8906 5.0976 7.8906 1.9336 0 3.125-0.9375 1.2109-0.9375 1.8555-2.3633v-10.898q-0.58594-1.4258-1.7578-2.5-1.1523-1.0742-3.1836-1.0742-4.9805 0-5.1367 7.4414z"/><path d="m304.7 81.079q-0.85937 1.1523-2.3633 2.0117-1.5039 0.83984-3.9258 0.83984-3.5352 0-5.7812-2.3438-2.2266-2.3438-2.2266-7.2461v-2.4219q0-5.293 2.3047-7.5977 2.3047-2.3242 5.332-2.3242 3.4766 0 5.2344 2.2656 1.7774 2.2461 1.8359 6.7578v2.1094h-12.539v1.2109q0 3.8477 1.6211 5.7031 1.6406 1.8555 4.3164 1.8555 3.125 0 5.0391-2.2656zm-6.6602-17.051q-2.3047 0-3.8086 1.6406-1.4844 1.6211-1.6406 5.4297h10.352v-0.54688q-0.0586-3.0859-1.25-4.8047t-3.6523-1.7188z"/><path d="m310.8 62.387 4.6094 8.5156 4.6289-8.5156h2.5586l-5.9766 10.371 6.2305 10.762h-2.5391l-4.8828-8.9062-4.8633 8.9062h-2.5586l6.2305-10.762-5.9766-10.371z"/><path d="m335.13 71.86q0-4.7852 2.1289-7.3242 2.1484-2.5391 5.5859-2.5391 3.418 0 5.5469 2.4805t2.1875 7.1289v2.4414q0 4.7852-2.1484 7.3438-2.1289 2.5391-5.5664 2.5391-3.3984 0-5.5469-2.4805-2.1289-2.5-2.1875-7.1484zm2.168 2.1875q0 3.6133 1.4453 5.7422 1.4648 2.1094 4.1211 2.1094 2.793 0 4.1602-2.0898 1.3672-2.0898 1.3867-5.6641v-2.2852q0-3.5547-1.4648-5.6836-1.4648-2.1484-4.1016-2.1484-2.6367 0-4.1016 2.1484-1.4453 2.1289-1.4453 5.6836z"/><path d="m363.34 64.34h-4.1602v19.18h-2.168v-19.18h-2.9102v-1.9531h2.9102v-2.793q0.0391-3.125 1.4453-4.8047 1.4258-1.6797 3.9062-1.6797 1.1524 0 2.0898 0.33203l-0.13672 1.9922q-0.78125-0.23438-1.7773-0.23438-3.3008 0-3.3594 4.4141v2.7734h4.1602z"/><path d="m377.07 83.52v-28.438h6.6797q4.5312 0 7.3047 2.9297 2.793 2.9297 2.793 8.4375v5.7031q0 5.5273-2.793 8.457-2.793 2.9102-7.4609 2.9102zm2.2266-26.348v24.258h4.2969q3.8477 0 5.9375-2.3828 2.1094-2.4023 2.1094-6.8945v-5.7422q0-4.5508-2.1094-6.8945-2.1094-2.3438-5.7812-2.3438z"/><path d="m399.29 56.294q0-1.6016 1.4258-1.6016 1.4453 0 1.4453 1.6016 0 1.5625-1.4453 1.5625-1.4258 0-1.4258-1.5625zm2.5 6.0938v21.133h-2.168v-21.133z"/><path d="m414.41 91.938q-1.582 0-3.3594-0.78125-1.7773-0.76172-2.8516-2.1289l1.0156-1.5625q2.168 2.4609 5.0391 2.4609 2.4219 0 3.7305-1.3086 1.3086-1.2891 1.3281-4.3945v-3.3594q-1.7969 3.0664-5.4102 3.0664-3.1836 0-5.0195-2.4219-1.8359-2.4414-1.8359-7.5586v-1.9727q0-5.293 1.8359-7.6367 1.8555-2.3438 5.0586-2.3438 3.6523 0 5.4297 3.3398l0.0977-2.9492h2.0117v21.738q-0.0195 4.082-1.9336 5.9375-1.9141 1.875-5.1367 1.875zm-5.1758-17.988q0 7.8906 5.1172 7.8906 1.9531 0 3.1445-0.95703 1.1914-0.95703 1.8164-2.4023v-10.781q-0.56641-1.4453-1.7383-2.5391-1.1524-1.0938-3.2031-1.0938-4.9805 0-5.1367 7.4414z"/><path d="m427.2 56.294q0-1.6016 1.4258-1.6016 1.4453 0 1.4453 1.6016 0 1.5625-1.4453 1.5625-1.4258 0-1.4258-1.5625zm2.5 6.0938v21.133h-2.168v-21.133z"/><path d="m442.87 83.598q-0.83985 0.3125-2.1484 0.3125-1.6797 0-2.793-1.1719-1.1133-1.1914-1.1133-4.375v-14.023h-3.2422v-1.9531h3.2422v-5.4102h2.1875v5.4102h3.5938v1.9531h-3.5938v14.023q0 2.1875 0.66406 2.8125 0.6836 0.625 1.5625 0.625 0.78125 0 1.5625-0.19531z"/><path d="m458.53 83.52q-0.3125-0.97656-0.41016-2.9297-0.82031 1.3086-2.2852 2.3242-1.4453 1.0156-3.5352 1.0156-2.6172 0-4.1992-1.5039t-1.582-4.4727q0-2.9297 2.0117-4.8438 2.0117-1.9141 5.9961-1.9141h3.5742v-2.9492q0-4.2188-4.4141-4.2188-2.0312 0-3.3203 1.1719-1.2695 1.1719-1.2695 3.0273l-2.168-0.01953q0-2.4414 1.875-4.3164 1.8945-1.8945 4.9805-1.8945 2.8516 0 4.668 1.4258 1.8164 1.4258 1.8164 4.8633v10.41q0 3.0859 0.54688 4.5703v0.25391zm-5.9766-1.7188q2.0703 0 3.4961-1.0547 1.4453-1.0742 2.0508-2.5586v-5.1562h-3.4375q-2.9492 0.03906-4.4726 1.3281-1.5039 1.2695-1.5039 3.418 0 4.0234 3.8672 4.0234z"/><path d="m468.61 53.52v30h-2.168v-30z"/><path d="m486.34 71.958v11.562h-2.2266v-28.438h8.2617q3.9453 0 6.0156 2.3633 2.0898 2.3633 2.0898 6.1328 0 3.9453-2.0703 6.1719-2.0703 2.207-6.0352 2.207zm0-14.785v12.695h6.0352q3.125 0 4.4922-1.7969 1.3672-1.7969 1.3672-4.4531 0-2.5977-1.3672-4.5117-1.3672-1.9336-4.4922-1.9336z"/><path d="m504.14 71.86q0-4.7852 2.1289-7.3242 2.1484-2.5391 5.5859-2.5391 3.418 0 5.5469 2.4805 2.1289 2.4805 2.1875 7.1289v2.4414q0 4.7852-2.1484 7.3438-2.1289 2.5391-5.5664 2.5391-3.3984 0-5.5469-2.4805-2.1289-2.5-2.1875-7.1484zm2.168 2.1875q0 3.6133 1.4453 5.7422 1.4648 2.1094 4.1211 2.1094 2.793 0 4.1602-2.0898 1.3672-2.0898 1.3867-5.6641v-2.2852q0-3.5547-1.4648-5.6836-1.4648-2.1484-4.1016-2.1484t-4.1016 2.1484q-1.4453 2.1289-1.4453 5.6836z"/><path d="m526.99 53.52v30h-2.168v-30z"/><path d="m532.93 56.294q0-1.6016 1.4258-1.6016 1.4453 0 1.4453 1.6016 0 1.5625-1.4453 1.5625-1.4258 0-1.4258-1.5625zm2.5 6.0938v21.133h-2.168v-21.133z"/><path d="m548.59 83.598q-0.83984 0.3125-2.1484 0.3125-1.6797 0-2.793-1.1719-1.1133-1.1914-1.1133-4.375v-14.023h-3.2422v-1.9531h3.2422v-5.4102h2.1875v5.4102h3.5938v1.9531h-3.5938v14.023q0 2.1875 0.66406 2.8125 0.68359 0.625 1.5625 0.625 0.78125 0 1.5625-0.19531z"/><path d="m552.98 56.294q0-1.6016 1.4258-1.6016 1.4453 0 1.4453 1.6016 0 1.5625-1.4453 1.5625-1.4258 0-1.4258-1.5625zm2.5 6.0938v21.133h-2.168v-21.133z"/><path d="m568.18 81.899q1.8164 0 3.2226-1.0352 1.4258-1.0547 1.582-3.8867h2.0703q-0.13672 3.3984-2.1484 5.1758-1.9922 1.7773-4.7266 1.7773-3.7891 0-5.7031-2.4023-1.8945-2.4023-1.9336-7.1875v-2.5781q0-4.8633 1.8945-7.3047 1.9141-2.4609 5.7422-2.4609 2.8906 0 4.8242 1.8359 1.9336 1.8359 2.0508 5.6836h-2.0703q-0.13671-2.9492-1.5039-4.2188-1.3477-1.2695-3.3008-1.2695-3.0078 0-4.2383 2.0312-1.2305 2.0117-1.2305 5.7031v2.3828q0 3.7109 1.2305 5.7422 1.2305 2.0117 4.2383 2.0117z"/><path d="m590.84 83.52q-0.3125-0.97656-0.41016-2.9297-0.82031 1.3086-2.2852 2.3242-1.4453 1.0156-3.5352 1.0156-2.6172 0-4.1992-1.5039t-1.582-4.4727q0-2.9297 2.0117-4.8438 2.0117-1.9141 5.9961-1.9141h3.5742v-2.9492q0-4.2188-4.4141-4.2188-2.0312 0-3.3203 1.1719-1.2695 1.1719-1.2695 3.0273l-2.168-0.01953q0-2.4414 1.875-4.3164 1.8945-1.8945 4.9805-1.8945 2.8516 0 4.668 1.4258 1.8164 1.4258 1.8164 4.8633v10.41q0 3.0859 0.54687 4.5703v0.25391zm-5.9766-1.7188q2.0703 0 3.4961-1.0547 1.4453-1.0742 2.0508-2.5586v-5.1562h-3.4375q-2.9492 0.03906-4.4727 1.3281-1.5039 1.2695-1.5039 3.418 0 4.0234 3.8672 4.0234z"/><path d="m600.91 53.52v30h-2.168v-30z"/><path d="m618.65 71.958v11.562h-2.2266v-28.438h8.2617q3.9453 0 6.0156 2.3633 2.0898 2.3633 2.0898 6.1328 0 3.9453-2.0703 6.1719-2.0703 2.207-6.0352 2.207zm0-14.785v12.695h6.0352q3.125 0 4.4922-1.7969t1.3672-4.4531q0-2.5977-1.3672-4.5117-1.3672-1.9336-4.4922-1.9336z"/><path d="m648.47 83.52q-0.3125-0.97656-0.41016-2.9297-0.82031 1.3086-2.2852 2.3242-1.4453 1.0156-3.5352 1.0156-2.6172 0-4.1992-1.5039t-1.582-4.4727q0-2.9297 2.0117-4.8438 2.0117-1.9141 5.9961-1.9141h3.5742v-2.9492q0-4.2188-4.4141-4.2188-2.0312 0-3.3203 1.1719-1.2695 1.1719-1.2695 3.0273l-2.168-0.01953q0-2.4414 1.875-4.3164 1.8945-1.8945 4.9805-1.8945 2.8516 0 4.668 1.4258 1.8164 1.4258 1.8164 4.8633v10.41q0 3.0859 0.54687 4.5703v0.25391zm-5.9766-1.7188q2.0703 0 3.4961-1.0547 1.4453-1.0742 2.0508-2.5586v-5.1562h-3.4375q-2.9492 0.03906-4.4727 1.3281-1.5039 1.2695-1.5039 3.418 0 4.0234 3.8672 4.0234z"/><path d="m663.06 64.282q-1.8945 0-3.0859 1.2695-1.1719 1.2695-1.6602 3.2812v14.688h-2.168v-21.133h2.1094l0.0586 3.1641q1.5234-3.5547 4.8438-3.5547 0.80078 0 1.3086 0.23438l-0.0586 2.1875q-0.625-0.13672-1.3477-0.13672z"/><path d="m676.36 83.598q-0.83984 0.3125-2.1484 0.3125-1.6797 0-2.793-1.1719-1.1133-1.1914-1.1133-4.375v-14.023h-3.2422v-1.9531h3.2422v-5.4102h2.1875v5.4102h3.5938v1.9531h-3.5938v14.023q0 2.1875 0.66407 2.8125 0.68359 0.625 1.5625 0.625 0.78125 0 1.5625-0.19531z"/><path d="m680.76 56.294q0-1.6016 1.4258-1.6016 1.4453 0 1.4453 1.6016 0 1.5625-1.4453 1.5625-1.4258 0-1.4258-1.5625zm2.5 6.0938v21.133h-2.168v-21.133z"/><path d="m695.95 81.899q1.8164 0 3.2227-1.0352 1.4258-1.0547 1.582-3.8867h2.0703q-0.13671 3.3984-2.1484 5.1758-1.9922 1.7773-4.7266 1.7773-3.7891 0-5.7031-2.4023-1.8945-2.4023-1.9336-7.1875v-2.5781q0-4.8633 1.8945-7.3047 1.9141-2.4609 5.7422-2.4609 2.8906 0 4.8242 1.8359 1.9336 1.8359 2.0508 5.6836h-2.0703q-0.13672-2.9492-1.5039-4.2188-1.3477-1.2695-3.3008-1.2695-3.0078 0-4.2383 2.0312-1.2305 2.0117-1.2305 5.7031v2.3828q0 3.7109 1.2305 5.7422 1.2305 2.0117 4.2383 2.0117z"/><path d="m707.34 56.294q0-1.6016 1.4258-1.6016 1.4453 0 1.4453 1.6016 0 1.5625-1.4453 1.5625-1.4258 0-1.4258-1.5625zm2.5 6.0938v21.133h-2.168v-21.133z"/><path d="m723.49 83.93q-3.6133 0-5.4688-2.9492v10.664h-2.168v-29.258h2.0117l0.11718 2.8711q1.7774-3.2617 5.4688-3.2617 3.2227 0 5 2.2656 1.7774 2.2656 1.8359 7.3633v2.3242q0 5.1172-1.7773 7.5586-1.7774 2.4219-5.0195 2.4219zm-0.56641-19.863q-1.9922 0-3.1641 1.0547-1.1524 1.0547-1.7383 2.4414v11.133q1.4844 3.2031 4.9414 3.2031 5 0 5.1562-7.4805v-2.4414q0-7.9102-5.1953-7.9102z"/><path d="m746.5 83.52q-0.3125-0.97656-0.41016-2.9297-0.82031 1.3086-2.2852 2.3242-1.4453 1.0156-3.5352 1.0156-2.6172 0-4.1992-1.5039t-1.582-4.4727q0-2.9297 2.0117-4.8438 2.0117-1.9141 5.9961-1.9141h3.5742v-2.9492q0-4.2188-4.4141-4.2188-2.0312 0-3.3203 1.1719-1.2695 1.1719-1.2695 3.0273l-2.168-0.01953q0-2.4414 1.875-4.3164 1.8945-1.8945 4.9805-1.8945 2.8516 0 4.668 1.4258 1.8164 1.4258 1.8164 4.8633v10.41q0 3.0859 0.54688 4.5703v0.25391zm-5.9766-1.7188q2.0703 0 3.4961-1.0547 1.4453-1.0742 2.0508-2.5586v-5.1562h-3.4375q-2.9492 0.03906-4.4726 1.3281-1.5039 1.2695-1.5039 3.418 0 4.0234 3.8672 4.0234z"/><path d="m761.3 83.598q-0.83985 0.3125-2.1484 0.3125-1.6797 0-2.793-1.1719-1.1133-1.1914-1.1133-4.375v-14.023h-3.2422v-1.9531h3.2422v-5.4102h2.1875v5.4102h3.5938v1.9531h-3.5938v14.023q0 2.1875 0.66406 2.8125 0.6836 0.625 1.5625 0.625 0.78125 0 1.5625-0.19531z"/><path d="m765.7 56.294q0-1.6016 1.4258-1.6016 1.4453 0 1.4453 1.6016 0 1.5625-1.4453 1.5625-1.4258 0-1.4258-1.5625zm2.5 6.0938v21.133h-2.168v-21.133z"/><path d="m773.41 71.86q0-4.7852 2.1289-7.3242 2.1484-2.5391 5.5859-2.5391 3.418 0 5.5469 2.4805t2.1875 7.1289v2.4414q0 4.7852-2.1484 7.3438-2.1289 2.5391-5.5664 2.5391-3.3984 0-5.5469-2.4805-2.1289-2.5-2.1875-7.1484zm2.168 2.1875q0 3.6133 1.4453 5.7422 1.4648 2.1094 4.1211 2.1094 2.793 0 4.1602-2.0898 1.3672-2.0898 1.3867-5.6641v-2.2852q0-3.5547-1.4648-5.6836-1.4648-2.1484-4.1016-2.1484-2.6367 0-4.1016 2.1484-1.4453 2.1289-1.4453 5.6836z"/><path d="m801.13 64.067q-1.9336 0-3.2227 1.4453-1.2891 1.4453-1.875 3.3008v14.707h-2.168v-21.133h2.0703l0.0781 3.3203q0.91797-1.6797 2.3633-2.6953 1.4648-1.0156 3.3203-1.0156 2.6562 0 4.1602 1.7969 1.5039 1.7773 1.5039 5.957v13.77h-2.168v-13.887q-0.0195-3.1836-1.0938-4.375-1.0742-1.1914-2.9688-1.1914z"/><g fill="#655e7a"><path d="m254.72 127.55q0-1.6602-0.83985-2.6953-0.82031-1.0352-4.0234-2.2656-3.1836-1.2305-5.3711-3.1445-2.168-1.9141-2.2461-5.2344v-0.23438q0-3.4766 2.3633-5.6836 2.3828-2.207 6.2695-2.207 4.1406 0 6.4453 2.5586 2.3242 2.5391 2.3242 6.1328h-4.8828q0-2.0312-0.91797-3.3398-0.91797-1.3281-3.0273-1.3281-1.9141 0-2.8125 1.1133-0.87891 1.0938-0.87891 2.7344 0 1.5625 1.2109 2.6172 1.2109 1.0352 3.418 1.9141 4.1016 1.4062 5.9766 3.5156 1.875 2.1094 1.875 5.5078 0 3.6133-2.3047 5.7031-2.2852 2.0898-6.2891 2.0898-2.3633 0-4.5508-0.99609-2.168-0.9961-3.5742-3.0078-1.3867-2.0117-1.3867-5.0391h4.9023q0 2.6758 1.25 3.8672 1.25 1.1719 3.3594 1.1719 1.9336 0 2.8125-1.0352 0.89844-1.0547 0.89844-2.7148z" style="font-variant-caps:small-caps"/><path d="m286.23 112.16-4.4336 22.754h-4.5312l-3.0469-14.727-3.0664 14.727h-4.5312l-4.4336-22.754h4.5312l2.4414 15.273 3.0078-15.273h4.1016l3.0078 15.215 2.4023-15.215z" style="font-variant-caps:small-caps"/><path d="m294.12 112.16v22.754h-4.6875v-22.754z" style="font-variant-caps:small-caps"/><path d="m297.4 116.08v-3.9258h16.797v3.9258h-6.1133v18.828h-4.6875v-18.828z" style="font-variant-caps:small-caps"/><path d="m316.46 116.08v-3.9258h15.625v2.7148l-9.8828 16.133h10.098v3.9062h-15.762v-2.793l9.9609-16.035z" style="font-variant-caps:small-caps"/><path d="m335.62 134.91v-22.754h13.867v3.9258h-9.1797v5.1172h7.8125v3.9062h-7.8125v5.8984h9.2188v3.9062z" style="font-variant-caps:small-caps"/><path d="m363.82 134.91-3.6914-8.2422h-2.7734v8.2422h-4.707v-22.754h7.7344q3.6523 0 5.6641 1.7578 2.0312 1.7578 2.0312 5.1172 0 2.5-0.9375 4.0234-0.9375 1.5039-2.6172 2.3438l4.3359 9.2969v0.21484zm-6.4648-18.828v6.6797h2.9102q1.543 0 2.3242-0.89844 0.80078-0.89844 0.80078-2.4219 0-3.2812-2.8711-3.3594z" style="font-variant-caps:small-caps"/><path d="m385.21 131v3.9062h-13.477v-22.754h4.6875v18.848z" style="font-variant-caps:small-caps"/><path d="m386.62 134.91 7.7148-22.754h4.2969l7.6758 22.754h-4.7266l-1.4844-4.8047h-7.2656l-1.4844 4.8047zm7.3438-8.4766h4.9805l-2.5-8.0664z" style="font-variant-caps:small-caps"/><path d="m425.84 112.16v22.754h-4.668l-7.5781-15.371v15.371h-4.6875v-22.754h4.6875l7.5781 15.371v-15.371z" style="font-variant-caps:small-caps"/><path d="m430.09 134.91v-22.754h6.3672q4.2383 0 6.875 3.0078t2.6367 7.8906v0.97656q0 4.8828-2.6562 7.8906-2.6367 2.9883-6.9531 2.9883zm4.6875-18.828v14.922h1.582q2.7344 0 3.8281-1.7969 1.0938-1.7969 1.0938-5.1758v-1.0156q0-3.418-1.0938-5.1758t-3.7305-1.7578z" style="font-variant-caps:small-caps"/></g></g></svg>
