{
  "last_updated": "2022-08-17",
  "summary": null,
  "tools": {
    "1": {
      "text": "The canton has various channels on social media ([Twitter](https://twitter.com/KantonLuzern), [Facebook](https://www.facebook.com/KantonLuzern)) that are used regularly. Therefore, 25 points are assigned.\r\n\r\nIn total, the canton receives 25 points."
    },
    "2": {
      "text": "In the canton, voters can use [VoteInfo](https://www.bfs.admin.ch/bfs/fr/home/statistiques/politique/votations/voteinfo.html) and smartvote. In addition, there are active measures for [digital political education](https://entdecke.lu.ch/show/3.%20Zyklus/Politik). Therefore, 75 points are assigned.\r\n\r\nBonus and Malus:  \r\nInclusiveness: There are [translated parts](https://gruezi.lu.ch/kanton_luzern/politisches_system) of the cantonal website, that are meanigful for participation. For this 5 points are assigned.\r\n\r\nIn total, the canton receives 80 points."
    },
    "3": {
      "text": "In addition to the minutes of the cantonal council meetings and governmental reports, the canton provides a fully developed [Opendata portal](https://www.lustat.ch/). Therefore, 75 points are assigned.\r\n\r\nIn total, the canton receives 75 points."
    },
    "4": {
      "text": "The Department of Construction, Environment and economy (BUWD) uses a [proprietary software](https://www.lu.ch/regierung/vernehmlassungen_stellungnahmen/vernehmlassungen_archiv/vernehmlassungen_archiv_buwd) as standard for consultations. However in other [departments](https://www.lu.ch/regierung/vernehmlassungen_stellungnahmen/vernehmlassungen_archiv/vernehmlassungen_archiv_gsd) this is not yet the case. The [department for education and culture](https://www.lu.ch/regierung/vernehmlassungen_stellungnahmen/vernehmlassungen_archiv/vernehmlassungen_archiv_bkd) uses ad-hoc surveys for example and in others material can only be sent in by email. Therefore, 75 points are assigned.\r\n\r\nIn total, the canton receives 75 points."
    },
    "5": {
      "text": "In the canton one [partisan](https://wecollect.ch/projekte/stimmrechtsalter-16-initiative-luzern) and one [non-partisan private e-demand platform](https://www.petitio.ch/petitions/province/luzern-1MeeG?state=all) were being use the past year. Therefore, 25 points are assigned.\r\n\r\nBonus and Malus:  \r\nVariety: For this 5 points are assigned.\r\n\r\nIn total, the canton receives 30 points."
    },
    "6": {
      "text": "The canton has neither an e-government portal nor an e-ID. However, according to the eGovernment strategy there are plans for an eGovernemnt portal. Therefore, 0 points are assigned.\r\n\r\nIn total, the canton receives 0 points."
    },
    "7": {
      "text": "There is currently no [e-voting](https://www.bk.admin.ch/bk/de/home/politische-rechte/e-voting/chronik.html) available in the canton. In the past, it was available to Swiss citizens living abroad. Therefore, 50 points are assigned.\r\n\r\nBonus and Malus:  \r\nUse: For this -5 points are assigned.  \r\nInclusiveness: For this 5 points are assigned.\r\n\r\nIn total, the canton receives 50 points."
    }
  }
}
