{
  "last_updated": "2022-08-24",
  "summary": null,
  "tools": {
    "1": {
      "text": "The canton has various channels on social media ([Facebook](https://www.facebook.com/kantonglarus), [Twitter](https://twitter.com/KantonGL), [YouTube](https://www.youtube.com/user/KantonGL)) that are used regularly. However, there is no interaction with users . Therefore, 25 points are assigned.\r\n\r\nIn total, the canton receives 25 points."
    },
    "2": {
      "text": "In the canton voters have access to [VoteInfo](https://www.bfs.admin.ch/bfs/fr/home/statistiques/politique/votations/voteinfo.html) and [smartvote](https://www.smartvote.ch/de/group/62/election/22_gl_leg). Therefore, 50 points are assigned.\r\n\r\nBonus and Malus:  \r\nInclusiveness: There are [translations of information](https://www.hallo-glarus.ch/) meaningful for participation. For this 5 points are assigned.\r\n\r\nIn total, the canton receives 55 points."
    },
    "3": {
      "text": "The canton makes minutes of the sessions of the [Grand Council](https://www.gl.ch/parlament/landrat.html/250) and the [Landsgemeinde](https://www.gl.ch/parlament/landrat/landsgemeindeprotokolle-ab-mai-2010.html/226), [government reports](https://www.gl.ch/regierung/taetigkeitsberichte.html/263) and important statistics available online as PDF files. Therefore, 50 points are assigned.\r\n\r\nBonus and Malus:  \r\nInclusiveness: There is a [livestream](https://www.gl.ch/parlament/landrat/livestream-landratssitzung.html/5518) of the parliamentary sessions. For this 5 points are assigned.\r\n\r\nIn total, the canton receives 55 points."
    },
    "4": {
      "text": "The canton does not have a digital tool for consultations. Materials can be submitted by [e-mail](https://www.gl.ch/verwaltung/staatskanzlei/laufende-vernehmlassungen.html/1355). Therefore, 0 points are assigned.\r\n\r\nBonus and Malus:  \r\nUse: Consultations are held regularly. For this 5 points are assigned.\r\n\r\nIn total, the canton receives 5 points."
    },
    "5": {
      "text": "No e-petition platform is actively used in the canton. Therefore, 0 points are assigned.\r\n\r\nIn total, the canton receives 0 points."
    },
    "6": {
      "text": "The canton has neither an e-government portal nor an e-ID. Therefore, 0 points are assigned.\r\n\r\nIn total, the canton receives 0 points."
    },
    "7": {
      "text": "There is currently no [e-voting](https://www.bk.admin.ch/bk/de/home/politische-rechte/e-voting/chronik.html) available in the canton. In the past, it was available to Swiss citizens living abroad. Therefore, 50 points are assigned.\r\n\r\nBonus and Malus:  \r\nUse: For this -5 points are assigned.  \r\nInclusiveness: For this 5 points are assigned.\r\n\r\nIn total, the canton receives 50 points."
    }
  }
}
