{
  "last_updated": "2023-07-31",
  "summary": "Der Kanton Waadt liegt mit 32 von 100 möglichen Punkten für den DigiPartIndex schweizweit auf Rang 13 im Mittelfeld der Kantone, jedoch lediglich im tiefen Bereich der Skala. Im Vergleich zu letztem Jahr hat sich die Punktzahl um 7 Punkte verbessert, wodurch sich der Kanton um 6 Plätze verbessert hat.\r\n \r\nFür die Dimension Meinungsbildung (Diskutieren, Lernen, Monitoring) erzielt er einen Wert von 50 (+ 5), für die Dimension Mitwirkung (Konsultieren, Meinung äussern) erzielt er einen Wert von 18 (+  8) und für die Dimension Entscheidung (Identifizierung, Abstimmen und Wählen) einen Wert von 38 (+ 2; Achtung in dieser Dimension ist es beim Indikator 'eVoting' zu einer Veränderung des Codierungsschemas gekommen, weshalb die hier genannten Werte für das Vorjahr nicht direkt mit denjenigen des Profils des Vorjahres verglichen werden können).\r\n \r\nFür die einzelnen Tools zeichnen sich ebenfalls erhebliche Unterschiede ab. Die Spannbreite zwischen dem niedrigsten und höchsten Wert ist mit 70 Zählern sehr hoch.",
  "tools": {
    "1": {
      "text": null
    },
    "2": {
      "text": null
    },
    "3": {
      "text": null
    },
    "4": {
      "text": null
    },
    "5": {
      "text": null
    },
    "6": {
      "text": null
    },
    "7": {
      "text": null
    }
  }
}
