{
  "last_updated": "2021-08-23",
  "summary": "Der Kanton Basel-Stadt liegt mit 50 von 100 möglichen Punkten für den DigiPartIndex schweizweit auf Rang 3, also in der Spitzengruppe der Kantone, jedoch lediglich im mittleren Bereich der Skala. Alle Kantone, so auch der Kanton Basel-Stadt, haben noch viel Luft nach oben.\r\n\r\nIn den einzelnen Dimensionen Meinungsbildung, Mitwirkung und Entscheidung ist der Kanton Basel-Stadt eher ausgeglichen. Für die Dimension Meinungsbildung (Diskutieren, Lernen, Monitoring) erzielt er einen Wert von 58, für die Dimension Mitwirkung (Konsultieren, Meinung äussern) 53 und für die Dimension Entscheidung (Identifizierung, Abstimmen und Wählen) einen Wert von 40.\r\n\r\nFür die einzelnen Tools zeichnen sich jedoch auch Unterschiede ab. Die Spannbreite zwischen dem niedrigsten und höchsten Wert ist mit 50 Zählern hoch.",
  "tools": {
    "1": {
      "text": "Der Kanton Basel-Stadt verfügt über verschiedene Kanäle auf Social Media ([Facebook](https://www.facebook.com/Rathaus.Basel), [Twitter](https://twitter.com/BaselStadt)), die regelmässig bedient werden. Es findet jedoch wenig Interaktion mit User:innen statt. Dafür gibt es 25 Punkte, was ziemlich genau dem Durchschnitt aller Kantone entspricht (24.8 Punkte)."
    },
    "2": {
      "text": "Im Kanton Basel-Stadt stehen den Stimmbürger:innen [VoteInfo](https://www.bfs.admin.ch/bfs/de/home/statistiken/politik/abstimmungen/voteinfo.html) und verschiedene VAAs ([smartvote](https://www.smartvote.ch/de/group/24/election/20_bs_leg/home) und [CH+](https://projektchplus.ch/app/)) zur Verfügung. Zusätzlich gibt es aktive Massnahmen für [digitale politische Bildung](https://www.polit-baukasten.ch/). Deshalb beträgt der Score 75. Für diesen Indikator liegt der Kanton über dem schweizweiten Durchschnitt von 52.5 und ist in der Spitzengruppe."
    },
    "3": {
      "text": "Der Kanton stellt zusätzlich zu den Protokollen der [Grossratssitzungen](https://www.grosserrat.bs.ch/ratsbetrieb/ratsprotokolle) und den [Regierungsberichten](https://www.regierungsrat.bs.ch/geschaefte/berichte.html) ein ausgebautes [Open-Data-Portal](https://data.bs.ch/pages/statistics/) zur Verfügung. Deshalb beträgt der Score 75. Somit befindet sich der Kanton in der Spitzengruppe und dem Durchschnitt für alle Kantone von 55.8."
    },
    "4": {
      "text": "Der Kanton hat die Software [\"E-Mitwirkung\"](https://e-mitwirkung.ch/) wenige Male verwendet, wobei dies noch nicht der Standard für [Vernehmlassungen](https://www.regierungsrat.bs.ch/geschaefte/vernehmlassungen.html) ist. Deshalb beträgt der Score 75. Es gibt einen Malus für Gebrauch von 5, also 70. Mit diesem Wert liegt der Kanton Basel-Stadt für dieses Tool sehr weit über dem landesweiten Durchschnitt von 25.4."
    },
    "5": {
      "text": "Im Kanton gibt es mehrere parteiungebundene private E-Petitionsplattformen (z.B. [petitio.ch](https://www.petitio.ch/petitions/province/basel-stadt-1jPqQ?state=all), aber auch [wecollect](https://wecollect.ch/projekte), [openpetition](https://www.openpetition.eu/ch/region/petition/Basel-Stadt), etc.), die regelmässig genutzt werden. Deshalb beträgt der Score 25. Mit den Bonussen für Gebrauch und Vielfalt von je 5 kommt man auf 35 Punkte, was gut über dem Durchschnitt von 24.0 liegt."
    },
    "6": {
      "text": "Der Kanton verfügt über ein [E-Government-Portal](https://www.itbs.bs.ch/dienstleistungen/egovernment/das-ekonto.html), bei dem man sich ohne Überprüfung der Identität anmelden kann. Das Login ist über einen zentralen Button auf der [Webseite](https://www.bs.ch/) des Kantons sehr gut sichtbar und intuitiv. Zusammen mit dem Bonus von 5 für Benutzerfreundlichkeit beträgt der Wert für den DigiPartIndex 30. Das entspricht etwas dem Durchschnitt aller Kantone von 29.6 Punkten."
    },
    "7": {
      "text": "Im Kanton Basel-Stadt gibt es [momentan](https://www.medien.bs.ch/nm/2021-e-voting-soll-in-basel-stadt-im-2022-in-begrenztem-umfang-wiederaufgenommen-rr.html) kein E-Voting. [In der Vergangenheit](https://www.bk.admin.ch/bk/de/home/politische-rechte/e-voting/chronik.html) stand es Auslandschweizer:innen, Pilotgruppen und Personen mit Beeinträchtigungen zur Verfügung. Deshalb beträgt der Score 50. Malusse für Gebrauch und Pilotgruppen sowie Bonusse für einen erhöhten Nutzerkreis von je 5 heben sich auf, es bleibt also bei 50 Punkten. Der Kanton Basel-Stadt liegt bei diesem Teilbereich des DigiPartIndex deutlich über dem Durchschnitt von 36.5 über alle Kantone hinweg."
    }
  }
}
