{
  "last_updated": "2022-08-17",
  "summary": "Der Kanton Graubünden liegt mit 33 von 100 möglichen Punkten für\r\nden DigiPartIndex schweizweit auf Rang 14, also im Mittelfeld der\r\nKantone, im tiefen Bereich der Skala. Im Vergleich zu letztem Jahr hat\r\nsich die Punktzahl um 7 Punkte verbessert, wodurch der Kanton 2 Plätze\r\naufgestiegen ist.\r\n\r\nIn den einzelnen Dimensionen Meinungsbildung, Mitwirkung und\r\nEntscheidung ist der Kanton relativ ausgeglichen. Für die Dimension\r\nMeinungsbildung (Diskutieren, Lernen, Monitoring) erzielt er einen\r\nWert von 53 (+11), für die Dimension Mitwirkung (Konsultieren,\r\nMeinung äussern) 20 (+7) und für die Dimension Entscheidung\r\n(Identifizierung, Abstimmen und Wählen) einen Wert von 35 (+/-0).\r\n\r\nFür die einzelnen Tools zeichnen sich jedoch erhebliche Unterschiede ab.\r\nDie Spannbreite zwischen dem niedrigsten und höchsten Wert ist mit 55\r\nZählern hoch.",
  "tools": {
    "1": {
      "text": null
    },
    "2": {
      "text": null
    },
    "3": {
      "text": null
    },
    "4": {
      "text": null
    },
    "5": {
      "text": null
    },
    "6": {
      "text": null
    },
    "7": {
      "text": null
    }
  }
}
