{
  "last_updated": "2022-08-10",
  "summary": "Der Kanton Freiburg liegt mit 35 von 100 möglichen Punkten für\r\nden DigiPartIndex schweizweit auf Rang 11, also im Mittelfeld der\r\nKantone, im tiefen Bereich der Skala. Im Vergleich zu letztem Jahr hat\r\nsich die Punktzahl um 5 Punkte verbessert. Trotzdem ist der Kanton\r\num 1 Platz abgerutscht.\r\n\r\nZwischen den einzelnen Dimensionen Meinungsbildung, Mitwirkung\r\nund Entscheidung gibt es durchaus Unterschiede. Für die Dimension\r\nMeinungsbildung (Diskutieren, Lernen, Monitoring) erzielt er einen\r\nWert von 47 (+4), für die Dimension Mitwirkung (Konsultieren,\r\nMeinung äussern) 15 (-3) und für die Dimension Entscheidung\r\n(Identifizierung, Abstimmen und Wählen) einen Wert von 63 (+45).\r\n\r\nFür die einzelnen Tools zeichnen sich jedoch erhebliche Unterschiede ab.\r\nDie Spannbreite zwischen dem niedrigsten und höchsten Wert ist mit 75\r\nZählern sehr hoch.",
  "tools": {
    "1": {
      "text": null
    },
    "2": {
      "text": null
    },
    "3": {
      "text": null
    },
    "4": {
      "text": null
    },
    "5": {
      "text": null
    },
    "6": {
      "text": null
    },
    "7": {
      "text": null
    }
  }
}
