{
  "last_updated": "2021-09-01",
  "summary": "Der Kanton Thurgau liegt mit 41 von 100 möglichen Punkten für den DigiPartIndex schweizweit auf Rang 8, also in der Spitzengruppe der Kantone, jedoch lediglich im mittleren Bereich der Skala. Alle Kantone, so auch der Kanton Thurgau, haben noch viel Luft nach oben.\r\n\r\nIn den einzelnen Dimensionen Meinungsbildung, Mitwirkung und Entscheidung gibt es im Kanton Thurgau durchaus Unterschiede. Für die Dimension Meinungsbildung (Diskutieren, Lernen, Monitoring) erzielt er einen Wert von 50, für die Dimension Mitwirkung (Konsultieren, Meinung äussern) 55 und für die Dimension Entscheidung (Identifizierung, Abstimmen und Wählen) einen Wert von 25.\r\n\r\nFür die einzelnen Tools zeichnen sich jedoch durchaus erhebliche Unterschiede ab. Die Spannbreite zwischen dem niedrigsten und höchsten Wert ist mit 75 Zählern sehr hoch.",
  "tools": {
    "1": {
      "text": "Der Kanton Thurgau verfügt über verschiedene Kanäle auf Social Media ([Facebook](https://www.facebook.com/kt.thurgau), [Twitter](https://twitter.com/Kanton_Thurgau)), die regelmässig bedient werden. Es findet jedoch wenig Interaktion mit User:innen statt. Dafür gibt es 25 Punkte, was ziemlich genau dem Durchschnitt aller Kantone entspricht (24.8 Punkte)."
    },
    "2": {
      "text": "Im Kanton Thurgau stehen den Stimmbürger:innen [VoteInfo](https://www.bfs.admin.ch/bfs/de/home/statistiken/politik/abstimmungen/voteinfo.html) und [smartvote](https://www.smartvote.ch/de/group/7/election/20_tg_leg/home) zur Verfügung. Deshalb beträgt der Score 50. Für diesen Indikator liegt der Kanton nahe dem schweizweiten Durchschnitt von 52.5."
    },
    "3": {
      "text": "Der Kanton stellt zusätzlich zu den Protokollen der [Grossratssitzungen](https://parlament.tg.ch/sitzungen-protokolle/ausfuehrliche-protokolle/archiv.html/5765) und den [Regierungsberichte](https://finanzverwaltung.tg.ch/de/kantonsfinanzen/rechnung/archiv.html/1266) ein ausgebautes [Open-Data-Portal](https://data.tg.ch/pages/start/) zur Verfügung. Deshalb beträgt der Score 75. Der Kanton liegt damit über dem Durchschnitt für alle Kantone von 55.8 und ist in der Spitzengruppe."
    },
    "4": {
      "text": "Der Kanton verwendet die Software [\"E-Mitwirkung\"](https://e-mitwirkung.ch/). Dies ist noch nicht der [Standard](https://vernehmlassungen.tg.ch/vernehmlassungen/abgeschlossene-vernehmlassungen/vernehmlassungen-2021.html/11765). Deshalb beträgt der Score 75. Mit diesem Wert liegt der Kanton Thurgau für dieses Tool sehr weit über dem landesweiten Durchschnitt von 25.4."
    },
    "5": {
      "text": "Im Kanton gibt es mehrere parteiungebundene private E-Petitionsplattformen (z.B. [petitio.ch](https://www.petitio.ch/petitions/1UOuI) oder [openpetition](https://www.openpetition.eu/ch/region/petition/Thurgau)), die regelmässig genutzt werden. Deshalb beträgt der Score 25. Mit den Bonussen für Gebrauch und Vielfalt von je 5 kommt man auf 35 Punkte, was gut über dem Durchschnitt von 24.0 liegt."
    },
    "6": {
      "text": "Der Kanton verfügt weder über ein E-Government-Portal noch eine E-ID. Deshalb beträgt der Score 0. Das ist unter dem Durchschnitt aller Kantone von 29.6 Punkten."
    },
    "7": {
      "text": "Im Kanton Thurgau gibt es momentan kein E-Voting. [In der Vergangenheit](https://rechtsdienst.tg.ch/auslandschweizerinnen-und-schweizer/e-voting.html/1180) stand es Auslandschweizer:innen zur Verfügung. Deshalb beträgt der Score 50. Malus für Gebrauch sowie Bonus für einen erhöhten Nutzerkreis von je 5 heben sich auf, es bleibt also bei 50 Punkten. Der Kanton Thurgau liegt bei diesem Teilbereich des DigiPartIndex deutlich über dem Durchschnitt von 36.5 über alle Kantone hinweg."
    }
  }
}
