{
  "last_updated": "2023-08-21",
  "summary": "With 58 out of 100 possible points the canton St. Gallen is on position 1 in Switzerland in the top group of the cantons, but only in the middle range of the scale. Compared to last year, the score has improved by 7 points, as a result of which the canton has changed by 0 places.\r\n \r\nFor the opinion formation dimension (discussing, learning, monitoring), he achieves a score of 53 (+ 2), for the co-creation dimension (consulting, voice opinions), it achieves a score of 50 (-2) and for the decision dimension (identifying and voting) a value of 75 (+25; Please note that there has been a change in the coding scheme for the 'eVoting' indicator in this dimension, which is why the values stated here for the previous year cannot be compared directly with those of the previous year's profile).\r\n \r\nThere are also considerable differences between the individual tools. The range between the lowest and highest value is very high with 55 points.",
  "tools": {
    "1": {
      "text": "The canton has various channels on social media (Twitter, Facebook) that are used regularly. (https://twitter.com/kantonsg; https://www.facebook.com/KantonSG). Therefore, 2 points are assigned.\r\n\r\nIn total, the canton receives 2 points."
    },
    "2": {
      "text": "In the canton, voters have access to VoteInfo and smartvote. (https://www.bfs.admin.ch/bfs/fr/home/statistiques/politique/votations/voteinfo.html). Therefore, 3 points are assigned.\r\nBonus and Malus:\r\nInclusiveness:  There are information relevant for participation on a website.  ( https://www.hallo.sg.ch/ ). For this  0.2  points are assigned.\r\n\r\nIn total, the canton receives 3.2 points."
    },
    "3": {
      "text": "There is an open government data portal. Additionally parliamentary protocols are not simply availlable as PDFs but votations are visualised as well. (https://daten.sg.ch/pages/home0/; https://www.ratsinfo.sg.ch/geschaefte). Therefore, 4 points are assigned.\r\nBonus and Malus:\r\nVariety:  Open Government Data portal and portal for parliamentary processes.  ( NA ). For this  0.2  points are assigned.\r\n\r\nIn total, the canton receives 4.2 points."
    },
    "4": {
      "text": "A proprietary software is used for single consultations. Sometimes they use ad-hoc survey and sometimes material can only be submitted by emial. (https://sg.e-mitwirkung.ch/de; https://www.sg.ch/politik-verwaltung/kantonale-vernehmlassungen.html). Therefore, 4 points are assigned.\r\n\r\nIn total, the canton receives 4 points."
    },
    "5": {
      "text": "Some activity on openpetition.eu , nothing currently going on in petitio.ch. (https://www.openpetition.eu/ch/region/petition/Sankt_Gallen_1687006; https://www.petitio.ch/petitions/province/st-gallen-1u2ff?state=all). Therefore, 2 points are assigned.\r\n\r\nIn total, the canton receives 2 points."
    },
    "6": {
      "text": "Needs a SwissID or an account with the canton. It is very hard to find. (https://eportal.sg.ch/Pages/Default.aspx). Therefore, 4 points are assigned.\r\n\r\nIn total, the canton receives 4 points."
    },
    "7": {
      "text": "St. Gallen reintorduced e-votung for Swiss living abroad for the ballot in June 2023. (https://www.ch.ch/de/search?q=e-voting). Therefore, 4 points are assigned.\r\nBonus and Malus:\r\nUse: Roughly 12 % of the citizens elligible and participating used e-voting. (https://www.bk.admin.ch/bk/de/home/politische-rechte/e-voting/versuchsuebersicht.html). For this -0.2 points are assigned.\r\nInclusiveness: Two 0.2ses and -0.2 cancel out partly as Swiss living abroad and five test municipalieites are allowed to use e-voting but other citizens are explicitly excluded.(NA). For this 0.2 points are assigned.\r\n\r\nIn total, the canton receives 4 points."
    }
  }
}
